{
  "_id": "PjueM5z4eylwlWbK",
  "name": "Air Blast",
  "type": "feat",
  "img": "modules/pf1spheres/assets/icons/spheres/destruction.webp",
  "effects": [],
  "folder": null,
  "sort": 0,
  "flags": {
    "pf1spheres": {
      "sphere": "destruction"
    }
  },
  "system": {
    "description": {
      "value": "<p>You may change your destructive blast into a blast of air. An air blast deals nonlethal bludgeoning damage. You may make a bull rush as a free action at range against the target or targets struck by your air blast or that failed their Reflex saving throw if one was required. Your CMB for this check is your caster level + your casting ability modifier, and all targets are pushed from the point of origin of the effect. (This is usually yourself, but if using a talent such as Explosive Orb, it would be the center of the blast. If using Energy Wall, each square of wall is considered the center of effect for those who enter that section. If using Guided Strike, you may choose from which direction you want to push the target, even pushing them up or down if you should desire. Pushing a target into the ground knocks them prone if the bull rush is successful.)</p>\n<p>If the target is knocked into a solid object, they suffer 1d6 bludgeoning damage, +1d6 for every 5 feet they would have continued past the barrier. You do not move with the targets of your bull rush.</p>\n",
      "unidentified": ""
    },
    "tags": ["Blast Type", "Air"],
    "actions": [],
    "uses": {
      "per": null,
      "value": 0,
      "maxFormula": "",
      "autoDeductChargesCost": "1"
    },
    "attackNotes": [],
    "effectNotes": [],
    "changes": [],
    "changeFlags": {
      "loseDexToAC": false,
      "noEncumbrance": false,
      "mediumArmorFullSpeed": false,
      "heavyArmorFullSpeed": false
    },
    "contextNotes": [],
    "links": {
      "children": [],
      "charges": []
    },
    "tag": "",
    "useCustomTag": false,
    "armorProf": {
      "value": [],
      "custom": ""
    },
    "weaponProf": {
      "value": [],
      "custom": ""
    },
    "languages": {
      "value": [],
      "custom": ""
    },
    "flags": {
      "boolean": {},
      "dictionary": {}
    },
    "scriptCalls": [],
    "subType": "magicTalent",
    "associations": {
      "classes": []
    },
    "showInQuickbar": false,
    "abilityType": "none",
    "crOffset": "",
    "disabled": false,
    "classSkills": {},
    "nonlethal": false,
    "duration": {
      "value": null,
      "units": ""
    },
    "target": {
      "value": ""
    },
    "attackName": "",
    "actionType": null,
    "attackBonus": "",
    "critConfirmBonus": "",
    "damage": {
      "parts": [],
      "critParts": [],
      "nonCritParts": []
    },
    "attackParts": [],
    "formulaicAttacks": {
      "count": {
        "formula": ""
      },
      "bonus": {
        "formula": ""
      },
      "label": null
    },
    "formula": "",
    "ability": {
      "attack": null,
      "damage": null,
      "damageMult": 1,
      "critRange": 20,
      "critMult": 2
    },
    "save": {
      "dc": 0,
      "type": "",
      "description": ""
    },
    "soundEffect": "",
    "powerAttack": {
      "multiplier": "",
      "damageBonus": 2,
      "critMultiplier": 1
    }
  },
  "ownership": {
    "default": 0
  },
  "_stats": {
    "systemId": "pf1",
    "systemVersion": "9.0",
    "coreVersion": "10.291",
    "createdTime": 1663168891839,
    "modifiedTime": 1689623923181,
    "lastModifiedBy": "pf1spheres-db000"
  }
}
