{
  "_id": "4ZMhFo8bFSkMaMwK",
  "name": "Costly Creation",
  "type": "feat",
  "img": "modules/pf1spheres/assets/icons/spheres/creation.webp",
  "effects": [],
  "folder": null,
  "sort": 0,
  "flags": {
    "pf1spheres": {
      "sphere": "creation"
    }
  },
  "system": {
    "description": {
      "value": "<p><strong>Prerequisites:</strong> Creation sphere (Expanded Materials (material), Lengthened Creation; (Change Material (alter), Expanded Materials (material), Forge (alter), Permanent Change (advanced)) or Create Materials (advanced)), caster level 15th.</p>\n<p>You may spend 5 additional spell points when using Create Materials or Permanent Change to permanently create valuable raw materials, including gems, precious metals (such as gold or silver), and rare metals (such as cold iron or mithral). When using this talent your caster level is halved for determining the quantity of material that can be created.</p>\n<p><strong>Note:</strong> This talent can be unbalancing for a game, and GMs should consider its role in their setting before allowing it to fall into player hands. However, if handled correctly, this talent can lead to interesting interactions between players and setting. For example, the players might flood a market with rare jewels only to find their value plummets as the market floods. This applies to the selling of a mass amount of mithral or adamantine as well. Also remember that towns have a maximum buy value and attempting to sell items that exceed this value cannot be done.</p>\n<p>Additionally take note of how this talent could affect the world at large outside of PC hands. If many high level Creation casters exist, then normally rare materials might be commonplace in the setting, their rarity long since diminished by industrious casters, or perhaps the materials are not naturally occurring at all and the few mages with the ability to create them charge a fortune for their use, keeping their prices high. This ultimate secret of Creation might even be passed down only among those of a certain order, limiting the talent&#8217;s availability to a select few, like medieval guilds, with well guarded, secret recipes whose methods could be lost.</p>\n",
      "unidentified": ""
    },
    "tags": [],
    "actions": [],
    "uses": {
      "per": null,
      "value": 0,
      "maxFormula": "",
      "autoDeductChargesCost": "1"
    },
    "attackNotes": [],
    "effectNotes": [],
    "changes": [],
    "changeFlags": {
      "loseDexToAC": false,
      "noEncumbrance": false,
      "mediumArmorFullSpeed": false,
      "heavyArmorFullSpeed": false
    },
    "contextNotes": [],
    "links": {
      "children": [],
      "charges": []
    },
    "tag": "",
    "useCustomTag": false,
    "armorProf": {
      "value": [],
      "custom": ""
    },
    "weaponProf": {
      "value": [],
      "custom": ""
    },
    "languages": {
      "value": [],
      "custom": ""
    },
    "flags": {
      "boolean": {},
      "dictionary": {}
    },
    "scriptCalls": [],
    "subType": "magicTalent",
    "associations": {
      "classes": []
    },
    "showInQuickbar": false,
    "abilityType": "none",
    "crOffset": "",
    "disabled": false,
    "classSkills": {},
    "nonlethal": false,
    "duration": {
      "value": null,
      "units": ""
    },
    "target": {
      "value": ""
    },
    "attackName": "",
    "actionType": null,
    "attackBonus": "",
    "critConfirmBonus": "",
    "damage": {
      "parts": [],
      "critParts": [],
      "nonCritParts": []
    },
    "attackParts": [],
    "formulaicAttacks": {
      "count": {
        "formula": ""
      },
      "bonus": {
        "formula": ""
      },
      "label": null
    },
    "formula": "",
    "ability": {
      "attack": null,
      "damage": null,
      "damageMult": 1,
      "critRange": 20,
      "critMult": 2
    },
    "save": {
      "dc": 0,
      "type": "",
      "description": ""
    },
    "soundEffect": "",
    "powerAttack": {
      "multiplier": "",
      "damageBonus": 2,
      "critMultiplier": 1
    }
  },
  "ownership": {
    "default": 0
  },
  "_stats": {
    "systemId": "pf1",
    "systemVersion": "9.0",
    "coreVersion": "10.291",
    "createdTime": 1663168890461,
    "modifiedTime": 1689623922742,
    "lastModifiedBy": "pf1spheres-db000"
  }
}
