{
  "_id": "FQ0Qw1YFJtL2F8KN",
  "name": "Disrupt Focus",
  "type": "feat",
  "img": "modules/pf1spheres/assets/icons/spheres/mind.webp",
  "effects": [],
  "folder": null,
  "sort": 0,
  "flags": {
    "pf1spheres": {
      "sphere": "mind"
    }
  },
  "system": {
    "description": {
      "value": "<p>You can make it harder for a target to concentrate on using their magic.</p>\n<p><strong>Lesser Charm:</strong> Your target must succeed at a concentration check with a DC equal to 10 + your casting ability modifier + half your caster level for any spell, talent, or similar effect that might otherwise be subject to a concentration check under adverse conditions (Will negates). You must concentrate to maintain this effect, up to a maximum number of rounds equal to half your caster level (minimum 1) or until the target fails a concentration check, whichever comes first.</p>\n<p><strong>Greater Charm:</strong> As the lesser charm, though you no longer need to concentrate to maintain the effect, the duration is equal to your caster level (or until the target fails a concentration check, whichever comes first), and the concentration DC equals 10 + your casting ability modifier + your caster level.</p>\n<p><strong>Powerful Charm:</strong> As the greater charm, though the effect persists even if the target fails a concentration check, lasting for up to a maximum duration of a number of rounds equal to your caster level.</p>\n",
      "unidentified": ""
    },
    "tags": ["Charm"],
    "actions": [],
    "uses": {
      "per": null,
      "value": 0,
      "maxFormula": "",
      "autoDeductChargesCost": "1"
    },
    "attackNotes": [],
    "effectNotes": [],
    "changes": [],
    "changeFlags": {
      "loseDexToAC": false,
      "noEncumbrance": false,
      "mediumArmorFullSpeed": false,
      "heavyArmorFullSpeed": false
    },
    "contextNotes": [],
    "links": {
      "children": [],
      "charges": []
    },
    "tag": "",
    "useCustomTag": false,
    "armorProf": {
      "value": [],
      "custom": ""
    },
    "weaponProf": {
      "value": [],
      "custom": ""
    },
    "languages": {
      "value": [],
      "custom": ""
    },
    "flags": {
      "boolean": {},
      "dictionary": {}
    },
    "scriptCalls": [],
    "subType": "magicTalent",
    "associations": {
      "classes": []
    },
    "showInQuickbar": false,
    "abilityType": "none",
    "crOffset": "",
    "disabled": false,
    "classSkills": {},
    "nonlethal": false,
    "duration": {
      "value": null,
      "units": ""
    },
    "target": {
      "value": ""
    },
    "attackName": "",
    "actionType": null,
    "attackBonus": "",
    "critConfirmBonus": "",
    "damage": {
      "parts": [],
      "critParts": [],
      "nonCritParts": []
    },
    "attackParts": [],
    "formulaicAttacks": {
      "count": {
        "formula": ""
      },
      "bonus": {
        "formula": ""
      },
      "label": null
    },
    "formula": "",
    "ability": {
      "attack": null,
      "damage": null,
      "damageMult": 1,
      "critRange": 20,
      "critMult": 2
    },
    "save": {
      "dc": 0,
      "type": "",
      "description": ""
    },
    "soundEffect": "",
    "powerAttack": {
      "multiplier": "",
      "damageBonus": 2,
      "critMultiplier": 1
    }
  },
  "ownership": {
    "default": 0
  },
  "_stats": {
    "systemId": "pf1",
    "systemVersion": "9.0",
    "coreVersion": "10.291",
    "createdTime": 1663168891036,
    "modifiedTime": 1689623923002,
    "lastModifiedBy": "pf1spheres-db000"
  }
}
