{
  "_id": "83S0HZK8lZkSRC1q",
  "name": "Divisive Totem",
  "type": "feat",
  "img": "modules/pf1spheres/assets/icons/spheres/war.webp",
  "effects": [],
  "folder": null,
  "sort": 0,
  "flags": {
    "pf1spheres": {
      "sphere": "war"
    }
  },
  "system": {
    "description": {
      "value": "<p>You must spend a spell point to create a divisive totem. While within this totem, enemies lose trust in all other creatures. They have no allies except themselves, only enemies. If an effect can only target allies, they can only use it on themselves. They resist the help of other creatures, attempt saving throws even when an ability is harmless (such as healing), and resist being touched. Enemy creatures can not move through other creatures&#8217; squares. Summoned and conjured creatures no longer obey commands. This is a mind-affecting compulsion ability.</p>\n<p>A creature within this totem gets a Will saving throw upon first encountering it, and an additional Will saving throw at the end of each turn they are affected by it until they successfully save. Even when a successful save is made, their allies may still treat the creature as an enemy if they are also within the totem and have not made a save.</p>\n",
      "unidentified": ""
    },
    "tags": ["Totem"],
    "actions": [],
    "uses": {
      "per": null,
      "value": 0,
      "maxFormula": "",
      "autoDeductChargesCost": "1"
    },
    "attackNotes": [],
    "effectNotes": [],
    "changes": [],
    "changeFlags": {
      "loseDexToAC": false,
      "noEncumbrance": false,
      "mediumArmorFullSpeed": false,
      "heavyArmorFullSpeed": false
    },
    "contextNotes": [],
    "links": {
      "children": [],
      "charges": []
    },
    "tag": "",
    "useCustomTag": false,
    "armorProf": {
      "value": [],
      "custom": ""
    },
    "weaponProf": {
      "value": [],
      "custom": ""
    },
    "languages": {
      "value": [],
      "custom": ""
    },
    "flags": {
      "boolean": {},
      "dictionary": {}
    },
    "scriptCalls": [],
    "subType": "magicTalent",
    "associations": {
      "classes": []
    },
    "showInQuickbar": false,
    "abilityType": "none",
    "crOffset": "",
    "disabled": false,
    "classSkills": {},
    "nonlethal": false,
    "duration": {
      "value": null,
      "units": ""
    },
    "target": {
      "value": ""
    },
    "attackName": "",
    "actionType": null,
    "attackBonus": "",
    "critConfirmBonus": "",
    "damage": {
      "parts": [],
      "critParts": [],
      "nonCritParts": []
    },
    "attackParts": [],
    "formulaicAttacks": {
      "count": {
        "formula": ""
      },
      "bonus": {
        "formula": ""
      },
      "label": null
    },
    "formula": "",
    "ability": {
      "attack": null,
      "damage": null,
      "damageMult": 1,
      "critRange": 20,
      "critMult": 2
    },
    "save": {
      "dc": 0,
      "type": "",
      "description": ""
    },
    "soundEffect": "",
    "powerAttack": {
      "multiplier": "",
      "damageBonus": 2,
      "critMultiplier": 1
    }
  },
  "ownership": {
    "default": 0
  },
  "_stats": {
    "systemId": "pf1",
    "systemVersion": "9.0",
    "coreVersion": "10.291",
    "createdTime": 1663168890540,
    "modifiedTime": 1689623922832,
    "lastModifiedBy": "pf1spheres-db000"
  }
}
