{
  "_id": "02QG8jGcvYuaWGG2",
  "name": "Divine Treasure",
  "type": "feat",
  "img": "modules/pf1spheres/assets/icons/spheres/divination.webp",
  "effects": [],
  "folder": null,
  "sort": 0,
  "flags": {
    "pf1spheres": {
      "sphere": "divination"
    }
  },
  "system": {
    "description": {
      "value": "<p>You may divine the presence of valuable items within range. Items exude an aura depending on their gold piece value and collections of material (such as piles of gold coins, a bushel of exotic fruit, or chests full of gemstones) radiate their auras as a single aura. You gain an insight bonus on Appraise checks equal to half your caster level to discern the value of objects you divine with this sphere effect. Utilize the following chart when determining value:</p>\n<strong>Table: Divine Treasure values and auras</strong><br>\n<table class=\"wiki-content-table\">\n<tr>\n<th>Value</th>\n<th>Examples</th>\n<th>Aura</th>\n</tr>\n<tr>\n<td>Inconsequential (10 gp or less)</td>\n<td>Commonplace clothing and goods, simple tools and weapons</td>\n<td>Faint</td>\n</tr>\n<tr>\n<td>Valuable (11-999 gp)</td>\n<td>Armor, expensive clothing, jewelry</td>\n<td>Moderate</td>\n</tr>\n<tr>\n<td>Incredibly valuable (1,000-9,999 gp)</td>\n<td>Magic items, finely-crafted jewelry</td>\n<td>Strong</td>\n</tr>\n<tr>\n<td>Extremely valuable (10,000 gp or more)</td>\n<td>Powerful magic items, exotic relics</td>\n<td>Overwhelming</td>\n</tr>\n</table>\n",
      "unidentified": ""
    },
    "tags": ["Divine"],
    "actions": [],
    "uses": {
      "per": null,
      "value": 0,
      "maxFormula": "",
      "autoDeductChargesCost": "1"
    },
    "attackNotes": [],
    "effectNotes": [],
    "changes": [],
    "changeFlags": {
      "loseDexToAC": false,
      "noEncumbrance": false,
      "mediumArmorFullSpeed": false,
      "heavyArmorFullSpeed": false
    },
    "contextNotes": [],
    "links": {
      "children": [],
      "charges": []
    },
    "tag": "",
    "useCustomTag": false,
    "armorProf": {
      "value": [],
      "custom": ""
    },
    "weaponProf": {
      "value": [],
      "custom": ""
    },
    "languages": {
      "value": [],
      "custom": ""
    },
    "flags": {
      "boolean": {},
      "dictionary": {}
    },
    "scriptCalls": [],
    "subType": "magicTalent",
    "associations": {
      "classes": []
    },
    "showInQuickbar": false,
    "abilityType": "none",
    "crOffset": "",
    "disabled": false,
    "classSkills": {},
    "nonlethal": false,
    "duration": {
      "value": null,
      "units": ""
    },
    "target": {
      "value": ""
    },
    "attackName": "",
    "actionType": null,
    "attackBonus": "",
    "critConfirmBonus": "",
    "damage": {
      "parts": [],
      "critParts": [],
      "nonCritParts": []
    },
    "attackParts": [],
    "formulaicAttacks": {
      "count": {
        "formula": ""
      },
      "bonus": {
        "formula": ""
      },
      "label": null
    },
    "formula": "",
    "ability": {
      "attack": null,
      "damage": null,
      "damageMult": 1,
      "critRange": 20,
      "critMult": 2
    },
    "save": {
      "dc": 0,
      "type": "",
      "description": ""
    },
    "soundEffect": "",
    "powerAttack": {
      "multiplier": "",
      "damageBonus": 2,
      "critMultiplier": 1
    }
  },
  "ownership": {
    "default": 0
  },
  "_stats": {
    "systemId": "pf1",
    "systemVersion": "9.0",
    "coreVersion": "10.291",
    "createdTime": 1663168890353,
    "modifiedTime": 1689623922684,
    "lastModifiedBy": "pf1spheres-db000"
  }
}
