{
  "_id": "V1dzHAxYAzZvRYnp",
  "name": "Internal Propulsion",
  "type": "feat",
  "img": "modules/pf1spheres/assets/icons/spheres/blood.webp",
  "effects": [],
  "folder": null,
  "sort": 0,
  "flags": {
    "pf1spheres": {
      "sphere": "blood"
    }
  },
  "system": {
    "description": {
      "value": "<p>As a (quicken) ability, you can bolster a creature&#8217;s body and allow them to move swiftly. The target selects one of their movement speeds and gains a +10-foot enhancement bonus to it, +5 feet per 5 caster levels you possess. As a free action, the target can change the selected movement speed once during their turn. If you spend an additional spell point when using this ability, you also grant the creature a fly speed of 20 feet and average maneuverability for one minute. While this form of flight does not necessarily manifest as wings, it is considered winged flight for all purposes.</p>\n<p>As a (blood art), as a standard action or as a swift action if using this effect on a willing creature, you can cause a creature within range to suffer blood loss and move 10 feet in any one direction. This movement does not provoke attacks of opportunity.</p>\n<p>An unwilling creature may attempt a Fortitude save to negate this effect, suffering no blood loss. The target gains a +4 bonus to their saving throw if they would be moved somewhere intrinsically harmful (onto a bed of spikes, into the air, etc.).</p>\n",
      "unidentified": ""
    },
    "tags": ["Blood Art", "Quicken"],
    "actions": [],
    "uses": {
      "per": null,
      "value": 0,
      "maxFormula": "",
      "autoDeductChargesCost": "1"
    },
    "attackNotes": [],
    "effectNotes": [],
    "changes": [],
    "changeFlags": {
      "loseDexToAC": false,
      "noEncumbrance": false,
      "mediumArmorFullSpeed": false,
      "heavyArmorFullSpeed": false
    },
    "contextNotes": [],
    "links": {
      "children": [],
      "charges": []
    },
    "tag": "",
    "useCustomTag": false,
    "armorProf": {
      "value": [],
      "custom": ""
    },
    "weaponProf": {
      "value": [],
      "custom": ""
    },
    "languages": {
      "value": [],
      "custom": ""
    },
    "flags": {
      "boolean": {},
      "dictionary": {}
    },
    "scriptCalls": [],
    "subType": "magicTalent",
    "associations": {
      "classes": []
    },
    "showInQuickbar": false,
    "abilityType": "none",
    "crOffset": "",
    "disabled": false,
    "classSkills": {},
    "nonlethal": false,
    "duration": {
      "value": null,
      "units": ""
    },
    "target": {
      "value": ""
    },
    "attackName": "",
    "actionType": null,
    "attackBonus": "",
    "critConfirmBonus": "",
    "damage": {
      "parts": [],
      "critParts": [],
      "nonCritParts": []
    },
    "attackParts": [],
    "formulaicAttacks": {
      "count": {
        "formula": ""
      },
      "bonus": {
        "formula": ""
      },
      "label": null
    },
    "formula": "",
    "ability": {
      "attack": null,
      "damage": null,
      "damageMult": 1,
      "critRange": 20,
      "critMult": 2
    },
    "save": {
      "dc": 0,
      "type": "",
      "description": ""
    },
    "soundEffect": "",
    "powerAttack": {
      "multiplier": "",
      "damageBonus": 2,
      "critMultiplier": 1
    }
  },
  "ownership": {
    "default": 0
  },
  "_stats": {
    "systemId": "pf1",
    "systemVersion": "9.0",
    "coreVersion": "10.291",
    "createdTime": 1663168892576,
    "modifiedTime": 1689623923321,
    "lastModifiedBy": "pf1spheres-db000"
  }
}
