{
  "_id": "hauFSh59wTGWDZiN",
  "name": "Linear Acceleration",
  "type": "feat",
  "img": "modules/pf1spheres/assets/icons/spheres/telekinesis.webp",
  "effects": [],
  "folder": null,
  "sort": 0,
  "flags": {
    "pf1spheres": {
      "sphere": "telekinesis"
    }
  },
  "system": {
    "description": {
      "value": "<p><strong>Prerequisites:</strong> Telekinesis sphere (Acceleration, Greater Speed), caster level 10th.</p>\n<p>You may spend 2 spell points as a standard action to fling an object you are currently lifting at immense speeds, tying it to a target or location within line of sight, causing it to immediately pass out of your control as it races towards that target, to a maximum distance of 5 miles. This cannot be used to hurl objects into the air nor to attempt to hurl them in an arc for greater distance; the targeted creature, object, or location must be within direct line of sight and line of effect.</p>\n<p>By making a successful ranged touch attack, using your casting ability modifier in place of your Dexterity modifier, against the target you deal double the normal Bludgeon damage to it. If the attack misses, the object strikes the center of the target&#8217;s space. The object&#8217;s impact into the target or their space releases a powerful shockwave and everyone in a 30-foot radius + 5 feet per five caster levels, including the initial target, takes 1d6 damage per 2 caster levels and is dazed for one round. A Fortitude save negates the dazed condition, though the initial target is not allowed a saving throw if the touch attack succeeded. Objects fired using Linear Acceleration suffer the full initial and secondary damage of the attack.</p>\n",
      "unidentified": ""
    },
    "tags": [],
    "actions": [],
    "uses": {
      "per": null,
      "value": 0,
      "maxFormula": "",
      "autoDeductChargesCost": "1"
    },
    "attackNotes": [],
    "effectNotes": [],
    "changes": [],
    "changeFlags": {
      "loseDexToAC": false,
      "noEncumbrance": false,
      "mediumArmorFullSpeed": false,
      "heavyArmorFullSpeed": false
    },
    "contextNotes": [],
    "links": {
      "children": [],
      "charges": []
    },
    "tag": "",
    "useCustomTag": false,
    "armorProf": {
      "value": [],
      "custom": ""
    },
    "weaponProf": {
      "value": [],
      "custom": ""
    },
    "languages": {
      "value": [],
      "custom": ""
    },
    "flags": {
      "boolean": {},
      "dictionary": {}
    },
    "scriptCalls": [],
    "subType": "magicTalent",
    "associations": {
      "classes": []
    },
    "showInQuickbar": false,
    "abilityType": "none",
    "crOffset": "",
    "disabled": false,
    "classSkills": {},
    "nonlethal": false,
    "duration": {
      "value": null,
      "units": ""
    },
    "target": {
      "value": ""
    },
    "attackName": "",
    "actionType": null,
    "attackBonus": "",
    "critConfirmBonus": "",
    "damage": {
      "parts": [],
      "critParts": [],
      "nonCritParts": []
    },
    "attackParts": [],
    "formulaicAttacks": {
      "count": {
        "formula": ""
      },
      "bonus": {
        "formula": ""
      },
      "label": null
    },
    "formula": "",
    "ability": {
      "attack": null,
      "damage": null,
      "damageMult": 1,
      "critRange": 20,
      "critMult": 2
    },
    "save": {
      "dc": 0,
      "type": "",
      "description": ""
    },
    "soundEffect": "",
    "powerAttack": {
      "multiplier": "",
      "damageBonus": 2,
      "critMultiplier": 1
    }
  },
  "ownership": {
    "default": 0
  },
  "_stats": {
    "systemId": "pf1",
    "systemVersion": "9.0",
    "coreVersion": "10.291",
    "createdTime": 1663168893098,
    "modifiedTime": 1689623923526,
    "lastModifiedBy": "pf1spheres-db000"
  }
}
