{
  "_id": "ApL2b0gRgCyOepsf",
  "name": "Melt Skin",
  "type": "feat",
  "img": "modules/pf1spheres/assets/icons/spheres/weather.webp",
  "effects": [],
  "folder": null,
  "sort": 0,
  "flags": {
    "pf1spheres": {
      "sphere": "weather"
    }
  },
  "system": {
    "description": {
      "value": "<p><strong>Prerequisites:</strong> Destruction sphere, Weather sphere (Radiation Lord (advanced)), caster level 10th.</p>\n<p>You place this shroud on a target creature, causing their skin to start melting off their body from the immense radiation. The target takes a -2 penalty to AC, Fortitude saves, and all Charisma-based skill checks. The penalties increase by 1 for every 5 caster levels you possess.</p>\n",
      "unidentified": ""
    },
    "tags": ["Shroud", "Radiation"],
    "actions": [],
    "uses": {
      "per": null,
      "value": 0,
      "maxFormula": "",
      "autoDeductChargesCost": "1"
    },
    "attackNotes": [],
    "effectNotes": [],
    "changes": [],
    "changeFlags": {
      "loseDexToAC": false,
      "noEncumbrance": false,
      "mediumArmorFullSpeed": false,
      "heavyArmorFullSpeed": false
    },
    "contextNotes": [],
    "links": {
      "children": [],
      "charges": []
    },
    "tag": "",
    "useCustomTag": false,
    "armorProf": {
      "value": [],
      "custom": ""
    },
    "weaponProf": {
      "value": [],
      "custom": ""
    },
    "languages": {
      "value": [],
      "custom": ""
    },
    "flags": {
      "boolean": {},
      "dictionary": {}
    },
    "scriptCalls": [],
    "subType": "magicTalent",
    "associations": {
      "classes": []
    },
    "showInQuickbar": false,
    "abilityType": "none",
    "crOffset": "",
    "disabled": false,
    "classSkills": {},
    "nonlethal": false,
    "duration": {
      "value": null,
      "units": ""
    },
    "target": {
      "value": ""
    },
    "attackName": "",
    "actionType": null,
    "attackBonus": "",
    "critConfirmBonus": "",
    "damage": {
      "parts": [],
      "critParts": [],
      "nonCritParts": []
    },
    "attackParts": [],
    "formulaicAttacks": {
      "count": {
        "formula": ""
      },
      "bonus": {
        "formula": ""
      },
      "label": null
    },
    "formula": "",
    "ability": {
      "attack": null,
      "damage": null,
      "damageMult": 1,
      "critRange": 20,
      "critMult": 2
    },
    "save": {
      "dc": 0,
      "type": "",
      "description": ""
    },
    "soundEffect": "",
    "powerAttack": {
      "multiplier": "",
      "damageBonus": 2,
      "critMultiplier": 1
    }
  },
  "ownership": {
    "default": 0
  },
  "_stats": {
    "systemId": "pf1",
    "systemVersion": "9.0",
    "coreVersion": "10.291",
    "createdTime": 1663168890765,
    "modifiedTime": 1689623922941,
    "lastModifiedBy": "pf1spheres-db000"
  }
}
