{
  "_id": "DCJXIYFHtMMFvBxF",
  "name": "Mind Spy",
  "type": "feat",
  "img": "modules/pf1spheres/assets/icons/spheres/mind.webp",
  "effects": [],
  "folder": null,
  "sort": 0,
  "flags": {
    "pf1spheres": {
      "sphere": "mind"
    }
  },
  "system": {
    "description": {
      "value": "<p>You can send a piece of your mind into your target to see the world through their eyes (save negates). The target gets a new Will save every time you use this ability, although consecutive rounds do not give additional saves. While this link to your target remains, you can choose to use this ability at any time before the link expires, or have its activation linked to a specific event that your target may experience. If a target fails their saving throw against this ability, they do not realize it is being used on them.</p>\n<p><strong>Lesser Charm:</strong> While the link remains active, you can use the target&#8217;s senses for 1 round per caster level and see and hear what they can. The rounds need not be consecutive. The link remains active for up to 1 hour per caster level from the time the target is first affected. Abilities that block or suppress possession or remove enchantments (such as the protection from evil spell or the Break Enchantment talent) will similarly block, suppress, or remove the effect of this charm on your target.</p>\n<p><strong>Greater Charm:</strong> As the lesser charm, but you can use their senses for 1 minute per caster level, and the link lasts for 1 day per caster level.</p>\n<p><strong>Powerful Charm:</strong> As the greater charm, but you can use their senses for 1 hour per caster level, and the link lasts for 1 week per caster level.</p>\n",
      "unidentified": ""
    },
    "tags": ["Charm"],
    "actions": [],
    "uses": {
      "per": null,
      "value": 0,
      "maxFormula": "",
      "autoDeductChargesCost": "1"
    },
    "attackNotes": [],
    "effectNotes": [],
    "changes": [],
    "changeFlags": {
      "loseDexToAC": false,
      "noEncumbrance": false,
      "mediumArmorFullSpeed": false,
      "heavyArmorFullSpeed": false
    },
    "contextNotes": [],
    "links": {
      "children": [],
      "charges": []
    },
    "tag": "",
    "useCustomTag": false,
    "armorProf": {
      "value": [],
      "custom": ""
    },
    "weaponProf": {
      "value": [],
      "custom": ""
    },
    "languages": {
      "value": [],
      "custom": ""
    },
    "flags": {
      "boolean": {},
      "dictionary": {}
    },
    "scriptCalls": [],
    "subType": "magicTalent",
    "associations": {
      "classes": []
    },
    "showInQuickbar": false,
    "abilityType": "none",
    "crOffset": "",
    "disabled": false,
    "classSkills": {},
    "nonlethal": false,
    "duration": {
      "value": null,
      "units": ""
    },
    "target": {
      "value": ""
    },
    "attackName": "",
    "actionType": null,
    "attackBonus": "",
    "critConfirmBonus": "",
    "damage": {
      "parts": [],
      "critParts": [],
      "nonCritParts": []
    },
    "attackParts": [],
    "formulaicAttacks": {
      "count": {
        "formula": ""
      },
      "bonus": {
        "formula": ""
      },
      "label": null
    },
    "formula": "",
    "ability": {
      "attack": null,
      "damage": null,
      "damageMult": 1,
      "critRange": 20,
      "critMult": 2
    },
    "save": {
      "dc": 0,
      "type": "",
      "description": ""
    },
    "soundEffect": "",
    "powerAttack": {
      "multiplier": "",
      "damageBonus": 2,
      "critMultiplier": 1
    }
  },
  "ownership": {
    "default": 0
  },
  "_stats": {
    "systemId": "pf1",
    "systemVersion": "9.0",
    "coreVersion": "10.291",
    "createdTime": 1663168890797,
    "modifiedTime": 1689623922968,
    "lastModifiedBy": "pf1spheres-db000"
  }
}
