{
  "_id": "VxrluxG9vWN3rQ3T",
  "name": "Orb Transformation",
  "type": "feat",
  "img": "modules/pf1spheres/assets/icons/spheres/alteration.webp",
  "effects": [],
  "folder": null,
  "sort": 0,
  "flags": {
    "pf1spheres": {
      "sphere": "alteration"
    }
  },
  "system": {
    "description": {
      "value": "<p>You may grant the form of a floating sphere, helmet, or similar shape with your shapeshift.<br>\n<strong>Limbs:</strong> none<br>\n<strong>Speech:</strong> Yes; <strong>Hands:</strong> No<br>\n<strong>Speed:</strong> 5 ft. land speed, 30 ft. + 5 ft. per 5 caster levels float as the Float trait. At caster level 7, this speed becomes a fly speed with maneuverability (perfect). This levitation and flight is a supernatural ability.<br>\n<strong>Natural weapons:</strong> slam (primary, 1d6 Medium, 1d4 Small)<br>\n<strong>AC:</strong> +2 dodge bonus, +1 per 5 caster levels<br>\n<strong>Special:</strong> May benefit from traits requiring a head as if it had one and may not be tripped or beheaded (such as by a vorpal weapon) unless gaining legs or a head, respectively, from another source. A creature in the form of an orb counts as one size smaller for the purposes of stealth and squeezing into small places.</p>\n<p>Orb Transformation offers the following traits, which you may apply to any form:</p>\n<ul>\n<li><strong>Aura of Fascination:</strong> The target projects a 30-foot aura that fascinates creatures which are near it. Such creatures must succeed at a Will save or be fascinated for as long as they remain in the aura. A creature that makes its save is immune to this effect for 24 hours. The target may choose to suppress or resume this ability as a free action. This ability ceases to function if the target is stunned, paralyzed, unconscious, dead, or otherwise incapacitated. This is a mind-affecting effect.</li>\n<li><strong>Beam:</strong> The target can fire a ray as a standard action. This ray is a ranged touch attack with a maximum range of 30 feet and deals 1d6 damage + 1d6 per 3 caster levels. The ray&#8217;s damage is untyped and overcomes damage reduction of any type, though hardness still applies. At 10th caster level, and every 10 caster levels thereafter, the ray&#8217;s maximum range increases by 30 feet. If you spend an additional spell point when granting this trait, the target can charge the ray as a full-round action. At any time after the ray is charged, the target can fire it as a standard action as a 100 feet line, dealng 1d6 per 2 caster levels (minimum 1d6) plus an additional amount of fire damage equal to twice your caster level (Reflex half; DC equal to the caster&#8217;s Alteration sphere DC). Firing the charged ray discharges it, and it must be charged to be fired in this manner again. [SA:EAO]</li>\n<li><strong>Float:</strong> The target may float up to 5 feet + 5 feet per 5 caster levels above the ground, moving at 30 feet + 5 feet per 5 caster levels. When falling the target may choose to descend at a slower rate to control its fall and to negate all falling damage it would take. Each round it descends 30 feet, and may move in another direction for 30 feet. It may choose to drift sideways, gliding forwards while descending, or down, safely increasing its rate of descent. It may even choose to drift &#8216;upwards&#8217; to reduce its rate of descent, even allowing it to negate it entirely and hover midair.</li>\n</ul>\n",
      "unidentified": ""
    },
    "tags": ["Transformation"],
    "actions": [],
    "uses": {
      "per": null,
      "value": 0,
      "maxFormula": "",
      "autoDeductChargesCost": "1"
    },
    "attackNotes": [],
    "effectNotes": [],
    "changes": [],
    "changeFlags": {
      "loseDexToAC": false,
      "noEncumbrance": false,
      "mediumArmorFullSpeed": false,
      "heavyArmorFullSpeed": false
    },
    "contextNotes": [],
    "links": {
      "children": [],
      "charges": []
    },
    "tag": "",
    "useCustomTag": false,
    "armorProf": {
      "value": [],
      "custom": ""
    },
    "weaponProf": {
      "value": [],
      "custom": ""
    },
    "languages": {
      "value": [],
      "custom": ""
    },
    "flags": {
      "boolean": {},
      "dictionary": {}
    },
    "scriptCalls": [],
    "subType": "magicTalent",
    "associations": {
      "classes": []
    },
    "showInQuickbar": false,
    "abilityType": "none",
    "crOffset": "",
    "disabled": false,
    "classSkills": {},
    "nonlethal": false,
    "duration": {
      "value": null,
      "units": ""
    },
    "target": {
      "value": ""
    },
    "attackName": "",
    "actionType": null,
    "attackBonus": "",
    "critConfirmBonus": "",
    "damage": {
      "parts": [],
      "critParts": [],
      "nonCritParts": []
    },
    "attackParts": [],
    "formulaicAttacks": {
      "count": {
        "formula": ""
      },
      "bonus": {
        "formula": ""
      },
      "label": null
    },
    "formula": "",
    "ability": {
      "attack": null,
      "damage": null,
      "damageMult": 1,
      "critRange": 20,
      "critMult": 2
    },
    "save": {
      "dc": 0,
      "type": "",
      "description": ""
    },
    "soundEffect": "",
    "powerAttack": {
      "multiplier": "",
      "damageBonus": 2,
      "critMultiplier": 1
    }
  },
  "ownership": {
    "default": 0
  },
  "_stats": {
    "systemId": "pf1",
    "systemVersion": "9.0",
    "coreVersion": "10.291",
    "createdTime": 1663168892593,
    "modifiedTime": 1689623923329,
    "lastModifiedBy": "pf1spheres-db000"
  }
}
