{
  "_id": "tZIggqc8CSbmsu3n",
  "name": "Phantom Mind",
  "type": "feat",
  "img": "modules/pf1spheres/assets/icons/spheres/illusion.webp",
  "effects": [],
  "folder": null,
  "sort": 0,
  "flags": {
    "pf1spheres": {
      "sphere": "illusion"
    }
  },
  "system": {
    "description": {
      "value": "<p><strong>Prerequisites:</strong> Illusion sphere (Lingering Illusion, Programmed Illusion), caster level 8th.</p>\n<p>By spending an additional spell point, you no longer need to have line of sight or spend a standard action to direct, move, or alter your figments. This allows your figments to somewhat automatically adapt to situations without having to be given new orders or modifying appearances to fit the situation.</p>\n<p>Your illusions, when behaving autonomously, act and react more or less realistically depending upon your caster level. Use the following table as a guideline for what may at most be expected from an illusion acting independently.</p>\n<strong>Table: Phantom Mind Illusion Realism</strong><br>\n<table class=\"wiki-content-table\">\n<tr>\n<th>CL</th>\n<th>Maximum Expected Realistic Effect</th>\n</tr>\n<tr>\n<td>8-10</td>\n<td>Simple communication (as a human toddler).</td>\n</tr>\n<tr>\n<td>11-12</td>\n<td>Decent problem solving, moderate communication (as a very young human).</td>\n</tr>\n<tr>\n<td>13-14</td>\n<td>Decent communication (as a young human).</td>\n</tr>\n<tr>\n<td>15-16</td>\n<td>Advanced problem solving and simple planning (as an adolescent human).</td>\n</tr>\n<tr>\n<td>17-18</td>\n<td>Advanced communication and moderate planning (as a dumb human).</td>\n</tr>\n<tr>\n<td>19-20</td>\n<td>Advanced planning (as an average human).</td>\n</tr>\n</table>\n<p>Phantom Mind illusions resist casual testing, as they know when they should respond and how, and can outsmart less intelligent creatures without direction from you. Creatures with an Intelligence score lower than half the caster level of the illusion gain no benefits from obvious signs of trickery and cannot outsmart them with causal testing.</p>\n",
      "unidentified": ""
    },
    "tags": [],
    "actions": [],
    "uses": {
      "per": null,
      "value": 0,
      "maxFormula": "",
      "autoDeductChargesCost": "1"
    },
    "attackNotes": [],
    "effectNotes": [],
    "changes": [],
    "changeFlags": {
      "loseDexToAC": false,
      "noEncumbrance": false,
      "mediumArmorFullSpeed": false,
      "heavyArmorFullSpeed": false
    },
    "contextNotes": [],
    "links": {
      "children": [],
      "charges": []
    },
    "tag": "",
    "useCustomTag": false,
    "armorProf": {
      "value": [],
      "custom": ""
    },
    "weaponProf": {
      "value": [],
      "custom": ""
    },
    "languages": {
      "value": [],
      "custom": ""
    },
    "flags": {
      "boolean": {},
      "dictionary": {}
    },
    "scriptCalls": [],
    "subType": "magicTalent",
    "associations": {
      "classes": []
    },
    "showInQuickbar": false,
    "abilityType": "none",
    "crOffset": "",
    "disabled": false,
    "classSkills": {},
    "nonlethal": false,
    "duration": {
      "value": null,
      "units": ""
    },
    "target": {
      "value": ""
    },
    "attackName": "",
    "actionType": null,
    "attackBonus": "",
    "critConfirmBonus": "",
    "damage": {
      "parts": [],
      "critParts": [],
      "nonCritParts": []
    },
    "attackParts": [],
    "formulaicAttacks": {
      "count": {
        "formula": ""
      },
      "bonus": {
        "formula": ""
      },
      "label": null
    },
    "formula": "",
    "ability": {
      "attack": null,
      "damage": null,
      "damageMult": 1,
      "critRange": 20,
      "critMult": 2
    },
    "save": {
      "dc": 0,
      "type": "",
      "description": ""
    },
    "soundEffect": "",
    "powerAttack": {
      "multiplier": "",
      "damageBonus": 2,
      "critMultiplier": 1
    }
  },
  "ownership": {
    "default": 0
  },
  "_stats": {
    "systemId": "pf1",
    "systemVersion": "9.0",
    "coreVersion": "10.291",
    "createdTime": 1663168894368,
    "modifiedTime": 1689623923790,
    "lastModifiedBy": "pf1spheres-db000"
  }
}
