{
  "_id": "QIEW4SZZStrKDF0F",
  "name": "Pixie Sticks",
  "type": "feat",
  "img": "modules/pf1spheres/assets/icons/spheres/fallen_fey.webp",
  "effects": [],
  "folder": null,
  "sort": 0,
  "flags": {
    "pf1spheres": {
      "sphere": "fallenFey"
    }
  },
  "system": {
    "description": {
      "value": "<p>You may activate the following abilities as fey-blessings:</p>\n<p><strong>Pixie Stick:</strong> For the duration of this fey-blessing, you form a mystical bond with any mostly-wooden weapon (such as a club, quarterstaff, or spear) you wield, or mostly-wooden ammunition such as an arrow or bolt from a ranged weapon you use. You gain a +1 insight bonus on attack and damage rolls when using such a weapon or ammunition. This bonus increases by 1 for every 5 caster levels you possess.</p>\n<p><strong>Stick Pixies:</strong> You may spend a spell point to summon a creature of the plant type with a CR of no greater than your caster level/3 as a 1-round action. A creature summoned this way gains the fey subtype, and is treated as a fey in addition to any other types it may possess. The creature appears within 30 feet of you and remains and serves you for the duration of your feylink. The creature obeys your commands, but unless you speak the creature&#8217;s language, or are able to speak with plants, only basic communication is possible (attacking an enemy, defending the caster, etc.).</p>\n<p>The total Hit Dice of plants called at one time cannot exceed your caster level (temporary increases to caster level such as the thaumaturge&#8217;s forbidden lore ability or implements of the Fallen Fey sphere do not increase this capacity nor the highest CR creature you may summon). Attempting to summon an additional plant forces you to dismiss a number of existing plants to bring the total under this limit. If a summoned creature expends abilities with a limited use, those abilities are expended for all creatures of the same kind. Likewise, a creature that gains immunity to an ability of a summoned creature gains immunity to that ability originating from all creatures of that type that you summon.</p>\n<p><strong>Sugar Sticks:</strong> You manifest a tube of sugary-sweet pixie dust for the duration of this fey-blessing. You may consume this pixie dust as a swift action, or feed to another willing creature as a standard action. Consuming the pixie dust restores 1 hit point per caster level. A creature cannot consume pixie dust more than once every 10 minutes.</p>\n<p>The tube replenishes itself as a free action for the duration of the fey-blessing, then disappears when it ends. If the tube is not in your possession at the start of your turn, you can summon it to yourself as a move action as long as you have line of sight to it.</p>\n",
      "unidentified": ""
    },
    "tags": ["Fey-Blessing"],
    "actions": [],
    "uses": {
      "per": null,
      "value": 0,
      "maxFormula": "",
      "autoDeductChargesCost": "1"
    },
    "attackNotes": [],
    "effectNotes": [],
    "changes": [],
    "changeFlags": {
      "loseDexToAC": false,
      "noEncumbrance": false,
      "mediumArmorFullSpeed": false,
      "heavyArmorFullSpeed": false
    },
    "contextNotes": [],
    "links": {
      "children": [],
      "charges": []
    },
    "tag": "",
    "useCustomTag": false,
    "armorProf": {
      "value": [],
      "custom": ""
    },
    "weaponProf": {
      "value": [],
      "custom": ""
    },
    "languages": {
      "value": [],
      "custom": ""
    },
    "flags": {
      "boolean": {},
      "dictionary": {}
    },
    "scriptCalls": [],
    "subType": "magicTalent",
    "associations": {
      "classes": []
    },
    "showInQuickbar": false,
    "abilityType": "none",
    "crOffset": "",
    "disabled": false,
    "classSkills": {},
    "nonlethal": false,
    "duration": {
      "value": null,
      "units": ""
    },
    "target": {
      "value": ""
    },
    "attackName": "",
    "actionType": null,
    "attackBonus": "",
    "critConfirmBonus": "",
    "damage": {
      "parts": [],
      "critParts": [],
      "nonCritParts": []
    },
    "attackParts": [],
    "formulaicAttacks": {
      "count": {
        "formula": ""
      },
      "bonus": {
        "formula": ""
      },
      "label": null
    },
    "formula": "",
    "ability": {
      "attack": null,
      "damage": null,
      "damageMult": 1,
      "critRange": 20,
      "critMult": 2
    },
    "save": {
      "dc": 0,
      "type": "",
      "description": ""
    },
    "soundEffect": "",
    "powerAttack": {
      "multiplier": "",
      "damageBonus": 2,
      "critMultiplier": 1
    }
  },
  "ownership": {
    "default": 0
  },
  "_stats": {
    "systemId": "pf1",
    "systemVersion": "9.0",
    "coreVersion": "10.291",
    "createdTime": 1663168891961,
    "modifiedTime": 1689623923186,
    "lastModifiedBy": "pf1spheres-db000"
  }
}
