{
  "_id": "xNJgDZbAtqB0kC2w",
  "name": "Rebuff",
  "type": "feat",
  "img": "modules/pf1spheres/assets/icons/spheres/destruction.webp",
  "effects": [],
  "folder": null,
  "sort": 0,
  "flags": {
    "pf1spheres": {
      "sphere": "destruction"
    }
  },
  "system": {
    "description": {
      "value": "<p>You may use your destructive blast to shield a target within range from ranged weapons, area effects, or even other destructive blasts for 1 round, giving them the benefits of evasion, a +2 cover bonus to AC vs. ranged attacks, and a +1 cover bonus to their Reflex saves. These bonuses increase by +2/+1 respectively for every 5 caster levels you possess.</p>\n<p>By spending a spell point, you may perform a rebuff as an immediate action, or provide the benefits to all targets within 10-foot of you + 5 feet per 5 caster levels. You may spend 2 spell points to gain both of these benefits with the same rebuff.</p>\n",
      "unidentified": ""
    },
    "tags": ["Blast Shape"],
    "actions": [],
    "uses": {
      "per": null,
      "value": 0,
      "maxFormula": "",
      "autoDeductChargesCost": "1"
    },
    "attackNotes": [],
    "effectNotes": [],
    "changes": [],
    "changeFlags": {
      "loseDexToAC": false,
      "noEncumbrance": false,
      "mediumArmorFullSpeed": false,
      "heavyArmorFullSpeed": false
    },
    "contextNotes": [],
    "links": {
      "children": [],
      "charges": []
    },
    "tag": "",
    "useCustomTag": false,
    "armorProf": {
      "value": [],
      "custom": ""
    },
    "weaponProf": {
      "value": [],
      "custom": ""
    },
    "languages": {
      "value": [],
      "custom": ""
    },
    "flags": {
      "boolean": {},
      "dictionary": {}
    },
    "scriptCalls": [],
    "subType": "magicTalent",
    "associations": {
      "classes": []
    },
    "showInQuickbar": false,
    "abilityType": "none",
    "crOffset": "",
    "disabled": false,
    "classSkills": {},
    "nonlethal": false,
    "duration": {
      "value": null,
      "units": ""
    },
    "target": {
      "value": ""
    },
    "attackName": "",
    "actionType": null,
    "attackBonus": "",
    "critConfirmBonus": "",
    "damage": {
      "parts": [],
      "critParts": [],
      "nonCritParts": []
    },
    "attackParts": [],
    "formulaicAttacks": {
      "count": {
        "formula": ""
      },
      "bonus": {
        "formula": ""
      },
      "label": null
    },
    "formula": "",
    "ability": {
      "attack": null,
      "damage": null,
      "damageMult": 1,
      "critRange": 20,
      "critMult": 2
    },
    "save": {
      "dc": 0,
      "type": "",
      "description": ""
    },
    "soundEffect": "",
    "powerAttack": {
      "multiplier": "",
      "damageBonus": 2,
      "critMultiplier": 1
    }
  },
  "ownership": {
    "default": 0
  },
  "_stats": {
    "systemId": "pf1",
    "systemVersion": "9.0",
    "coreVersion": "10.291",
    "createdTime": 1663168894674,
    "modifiedTime": 1689623923840,
    "lastModifiedBy": "pf1spheres-db000"
  }
}
