{
  "_id": "o8K7w5xdvzCiEDXH",
  "name": "Regenerating Companion",
  "type": "feat",
  "img": "modules/pf1spheres/assets/icons/spheres/conjuration.webp",
  "effects": [],
  "folder": null,
  "sort": 0,
  "flags": {
    "pf1spheres": {
      "sphere": "conjuration"
    }
  },
  "system": {
    "description": {
      "value": "<p><strong>Prerequisites:</strong> Conjuration sphere (Natural Aspect (form) (fast healing option)), caster level 10th.</p>\n<p>Your companion&#8217;s fast healing becomes regeneration instead. Your companion is not dismissed if reduced to or below 0 hit points, nor are effects that trigger when the companion is reduced to 0 hit points (such as Explosive Companion) triggered, unless this regeneration is suppressed.</p>\n<p>This regeneration is overcome by two of the following damage types of your choice: acid, bludgeoning, cold, electricity, fire, negative energy, piercing, positive energy, or slashing. You cannot select a damage type that your companion possesses resistance or immunity to from a permanent ability, such as a (form) or (type) talent.</p>\n<p>Should your companion later gain resistance or immunity to the selected damage type from a permanent ability, you must select a new damage type.</p>\n",
      "unidentified": ""
    },
    "tags": ["Form"],
    "actions": [],
    "uses": {
      "per": null,
      "value": 0,
      "maxFormula": "",
      "autoDeductChargesCost": "1"
    },
    "attackNotes": [],
    "effectNotes": [],
    "changes": [],
    "changeFlags": {
      "loseDexToAC": false,
      "noEncumbrance": false,
      "mediumArmorFullSpeed": false,
      "heavyArmorFullSpeed": false
    },
    "contextNotes": [],
    "links": {
      "children": [],
      "charges": []
    },
    "tag": "",
    "useCustomTag": false,
    "armorProf": {
      "value": [],
      "custom": ""
    },
    "weaponProf": {
      "value": [],
      "custom": ""
    },
    "languages": {
      "value": [],
      "custom": ""
    },
    "flags": {
      "boolean": {},
      "dictionary": {}
    },
    "scriptCalls": [],
    "subType": "magicTalent",
    "associations": {
      "classes": []
    },
    "showInQuickbar": false,
    "abilityType": "none",
    "crOffset": "",
    "disabled": false,
    "classSkills": {},
    "nonlethal": false,
    "duration": {
      "value": null,
      "units": ""
    },
    "target": {
      "value": ""
    },
    "attackName": "",
    "actionType": null,
    "attackBonus": "",
    "critConfirmBonus": "",
    "damage": {
      "parts": [],
      "critParts": [],
      "nonCritParts": []
    },
    "attackParts": [],
    "formulaicAttacks": {
      "count": {
        "formula": ""
      },
      "bonus": {
        "formula": ""
      },
      "label": null
    },
    "formula": "",
    "ability": {
      "attack": null,
      "damage": null,
      "damageMult": 1,
      "critRange": 20,
      "critMult": 2
    },
    "save": {
      "dc": 0,
      "type": "",
      "description": ""
    },
    "soundEffect": "",
    "powerAttack": {
      "multiplier": "",
      "damageBonus": 2,
      "critMultiplier": 1
    }
  },
  "ownership": {
    "default": 0
  },
  "_stats": {
    "systemId": "pf1",
    "systemVersion": "9.0",
    "coreVersion": "10.291",
    "createdTime": 1663168893613,
    "modifiedTime": 1689623923649,
    "lastModifiedBy": "pf1spheres-db000"
  }
}
