{
  "_id": "Kio30f5nXNiGoqkQ",
  "name": "Snare Setter",
  "type": "feat",
  "img": "modules/pf1spheres/assets/icons/spheres/fallen_fey.webp",
  "effects": [],
  "folder": null,
  "sort": 0,
  "flags": {
    "pf1spheres": {
      "sphere": "fallenFey"
    }
  },
  "system": {
    "description": {
      "value": "<p>You may make a snare that functions as a magic trap. You may conjure and set a snare as a standard action in a square within close range, which blends with its surroundings (DC 20 + caster level Perception check for a character with the trapfinding ability to locate). One end of the snare is tied in a loop that contracts around one or more of the limbs of any creature stepping inside the circle. The cord-like object tightens around the creature, dealing no damage but causing it to be entangled and preventing it from moving from that space.</p>\n<p>The snare is magical and can be dispelled as a sphere effect.</p>\n<p>To escape, a trapped creature must attempt an Escape Artist check or Strength check equal to your sphere DC as a full-round action. The snare has AC and hit points equal to your caster level and hardness equal to half your caster level. A successful escape from the snare breaks the loop and ends the effect, though not the fey-blessing. A snare persists until triggered or until the fey-link ends. Only one snare may be set at a time; setting an additional snare dismisses all previous snares.</p>\n",
      "unidentified": ""
    },
    "tags": ["Fey-Blessing"],
    "actions": [],
    "uses": {
      "per": null,
      "value": 0,
      "maxFormula": "",
      "autoDeductChargesCost": "1"
    },
    "attackNotes": [],
    "effectNotes": [],
    "changes": [],
    "changeFlags": {
      "loseDexToAC": false,
      "noEncumbrance": false,
      "mediumArmorFullSpeed": false,
      "heavyArmorFullSpeed": false
    },
    "contextNotes": [],
    "links": {
      "children": [],
      "charges": []
    },
    "tag": "",
    "useCustomTag": false,
    "armorProf": {
      "value": [],
      "custom": ""
    },
    "weaponProf": {
      "value": [],
      "custom": ""
    },
    "languages": {
      "value": [],
      "custom": ""
    },
    "flags": {
      "boolean": {},
      "dictionary": {}
    },
    "scriptCalls": [],
    "subType": "magicTalent",
    "associations": {
      "classes": []
    },
    "showInQuickbar": false,
    "abilityType": "none",
    "crOffset": "",
    "disabled": false,
    "classSkills": {},
    "nonlethal": false,
    "duration": {
      "value": null,
      "units": ""
    },
    "target": {
      "value": ""
    },
    "attackName": "",
    "actionType": null,
    "attackBonus": "",
    "critConfirmBonus": "",
    "damage": {
      "parts": [],
      "critParts": [],
      "nonCritParts": []
    },
    "attackParts": [],
    "formulaicAttacks": {
      "count": {
        "formula": ""
      },
      "bonus": {
        "formula": ""
      },
      "label": null
    },
    "formula": "",
    "ability": {
      "attack": null,
      "damage": null,
      "damageMult": 1,
      "critRange": 20,
      "critMult": 2
    },
    "save": {
      "dc": 0,
      "type": "",
      "description": ""
    },
    "soundEffect": "",
    "powerAttack": {
      "multiplier": "",
      "damageBonus": 2,
      "critMultiplier": 1
    }
  },
  "ownership": {
    "default": 0
  },
  "_stats": {
    "systemId": "pf1",
    "systemVersion": "9.0",
    "coreVersion": "10.291",
    "createdTime": 1663168891670,
    "modifiedTime": 1689623923129,
    "lastModifiedBy": "pf1spheres-db000"
  }
}
