{
  "_id": "SXoIQ8rrj8qvACS0",
  "name": "Witness The City",
  "type": "feat",
  "img": "modules/pf1spheres/assets/icons/spheres/divination.webp",
  "effects": [],
  "folder": null,
  "sort": 0,
  "flags": {
    "pf1spheres": {
      "sphere": "divination"
    }
  },
  "system": {
    "description": {
      "value": "<p>You may spend a spell point to see, hear, smell, feel, and even taste a torrent of past scenes and pieces of conversations related to anything in a settlement you are currently in. At the end of each of your turns for the duration of this divination, attempt a single Diplomacy check to gather information as though you had spent 1d4 hours talking to local people, without having to use an action to do so. Multiple Diplomacy checks made to gather information on the same topic always grants the same information as the first check. You can use your Perception bonus in place of your Diplomacy bonus if you so wish, but with a -5 penalty.</p>\n<p><strong>Note:</strong> Settlements range in population size from fewer than 20 (thorp) to greater than 25,000 (metropolis). In order to maintain the balance of this talent, it is suggested that when working with particularly large settlements that GMs restrict the use of the talent to districts of the settlement.</p>\n",
      "unidentified": ""
    },
    "tags": ["Divine"],
    "actions": [],
    "uses": {
      "per": null,
      "value": 0,
      "maxFormula": "",
      "autoDeductChargesCost": "1"
    },
    "attackNotes": [],
    "effectNotes": [],
    "changes": [],
    "changeFlags": {
      "loseDexToAC": false,
      "noEncumbrance": false,
      "mediumArmorFullSpeed": false,
      "heavyArmorFullSpeed": false
    },
    "contextNotes": [],
    "links": {
      "children": [],
      "charges": []
    },
    "tag": "",
    "useCustomTag": false,
    "armorProf": {
      "value": [],
      "custom": ""
    },
    "weaponProf": {
      "value": [],
      "custom": ""
    },
    "languages": {
      "value": [],
      "custom": ""
    },
    "flags": {
      "boolean": {},
      "dictionary": {}
    },
    "scriptCalls": [],
    "subType": "magicTalent",
    "associations": {
      "classes": []
    },
    "showInQuickbar": false,
    "abilityType": "none",
    "crOffset": "",
    "disabled": false,
    "classSkills": {},
    "nonlethal": false,
    "duration": {
      "value": null,
      "units": ""
    },
    "target": {
      "value": ""
    },
    "attackName": "",
    "actionType": null,
    "attackBonus": "",
    "critConfirmBonus": "",
    "damage": {
      "parts": [],
      "critParts": [],
      "nonCritParts": []
    },
    "attackParts": [],
    "formulaicAttacks": {
      "count": {
        "formula": ""
      },
      "bonus": {
        "formula": ""
      },
      "label": null
    },
    "formula": "",
    "ability": {
      "attack": null,
      "damage": null,
      "damageMult": 1,
      "critRange": 20,
      "critMult": 2
    },
    "save": {
      "dc": 0,
      "type": "",
      "description": ""
    },
    "soundEffect": "",
    "powerAttack": {
      "multiplier": "",
      "damageBonus": 2,
      "critMultiplier": 1
    }
  },
  "ownership": {
    "default": 0
  },
  "_stats": {
    "systemId": "pf1",
    "systemVersion": "9.0",
    "coreVersion": "10.291",
    "createdTime": 1663168892170,
    "modifiedTime": 1689623923213,
    "lastModifiedBy": "pf1spheres-db000"
  }
}
