{
  "_id": "Jma2G2nHFBy2QBsJ",
  "name": "Inventions",
  "type": "feat",
  "img": "icons/svg/item-bag.svg",
  "effects": [],
  "folder": null,
  "sort": 0,
  "flags": {},
  "system": {
    "description": {
      "value": "<p>Every technician knows how to create custom items, called inventions. Inventions could be anything from a simple improved crossbow, to a powerful and complex machine that to the uneducated appears to be magic. Inventions are finicky, improvised things that require constant tinkering and fixing, and there is a limit to how many a technician can maintain at any one time. A technician can have and maintain a maximum of 1 invention at 1st level, plus an additional invention at 3rd level and every 4 levels thereafter. If the technician has already reached this limit and wishes to create a new invention, he must select one of his existing inventions to dismantle. Whenever an invention includes an ability that calls for a saving throw, the DC equals 10 + 1/2 the technician&#8217;s class level + the technician&#8217;s Intelligence modifier.</p>\n<p>Some inventions have prerequisites, which must be met before the invention can be created. These prerequisites might be items, a cost in gp for specialty parts, or feats and skill ranks the technician must possess. A technician may create any invention which he meets the necessary prerequisites to create.</p>\n<p>Creating an invention takes 8 hours of work. The work need not be consecutive, and the technician can do this work while out adventuring, but in that situation he can only devote 4 hours each day to item creation, and only nets 2 hours&#8217; worth of work due to being in a distracting environment. Once the invention has been created, altering its improvements requires only 1 hour of work.</p>\n<p>See 'inventions' at the bottom of this page for more information on creating inventions.</p>\n",
      "unidentified": ""
    },
    "tags": [],
    "actions": [],
    "uses": {
      "per": null,
      "value": 0,
      "maxFormula": "",
      "autoDeductChargesCost": "1"
    },
    "attackNotes": [],
    "effectNotes": [],
    "changes": [],
    "changeFlags": {
      "loseDexToAC": false,
      "noEncumbrance": false,
      "mediumArmorFullSpeed": false,
      "heavyArmorFullSpeed": false
    },
    "contextNotes": [],
    "links": {
      "children": [],
      "charges": []
    },
    "tag": "",
    "useCustomTag": false,
    "armorProf": {
      "value": [],
      "custom": ""
    },
    "weaponProf": {
      "value": [],
      "custom": ""
    },
    "languages": {
      "value": [],
      "custom": ""
    },
    "flags": {
      "boolean": {},
      "dictionary": {}
    },
    "scriptCalls": [],
    "subType": "classFeat",
    "associations": {
      "classes": []
    },
    "showInQuickbar": false,
    "abilityType": "none",
    "crOffset": "",
    "disabled": false,
    "classSkills": {},
    "nonlethal": false,
    "duration": {
      "value": null,
      "units": ""
    },
    "target": {
      "value": ""
    },
    "attackName": "",
    "actionType": null,
    "attackBonus": "",
    "critConfirmBonus": "",
    "damage": {
      "parts": [],
      "critParts": [],
      "nonCritParts": []
    },
    "attackParts": [],
    "formulaicAttacks": {
      "count": {
        "formula": ""
      },
      "bonus": {
        "formula": ""
      },
      "label": null
    },
    "formula": "",
    "ability": {
      "attack": null,
      "damage": null,
      "damageMult": 1,
      "critRange": 20,
      "critMult": 2
    },
    "save": {
      "dc": 0,
      "type": "",
      "description": ""
    },
    "soundEffect": ""
  },
  "ownership": {
    "default": 0
  },
  "_stats": {
    "systemId": "pf1",
    "systemVersion": "9.0",
    "coreVersion": "10.291",
    "createdTime": 1663168900419,
    "modifiedTime": 1689623926229,
    "lastModifiedBy": "pf1spheres-db000"
  }
}
