{
  "_id": "CNXP5d9UIEGnTtAF",
  "name": "Material Imposition",
  "type": "feat",
  "img": "icons/svg/item-bag.svg",
  "effects": [],
  "folder": null,
  "sort": 0,
  "flags": {},
  "system": {
    "description": {
      "value": "<p>Starting at 3rd level, the scholar has learned that certain mundane materials, plants, or even creatures, properly utilized, can have unusual effects on magical energies. The scholar learns one material imposition from the below list, plus an additional one at 5th level and every two levels thereafter. Unless stated otherwise, activating an imposition is a standard action that provokes attacks of opportunity and expends the scholar&#8217;s martial focus. A scholar damaged by an attack of opportunity while activating an imposition must make a concentration check adding her class level and Intelligence modifier to a d20 roll (DC 12 + damage dealt) or she fails to activate the ability and the action is wasted. Feats and abilities that normally improve concentration checks, such as the Combat Casting feat, also apply to scholar&#8217;s using material impositions. If the imposition grants a save, the DC is equal to 10 + 1/2 the scholar&#8217;s class level + her Intelligence bonus.</p>\n<p>Impositions with activated abilities can interfere with each other&#8217;s energies and effects; if the scholar uses the activated ability of a material imposition while another activated ability is still in effect, the previous effect immediately ends. Impositions which do not require activation do not interfere with other imposition&#8217;s effects. Activating a material imposition consumes raw materials, but generally the cost of these materials is insignificant &#8212; comparable to the valueless material components of most spells. A scholar can assume she has all materials necessary to use her material impositions unless otherwise noted as long as she has a designated belt pouch or spell component pouch in her possession. Unless otherwise noted, material impositions are extraordinary effects.</p>\n<hr>See also:<br><ul><li>@Compendium[pf1spheres.class-features.Q6SGD5m5Hcjrprmy]{Ammonium Nitrate}</li><li>@Compendium[pf1spheres.class-features.JX2Zjzd8WCzrMfDB]{Arcsilver}</li><li>@Compendium[pf1spheres.class-features.kpUytSWr6oBvv4ld]{Aspect Infusion}</li><li>@Compendium[pf1spheres.class-features.r2QwIo9KWuYyhqPT]{Belladonna Barrier}</li><li>@Compendium[pf1spheres.class-features.O4duJMhYYW4NlNgB]{Black Cat}</li><li>@Compendium[pf1spheres.class-features.t8GjOznU0h4ALpOr]{Brimstone}</li><li>@Compendium[pf1spheres.class-features.XmXwwdPhNZVRHDlo]{Circle of Salt}</li><li>@Compendium[pf1spheres.class-features.vLFcKDdzOwO9Xf6v]{Cordyceps Mycelium}</li><li>@Compendium[pf1spheres.class-features.MRUPXEYlYjfsLJij]{Crystalline Focus}</li><li>@Compendium[pf1spheres.class-features.CamJMxNjCTI7qCrV]{Dowsing Rod}</li><li>@Compendium[pf1spheres.class-features.KhqGfxWZsxcer1Zi]{Gold}</li><li>@Compendium[pf1spheres.class-features.9xpPmTLXOTt9vsvV]{Howling Herbology}</li><li>@Compendium[pf1spheres.class-features.5EQIAtgLTSI5f6t2]{Lead}</li><li>@Compendium[pf1spheres.class-features.uaEqchr3dkZlMCUB]{Lodestone}</li><li>@Compendium[pf1spheres.class-features.b2f95AlTBBFLrUJy]{Magnesium}</li><li>@Compendium[pf1spheres.class-features.3Gq52FygMQA1URys]{Neon}</li><li>@Compendium[pf1spheres.class-features.XSyQ3edEdP97tICs]{Ooze}</li><li>@Compendium[pf1spheres.class-features.ey35RLBvnKnPKbzk]{Phlogiston}</li><li>@Compendium[pf1spheres.class-features.kXjPcmSZPMzfa3V3]{Quicksilver}</li><li>@Compendium[pf1spheres.class-features.3MNLjL1GjbLwpaem]{Quintessence}</li><li>@Compendium[pf1spheres.class-features.mZeSQZtyu1awKZAz]{Silver}</li><li>@Compendium[pf1spheres.class-features.s3oPaeRTsvAbdsnf]{Thermite}</li><li>@Compendium[pf1spheres.class-features.vdnRbkkQ1gEfj4N9]{Tungsten}</li></ul>",
      "unidentified": ""
    },
    "tags": [],
    "actions": [],
    "uses": {
      "per": null,
      "value": 0,
      "maxFormula": "",
      "autoDeductChargesCost": "1"
    },
    "attackNotes": [],
    "effectNotes": [],
    "changes": [],
    "changeFlags": {
      "loseDexToAC": false,
      "noEncumbrance": false,
      "mediumArmorFullSpeed": false,
      "heavyArmorFullSpeed": false
    },
    "contextNotes": [],
    "links": {
      "children": [],
      "charges": []
    },
    "tag": "",
    "useCustomTag": false,
    "armorProf": {
      "value": [],
      "custom": ""
    },
    "weaponProf": {
      "value": [],
      "custom": ""
    },
    "languages": {
      "value": [],
      "custom": ""
    },
    "flags": {
      "boolean": {},
      "dictionary": {}
    },
    "scriptCalls": [],
    "subType": "classFeat",
    "associations": {
      "classes": []
    },
    "showInQuickbar": false,
    "abilityType": "none",
    "crOffset": "",
    "disabled": false,
    "classSkills": {},
    "nonlethal": false,
    "duration": {
      "value": null,
      "units": ""
    },
    "target": {
      "value": ""
    },
    "attackName": "",
    "actionType": null,
    "attackBonus": "",
    "critConfirmBonus": "",
    "damage": {
      "parts": [],
      "critParts": [],
      "nonCritParts": []
    },
    "attackParts": [],
    "formulaicAttacks": {
      "count": {
        "formula": ""
      },
      "bonus": {
        "formula": ""
      },
      "label": null
    },
    "formula": "",
    "ability": {
      "attack": null,
      "damage": null,
      "damageMult": 1,
      "critRange": 20,
      "critMult": 2
    },
    "save": {
      "dc": 0,
      "type": "",
      "description": ""
    },
    "soundEffect": ""
  },
  "ownership": {
    "default": 0
  },
  "_stats": {
    "systemId": "pf1",
    "systemVersion": "9.0",
    "coreVersion": "10.291",
    "createdTime": 1663168900185,
    "modifiedTime": 1689623926101,
    "lastModifiedBy": "pf1spheres-db000"
  }
}
