{
  "_id": "HnsUqq4XwmTO7vQR",
  "name": "Sphere Specialization (War)",
  "type": "feat",
  "img": "icons/svg/item-bag.svg",
  "effects": [],
  "folder": null,
  "sort": 0,
  "flags": {},
  "system": {
    "description": {
      "value": "<p><strong>Seize the Initiative (Su):</strong> At 3rd level, whenever the incanter and his allies roll for initiative, he can grant one ally within 30 feet the ability to roll twice and take either result. This decision is made before the initiative roll is made. He can use this ability a number of times per day equal to 3 + his casting ability modifier.</p>\n<p><strong>Cooperative Defense:</strong> At 8th level, whenever a spell or effect targets the incanter and one or more allies within 30 feet, he can use this ability to allow his allies to use his saving throw against the effect in place of their own. Each ally must make this choice individually before the rolls are made. Using this ability is an immediate action. He can use this ability once per day at 8th level, and one additional time per day for every four incanter levels beyond 8th.</p>\n<p><strong>War Mage (Ex):</strong> At 20th level, the incanter and all allies within 60 feet gain a +2 circumstance bonus to attack rolls and damage rolls.</p>\n",
      "unidentified": ""
    },
    "tags": [],
    "actions": [],
    "uses": {
      "per": null,
      "value": 0,
      "maxFormula": "",
      "autoDeductChargesCost": "1"
    },
    "attackNotes": [],
    "effectNotes": [],
    "changes": [],
    "changeFlags": {
      "loseDexToAC": false,
      "noEncumbrance": false,
      "mediumArmorFullSpeed": false,
      "heavyArmorFullSpeed": false
    },
    "contextNotes": [],
    "links": {
      "children": [],
      "charges": []
    },
    "tag": "",
    "useCustomTag": false,
    "armorProf": {
      "value": [],
      "custom": ""
    },
    "weaponProf": {
      "value": [],
      "custom": ""
    },
    "languages": {
      "value": [],
      "custom": ""
    },
    "flags": {
      "boolean": {},
      "dictionary": {}
    },
    "scriptCalls": [],
    "subType": "classFeat",
    "associations": {
      "classes": []
    },
    "showInQuickbar": false,
    "abilityType": "none",
    "crOffset": "",
    "disabled": false,
    "classSkills": {},
    "nonlethal": false,
    "duration": {
      "value": null,
      "units": ""
    },
    "target": {
      "value": ""
    },
    "attackName": "",
    "actionType": null,
    "attackBonus": "",
    "critConfirmBonus": "",
    "damage": {
      "parts": [],
      "critParts": [],
      "nonCritParts": []
    },
    "attackParts": [],
    "formulaicAttacks": {
      "count": {
        "formula": ""
      },
      "bonus": {
        "formula": ""
      },
      "label": null
    },
    "formula": "",
    "ability": {
      "attack": null,
      "damage": null,
      "damageMult": 1,
      "critRange": 20,
      "critMult": 2
    },
    "save": {
      "dc": 0,
      "type": "",
      "description": ""
    },
    "soundEffect": ""
  },
  "ownership": {
    "default": 0
  },
  "_stats": {
    "systemId": "pf1",
    "systemVersion": "9.0",
    "coreVersion": "10.291",
    "createdTime": 1663168900391,
    "modifiedTime": 1689623926211,
    "lastModifiedBy": "pf1spheres-db000"
  }
}
