{
  "_id": "Sw30OGIxAgzwcr7Z",
  "name": "Sphere Specialization (Conjuration)",
  "type": "feat",
  "img": "icons/svg/item-bag.svg",
  "effects": [],
  "folder": null,
  "sort": 0,
  "flags": {},
  "system": {
    "description": {
      "value": "<p><strong>Summoner&#8217;s Charm (Su):</strong> At 3rd level, whenever the incanter summons a companion from the Conjuration sphere and maintain its presence through concentration, the companion remains for a number of rounds after he ceases concentrating equal to 1/2 his incanter level (minimum 1) before disappearing.</p>\n<p><strong>Aura of Banishment (Su):</strong> At 8th level, as a free action the incanter can emit a 30-foot aura of banishment for one round. He may emit this aura for a total number of rounds per day equal to his incanter level. These rounds do not need to be consecutive. Any summoned or called creature in the area (except those he specifies) must attempt a Will save each round. Once the creature fails a Will saving throw, it is staggered as long as it remains inside the aura. If it fails a second Will saving throw, it is immediately sent back to its home plane and the spell or effect that summoned it immediately ends. If that spell or effect summoned more than one creature, only the creature that failed its saving throws is affected. If the summoned creature was a companion, it cannot be summoned again for 1 minute.</p>\n<p><strong>Mirrored Summoning:</strong> At 20th level, once per day when the incanter summons a companion, he may summon a duplicate of that companion with the same action. He must spend all required spell points to summon this duplicate companion, just as with the original.</p>\n",
      "unidentified": ""
    },
    "tags": [],
    "actions": [],
    "uses": {
      "per": null,
      "value": 0,
      "maxFormula": "",
      "autoDeductChargesCost": "1"
    },
    "attackNotes": [],
    "effectNotes": [],
    "changes": [],
    "changeFlags": {
      "loseDexToAC": false,
      "noEncumbrance": false,
      "mediumArmorFullSpeed": false,
      "heavyArmorFullSpeed": false
    },
    "contextNotes": [],
    "links": {
      "children": [],
      "charges": []
    },
    "tag": "",
    "useCustomTag": false,
    "armorProf": {
      "value": [],
      "custom": ""
    },
    "weaponProf": {
      "value": [],
      "custom": ""
    },
    "languages": {
      "value": [],
      "custom": ""
    },
    "flags": {
      "boolean": {},
      "dictionary": {}
    },
    "scriptCalls": [],
    "subType": "classFeat",
    "associations": {
      "classes": []
    },
    "showInQuickbar": false,
    "abilityType": "none",
    "crOffset": "",
    "disabled": false,
    "classSkills": {},
    "nonlethal": false,
    "duration": {
      "value": null,
      "units": ""
    },
    "target": {
      "value": ""
    },
    "attackName": "",
    "actionType": null,
    "attackBonus": "",
    "critConfirmBonus": "",
    "damage": {
      "parts": [],
      "critParts": [],
      "nonCritParts": []
    },
    "attackParts": [],
    "formulaicAttacks": {
      "count": {
        "formula": ""
      },
      "bonus": {
        "formula": ""
      },
      "label": null
    },
    "formula": "",
    "ability": {
      "attack": null,
      "damage": null,
      "damageMult": 1,
      "critRange": 20,
      "critMult": 2
    },
    "save": {
      "dc": 0,
      "type": "",
      "description": ""
    },
    "soundEffect": ""
  },
  "ownership": {
    "default": 0
  },
  "_stats": {
    "systemId": "pf1",
    "systemVersion": "9.0",
    "coreVersion": "10.291",
    "createdTime": 1663168900537,
    "modifiedTime": 1689623926291,
    "lastModifiedBy": "pf1spheres-db000"
  }
}
