{
  "_id": "s3oPaeRTsvAbdsnf",
  "name": "Thermite",
  "type": "feat",
  "img": "icons/svg/item-bag.svg",
  "effects": [],
  "folder": null,
  "sort": 0,
  "flags": {},
  "system": {
    "description": {
      "value": "<p>Through delicate research into iron and aluminum interactions, the scholar learns of a particularly volatile reaction, allowing great explosive potential. The scholar can create and apply an incredibly potent mixture to a 5-foot square within her natural reach. Creating and applying this mixture takes 1 round, which provokes attacks of opportunity. The scholar may create a number of 5-foot squares equal to 1/2 her class level per day. The mixture can be set alight as part of applying the mixture (or if it is dealt at least 1 point of fire damage), dealing 1d8 points of fire damage per two class levels she possesses to the object, ignoring hardness equal to half her class level.</p>\n<ul>\n<li><strong>Pyrotechnic Detonation [explosive]:</strong> By adding thermite into her flashbangs, she can cause great devastation to those caught within it, allowing them to cause targets who fail their save against her flashbangs to be blinded for 1d4 rounds, in addition to taking 1d8 points of fire damage per 2 class levels the scholar possesses; creatures who succeed at their Fortitude save against the flashbang take half damage from this effect. If the scholar&#8217;s flashbangs would normally be capable of blinding due to the scholar having at least 5 ranks in Craft (alchemy), the duration of this effect is doubled.</li>\n</ul>\n",
      "unidentified": ""
    },
    "tags": [],
    "actions": [],
    "uses": {
      "per": null,
      "value": 0,
      "maxFormula": "",
      "autoDeductChargesCost": "1"
    },
    "attackNotes": [],
    "effectNotes": [],
    "changes": [],
    "changeFlags": {
      "loseDexToAC": false,
      "noEncumbrance": false,
      "mediumArmorFullSpeed": false,
      "heavyArmorFullSpeed": false
    },
    "contextNotes": [],
    "links": {
      "children": [],
      "charges": []
    },
    "tag": "",
    "useCustomTag": false,
    "armorProf": {
      "value": [],
      "custom": ""
    },
    "weaponProf": {
      "value": [],
      "custom": ""
    },
    "languages": {
      "value": [],
      "custom": ""
    },
    "flags": {
      "boolean": {},
      "dictionary": {}
    },
    "scriptCalls": [],
    "subType": "classFeat",
    "associations": {
      "classes": []
    },
    "showInQuickbar": false,
    "abilityType": "none",
    "crOffset": "",
    "disabled": false,
    "classSkills": {},
    "nonlethal": false,
    "duration": {
      "value": null,
      "units": ""
    },
    "target": {
      "value": ""
    },
    "attackName": "",
    "actionType": null,
    "attackBonus": "",
    "critConfirmBonus": "",
    "damage": {
      "parts": [],
      "critParts": [],
      "nonCritParts": []
    },
    "attackParts": [],
    "formulaicAttacks": {
      "count": {
        "formula": ""
      },
      "bonus": {
        "formula": ""
      },
      "label": null
    },
    "formula": "",
    "ability": {
      "attack": null,
      "damage": null,
      "damageMult": 1,
      "critRange": 20,
      "critMult": 2
    },
    "save": {
      "dc": 0,
      "type": "",
      "description": ""
    },
    "soundEffect": ""
  },
  "ownership": {
    "default": 0
  },
  "_stats": {
    "systemId": "pf1",
    "systemVersion": "9.0",
    "coreVersion": "10.291",
    "createdTime": 1663168900989,
    "modifiedTime": 1689623926534,
    "lastModifiedBy": "pf1spheres-db000"
  }
}
