{
  "_id": "CwXv3C04YAPVNTEx",
  "name": "Cluster Toss",
  "type": "feat",
  "img": "modules/pf1spheres/assets/icons/spheres/alchemy.webp",
  "effects": [],
  "folder": null,
  "sort": 0,
  "flags": {
    "pf1spheres": {
      "sphere": "alchemy"
    }
  },
  "system": {
    "description": {
      "value": "<p>You may expend your martial focus to use up to two alchemical items that can normally be used as a standard action as part of the same standard action but you take a -2 penalty on your attack roll (if any) and creatures affected by the items gain a +2 circumstance bonus to their saving throws against their effects (if any); using this ability includes all actions necessary to use the items, including drawing them (but not creating them).</p>\n<p>Your target must be within range of both items. When you have at least 10 ranks in Craft (alchemy), and again at 20 ranks, you may throw an additional alchemical item as part of the same action, taking an additional -2 penalty to your attack roll and increasing the circumstance bonus to affected creatures&#8217; saving throws by an additional +2 per item added.</p>\n",
      "unidentified": ""
    },
    "tags": [],
    "actions": [],
    "uses": {
      "per": null,
      "value": 0,
      "maxFormula": "",
      "autoDeductChargesCost": "1"
    },
    "attackNotes": [],
    "effectNotes": [],
    "changes": [],
    "changeFlags": {
      "loseDexToAC": false,
      "noEncumbrance": false,
      "mediumArmorFullSpeed": false,
      "heavyArmorFullSpeed": false
    },
    "contextNotes": [],
    "links": {
      "children": [],
      "charges": []
    },
    "tag": "",
    "useCustomTag": false,
    "armorProf": {
      "value": [],
      "custom": ""
    },
    "weaponProf": {
      "value": [],
      "custom": ""
    },
    "languages": {
      "value": [],
      "custom": ""
    },
    "flags": {
      "boolean": {},
      "dictionary": {}
    },
    "scriptCalls": [],
    "subType": "combatTalent",
    "associations": {
      "classes": []
    },
    "showInQuickbar": false,
    "abilityType": "none",
    "crOffset": "",
    "disabled": false,
    "classSkills": {},
    "nonlethal": false,
    "duration": {
      "value": null,
      "units": ""
    },
    "target": {
      "value": ""
    },
    "attackName": "",
    "actionType": null,
    "attackBonus": "",
    "critConfirmBonus": "",
    "damage": {
      "parts": [],
      "critParts": [],
      "nonCritParts": []
    },
    "attackParts": [],
    "formulaicAttacks": {
      "count": {
        "formula": ""
      },
      "bonus": {
        "formula": ""
      },
      "label": null
    },
    "formula": "",
    "ability": {
      "attack": null,
      "damage": null,
      "damageMult": 1,
      "critRange": 20,
      "critMult": 2
    },
    "save": {
      "dc": 0,
      "type": "",
      "description": ""
    },
    "soundEffect": "",
    "powerAttack": {
      "multiplier": "",
      "damageBonus": 2,
      "critMultiplier": 1
    }
  },
  "ownership": {
    "default": 0
  },
  "_stats": {
    "systemId": "pf1",
    "systemVersion": "9.0",
    "coreVersion": "10.291",
    "createdTime": 1663168885599,
    "modifiedTime": 1689623920819,
    "lastModifiedBy": "pf1spheres-db000"
  }
}
