{
  "_id": "vnhjs1fyp5Nf4axX",
  "name": "Forceful Jaunt",
  "type": "feat",
  "img": "modules/pf1spheres/assets/icons/spheres/brute.webp",
  "effects": [],
  "folder": null,
  "sort": 0,
  "flags": {
    "pf1spheres": {
      "sphere": "brute"
    }
  },
  "system": {
    "description": {
      "value": "<p><strong>Prerequisites:</strong> Brute sphere, base attack bonus +5.</p>\n<p>Whenever you successfully perform a bull rush, drag, overrun or reposition maneuver against a creature, you may have them become immaterial for a brief, unreliable moment. The creature&#8217;s movement made as part of the successful maneuver is not interrupted by any creatures or objects within its path, and shifts harmlessly through them as if they were ethereal (and is affected by force and abjuration effects as normal). This is a supernatural effect.</p>\n<p>At base attack bonus +10, this may also force creatures within walls and solid objects (including creatures). If the successful maneuver would result in the creature being within a solid body, the creature is shunted to the nearest open space on a suitable surface (chosen at random if there are multiple valid spaces), suffering 1d6 damage for every 5 feet traveled (maximum 1d6 per point of base attack bonus you possess).</p>\n",
      "unidentified": ""
    },
    "tags": [],
    "actions": [],
    "uses": {
      "per": null,
      "value": 0,
      "maxFormula": "",
      "autoDeductChargesCost": "1"
    },
    "attackNotes": [],
    "effectNotes": [],
    "changes": [],
    "changeFlags": {
      "loseDexToAC": false,
      "noEncumbrance": false,
      "mediumArmorFullSpeed": false,
      "heavyArmorFullSpeed": false
    },
    "contextNotes": [],
    "links": {
      "children": [],
      "charges": []
    },
    "tag": "",
    "useCustomTag": false,
    "armorProf": {
      "value": [],
      "custom": ""
    },
    "weaponProf": {
      "value": [],
      "custom": ""
    },
    "languages": {
      "value": [],
      "custom": ""
    },
    "flags": {
      "boolean": {},
      "dictionary": {}
    },
    "scriptCalls": [],
    "subType": "combatTalent",
    "associations": {
      "classes": []
    },
    "showInQuickbar": false,
    "abilityType": "none",
    "crOffset": "",
    "disabled": false,
    "classSkills": {},
    "nonlethal": false,
    "duration": {
      "value": null,
      "units": ""
    },
    "target": {
      "value": ""
    },
    "attackName": "",
    "actionType": null,
    "attackBonus": "",
    "critConfirmBonus": "",
    "damage": {
      "parts": [],
      "critParts": [],
      "nonCritParts": []
    },
    "attackParts": [],
    "formulaicAttacks": {
      "count": {
        "formula": ""
      },
      "bonus": {
        "formula": ""
      },
      "label": null
    },
    "formula": "",
    "ability": {
      "attack": null,
      "damage": null,
      "damageMult": 1,
      "critRange": 20,
      "critMult": 2
    },
    "save": {
      "dc": 0,
      "type": "",
      "description": ""
    },
    "soundEffect": "",
    "powerAttack": {
      "multiplier": "",
      "damageBonus": 2,
      "critMultiplier": 1
    }
  },
  "ownership": {
    "default": 0
  },
  "_stats": {
    "systemId": "pf1",
    "systemVersion": "9.0",
    "coreVersion": "10.291",
    "createdTime": 1663168888213,
    "modifiedTime": 1689623921513,
    "lastModifiedBy": "pf1spheres-db000"
  }
}
