{
  "_id": "I4f4kWUv1m9bImqa",
  "name": "Hands-On Handler",
  "type": "feat",
  "img": "modules/pf1spheres/assets/icons/spheres/beastmastery.webp",
  "effects": [],
  "folder": null,
  "sort": 0,
  "flags": {
    "pf1spheres": {
      "sphere": "beastmastery"
    }
  },
  "system": {
    "description": {
      "value": "<p>Whenever you take an action that is similar to a Handle Animal trick, the next time you handle or push your animal allies to perform that trick before the end of your next turn, reduce the time required to handle or push those animal allies by 1 step. This reduction stacks with the Rapid Handle talent.</p>\n<p>Whenever you handle or push an animal ally to perform a trick, that animal ally gains a +1 circumstance bonus on all attack rolls, skill checks, and ability checks made to perform that trick for a number of rounds equal to your practitioner modifier (minimum 1). For every 10 ranks in Handle Animal you possess, the circumstance bonus on rolls granted by this talent increases by +1.</p>\n<p>The action reduction and bonuses granted by Hands-On Handler do not stack with itself; if two handlers would grant an animal ally a bonus using this talent, only the highest bonus applies.</p>\n<p><strong>Example:</strong> You attack an enemy. Until the end of your next turn, if you would handle or push your tamed wolf to use the attack trick or another similar trick (such as bombard, demolish, feint, flank, etc.), the time required to handle or push your tamed wolf is reduced by 1 step.</p>\n<p>GMs should determine if an action taken by a character is reasonably similar to tricks available through Handle Animal. Distracting a target with bubbles created by an Illusion effect is not similar enough to the attack trick.</p>\n",
      "unidentified": ""
    },
    "tags": ["Handle Animal"],
    "actions": [],
    "uses": {
      "per": null,
      "value": 0,
      "maxFormula": "",
      "autoDeductChargesCost": "1"
    },
    "attackNotes": [],
    "effectNotes": [],
    "changes": [],
    "changeFlags": {
      "loseDexToAC": false,
      "noEncumbrance": false,
      "mediumArmorFullSpeed": false,
      "heavyArmorFullSpeed": false
    },
    "contextNotes": [],
    "links": {
      "children": [],
      "charges": []
    },
    "tag": "",
    "useCustomTag": false,
    "armorProf": {
      "value": [],
      "custom": ""
    },
    "weaponProf": {
      "value": [],
      "custom": ""
    },
    "languages": {
      "value": [],
      "custom": ""
    },
    "flags": {
      "boolean": {},
      "dictionary": {}
    },
    "scriptCalls": [],
    "subType": "combatTalent",
    "associations": {
      "classes": []
    },
    "showInQuickbar": false,
    "abilityType": "none",
    "crOffset": "",
    "disabled": false,
    "classSkills": {},
    "nonlethal": false,
    "duration": {
      "value": null,
      "units": ""
    },
    "target": {
      "value": ""
    },
    "attackName": "",
    "actionType": null,
    "attackBonus": "",
    "critConfirmBonus": "",
    "damage": {
      "parts": [],
      "critParts": [],
      "nonCritParts": []
    },
    "attackParts": [],
    "formulaicAttacks": {
      "count": {
        "formula": ""
      },
      "bonus": {
        "formula": ""
      },
      "label": null
    },
    "formula": "",
    "ability": {
      "attack": null,
      "damage": null,
      "damageMult": 1,
      "critRange": 20,
      "critMult": 2
    },
    "save": {
      "dc": 0,
      "type": "",
      "description": ""
    },
    "soundEffect": "",
    "powerAttack": {
      "multiplier": "",
      "damageBonus": 2,
      "critMultiplier": 1
    }
  },
  "ownership": {
    "default": 0
  },
  "_stats": {
    "systemId": "pf1",
    "systemVersion": "9.0",
    "coreVersion": "10.291",
    "createdTime": 1663168886376,
    "modifiedTime": 1689623920972,
    "lastModifiedBy": "pf1spheres-db000"
  }
}
