{
  "_id": "r3ZC3CC14TFSYnqL",
  "name": "Patrol",
  "type": "feat",
  "img": "modules/pf1spheres/assets/icons/spheres/guardian.webp",
  "effects": [],
  "folder": null,
  "sort": 0,
  "flags": {
    "pf1spheres": {
      "sphere": "guardian"
    }
  },
  "system": {
    "description": {
      "value": "<p>As long as you have martial focus, as a full-round action you may increase your threatened area by 5 ft., +5 ft. for every 4 points of base attack bonus you possess. This increased threatened area is applied after the effects of the reach weapon special feature. Until the beginning of your next turn, you may make attacks of opportunity against any creature in this threatened area that provokes attacks of opportunity. You may move to bring the creature that provokes the attack of opportunity within your reach as part of these attacks, provided your total movement before your next turn does not exceed your base speed. Any movement you make provokes attacks of opportunity as normal. <strong>Associated Feat:</strong> Combat Patrol.</p>\n<p>Talents with the (zone) tag grant additional effects to this ability. Each patrol may only benefit from one (zone) talent.</p>\n",
      "unidentified": ""
    },
    "tags": [],
    "actions": [],
    "uses": {
      "per": null,
      "value": 0,
      "maxFormula": "",
      "autoDeductChargesCost": "1"
    },
    "attackNotes": [],
    "effectNotes": [],
    "changes": [],
    "changeFlags": {
      "loseDexToAC": false,
      "noEncumbrance": false,
      "mediumArmorFullSpeed": false,
      "heavyArmorFullSpeed": false
    },
    "contextNotes": [],
    "links": {
      "children": [],
      "charges": []
    },
    "tag": "",
    "useCustomTag": false,
    "armorProf": {
      "value": [],
      "custom": ""
    },
    "weaponProf": {
      "value": [],
      "custom": ""
    },
    "languages": {
      "value": [],
      "custom": ""
    },
    "flags": {
      "boolean": {},
      "dictionary": {}
    },
    "scriptCalls": [],
    "subType": "combatTalent",
    "associations": {
      "classes": []
    },
    "showInQuickbar": false,
    "abilityType": "none",
    "crOffset": "",
    "disabled": false,
    "classSkills": {},
    "nonlethal": false,
    "duration": {
      "value": null,
      "units": ""
    },
    "target": {
      "value": ""
    },
    "attackName": "",
    "actionType": null,
    "attackBonus": "",
    "critConfirmBonus": "",
    "damage": {
      "parts": [],
      "critParts": [],
      "nonCritParts": []
    },
    "attackParts": [],
    "formulaicAttacks": {
      "count": {
        "formula": ""
      },
      "bonus": {
        "formula": ""
      },
      "label": null
    },
    "formula": "",
    "ability": {
      "attack": null,
      "damage": null,
      "damageMult": 1,
      "critRange": 20,
      "critMult": 2
    },
    "save": {
      "dc": 0,
      "type": "",
      "description": ""
    },
    "soundEffect": "",
    "powerAttack": {
      "multiplier": "",
      "damageBonus": 2,
      "critMultiplier": 1
    }
  },
  "ownership": {
    "default": 0
  },
  "_stats": {
    "systemId": "pf1",
    "systemVersion": "9.0",
    "coreVersion": "10.291",
    "createdTime": 1663168888050,
    "modifiedTime": 1689623921419,
    "lastModifiedBy": "pf1spheres-db000"
  }
}
