{
  "_id": "9HREFoRf8EOpW65D",
  "name": "Scholars",
  "type": "feat",
  "img": "modules/pf1spheres/assets/icons/spheres/leadership.webp",
  "effects": [],
  "folder": null,
  "sort": 0,
  "flags": {
    "pf1spheres": {
      "sphere": "leadership"
    }
  },
  "system": {
    "description": {
      "value": "<p>Some of your followers are well-versed in lore and arcane studies. Any allied creature may treat the followers as an extensive library for the purpose of researching knowledge checks (normally requiring 1d4 hours).</p>\n<p>Scholars can identify magic items with a Spellcraft check of 15 + your ranks in Diplomacy.</p>\n<p>Any Knowledge, Linguistics, Spellcraft, or Use Magic Device checks made while with the followers automatically gain a +2 circumstance bonus from the scholars&#8217; aid. This bonus increases by +1 for every 8 ranks in Diplomacy that you possess.</p>\n<p>If you possess the Merchants talent, you gain a 25% discount on scrolls purchased from the caravan.</p>\n<p>If using the Downtime rules from Ultimate Campaign, your followers may generate Magic capital in place of earning gold, with 50 gp equaling 1 Magic. Use your Diplomacy modifier for making the earnings checks. This stacks with capital gains from other talents.</p>\n",
      "unidentified": ""
    },
    "tags": ["Followers"],
    "actions": [],
    "uses": {
      "per": null,
      "value": 0,
      "maxFormula": "",
      "autoDeductChargesCost": "1"
    },
    "attackNotes": [],
    "effectNotes": [],
    "changes": [],
    "changeFlags": {
      "loseDexToAC": false,
      "noEncumbrance": false,
      "mediumArmorFullSpeed": false,
      "heavyArmorFullSpeed": false
    },
    "contextNotes": [],
    "links": {
      "children": [],
      "charges": []
    },
    "tag": "",
    "useCustomTag": false,
    "armorProf": {
      "value": [],
      "custom": ""
    },
    "weaponProf": {
      "value": [],
      "custom": ""
    },
    "languages": {
      "value": [],
      "custom": ""
    },
    "flags": {
      "boolean": {},
      "dictionary": {}
    },
    "scriptCalls": [],
    "subType": "combatTalent",
    "associations": {
      "classes": []
    },
    "showInQuickbar": false,
    "abilityType": "none",
    "crOffset": "",
    "disabled": false,
    "classSkills": {},
    "nonlethal": false,
    "duration": {
      "value": null,
      "units": ""
    },
    "target": {
      "value": ""
    },
    "attackName": "",
    "actionType": null,
    "attackBonus": "",
    "critConfirmBonus": "",
    "damage": {
      "parts": [],
      "critParts": [],
      "nonCritParts": []
    },
    "attackParts": [],
    "formulaicAttacks": {
      "count": {
        "formula": ""
      },
      "bonus": {
        "formula": ""
      },
      "label": null
    },
    "formula": "",
    "ability": {
      "attack": null,
      "damage": null,
      "damageMult": 1,
      "critRange": 20,
      "critMult": 2
    },
    "save": {
      "dc": 0,
      "type": "",
      "description": ""
    },
    "soundEffect": "",
    "powerAttack": {
      "multiplier": "",
      "damageBonus": 2,
      "critMultiplier": 1
    }
  },
  "ownership": {
    "default": 0
  },
  "_stats": {
    "systemId": "pf1",
    "systemVersion": "9.0",
    "coreVersion": "10.291",
    "createdTime": 1663168885543,
    "modifiedTime": 1689623920789,
    "lastModifiedBy": "pf1spheres-db000"
  }
}
