{
  "_id": "1XC4nbQOvRJhnaaI",
  "name": "Speed Boost",
  "type": "feat",
  "img": "modules/pf1spheres/assets/icons/spheres/athletics.webp",
  "effects": [],
  "folder": null,
  "sort": 0,
  "flags": {
    "pf1spheres": {
      "sphere": "athletics"
    }
  },
  "system": {
    "description": {
      "value": "<p><strong>Prerequisites:</strong> Athletics sphere.</p>\n<p>When running, you move ten times your normal speed (if wearing medium, light, or no armor and carrying no more than a medium load) or 8 times your speed (if wearing heavy armor or carrying a heavy load). If you make a jump after a running start you gain a +8 bonus on your Acrobatics check.</p>\n<p>You may expend your focus as a swift action to increase your base speed by 50 ft. for a number of rounds equal to your Constitution modifier. This increase is not limited to only land speed. After these rounds end, you are fatigued for 1d4 rounds. You are fatigued even if you are usually immune to the fatigued condition. You cannot use this ability if you are fatigued or exhausted.</p>\n<p>If you possess the Strong Lungs talent, you can replace its usual bonus to rounds you may run to instead be able to run for a number of hours equal to your Constitution modifier.</p>\n",
      "unidentified": ""
    },
    "tags": ["Run"],
    "actions": [],
    "uses": {
      "per": null,
      "value": 0,
      "maxFormula": "",
      "autoDeductChargesCost": "1"
    },
    "attackNotes": [],
    "effectNotes": [],
    "changes": [],
    "changeFlags": {
      "loseDexToAC": false,
      "noEncumbrance": false,
      "mediumArmorFullSpeed": false,
      "heavyArmorFullSpeed": false
    },
    "contextNotes": [],
    "links": {
      "children": [],
      "charges": []
    },
    "tag": "",
    "useCustomTag": false,
    "armorProf": {
      "value": [],
      "custom": ""
    },
    "weaponProf": {
      "value": [],
      "custom": ""
    },
    "languages": {
      "value": [],
      "custom": ""
    },
    "flags": {
      "boolean": {},
      "dictionary": {}
    },
    "scriptCalls": [],
    "subType": "combatTalent",
    "associations": {
      "classes": []
    },
    "showInQuickbar": false,
    "abilityType": "none",
    "crOffset": "",
    "disabled": false,
    "classSkills": {},
    "nonlethal": false,
    "duration": {
      "value": null,
      "units": ""
    },
    "target": {
      "value": ""
    },
    "attackName": "",
    "actionType": null,
    "attackBonus": "",
    "critConfirmBonus": "",
    "damage": {
      "parts": [],
      "critParts": [],
      "nonCritParts": []
    },
    "attackParts": [],
    "formulaicAttacks": {
      "count": {
        "formula": ""
      },
      "bonus": {
        "formula": ""
      },
      "label": null
    },
    "formula": "",
    "ability": {
      "attack": null,
      "damage": null,
      "damageMult": 1,
      "critRange": 20,
      "critMult": 2
    },
    "save": {
      "dc": 0,
      "type": "",
      "description": ""
    },
    "soundEffect": "",
    "powerAttack": {
      "multiplier": "",
      "damageBonus": 2,
      "critMultiplier": 1
    }
  },
  "ownership": {
    "default": 0
  },
  "_stats": {
    "systemId": "pf1",
    "systemVersion": "9.0",
    "coreVersion": "10.291",
    "createdTime": 1663168885409,
    "modifiedTime": 1689623920694,
    "lastModifiedBy": "pf1spheres-db000"
  }
}
