{
  "_id": "EysbyoksO5EfJsmT",
  "name": "Spell Sunder",
  "type": "feat",
  "img": "modules/pf1spheres/assets/icons/spheres/berserker.webp",
  "effects": [],
  "folder": null,
  "sort": 0,
  "flags": {
    "pf1spheres": {
      "sphere": "berserker"
    }
  },
  "system": {
    "description": {
      "value": "<p><strong>Prerequisites:</strong> Berserker sphere, base attack bonus +6.</p>\n<p>You may attempt to sunder an ongoing spell effect by succeeding at a special sunder combat maneuver attempt. For any effect that is not already on a creature, you must make a sunder combat maneuver attempt against a CMD of 15 plus the effect&#8217;s caster level. To sunder an effect on a creature, you must succeed at a normal sunder combat maneuver against the creature&#8217;s CMD +5, ignoring any miss chance caused by a spell or spell-like ability. If successful, you suppress the effect for 1 round, or 2 rounds if you exceeded the CMD by 5 to 9. If you exceed the CMD by 10 or more, the effect is dispelled.</p>\n",
      "unidentified": ""
    },
    "tags": ["Exertion"],
    "actions": [],
    "uses": {
      "per": null,
      "value": 0,
      "maxFormula": "",
      "autoDeductChargesCost": "1"
    },
    "attackNotes": [],
    "effectNotes": [],
    "changes": [],
    "changeFlags": {
      "loseDexToAC": false,
      "noEncumbrance": false,
      "mediumArmorFullSpeed": false,
      "heavyArmorFullSpeed": false
    },
    "contextNotes": [],
    "links": {
      "children": [],
      "charges": []
    },
    "tag": "",
    "useCustomTag": false,
    "armorProf": {
      "value": [],
      "custom": ""
    },
    "weaponProf": {
      "value": [],
      "custom": ""
    },
    "languages": {
      "value": [],
      "custom": ""
    },
    "flags": {
      "boolean": {},
      "dictionary": {}
    },
    "scriptCalls": [],
    "subType": "combatTalent",
    "associations": {
      "classes": []
    },
    "showInQuickbar": false,
    "abilityType": "none",
    "crOffset": "",
    "disabled": false,
    "classSkills": {},
    "nonlethal": false,
    "duration": {
      "value": null,
      "units": ""
    },
    "target": {
      "value": ""
    },
    "attackName": "",
    "actionType": null,
    "attackBonus": "",
    "critConfirmBonus": "",
    "damage": {
      "parts": [],
      "critParts": [],
      "nonCritParts": []
    },
    "attackParts": [],
    "formulaicAttacks": {
      "count": {
        "formula": ""
      },
      "bonus": {
        "formula": ""
      },
      "label": null
    },
    "formula": "",
    "ability": {
      "attack": null,
      "damage": null,
      "damageMult": 1,
      "critRange": 20,
      "critMult": 2
    },
    "save": {
      "dc": 0,
      "type": "",
      "description": ""
    },
    "soundEffect": "",
    "powerAttack": {
      "multiplier": "",
      "damageBonus": 2,
      "critMultiplier": 1
    }
  },
  "ownership": {
    "default": 0
  },
  "_stats": {
    "systemId": "pf1",
    "systemVersion": "9.0",
    "coreVersion": "10.291",
    "createdTime": 1663168885893,
    "modifiedTime": 1689623920934,
    "lastModifiedBy": "pf1spheres-db000"
  }
}
