{
  "_id": "N6Bg4Q0QfWk7q7y5",
  "name": "Suppressing Fire",
  "type": "feat",
  "img": "modules/pf1spheres/assets/icons/spheres/barrage.webp",
  "effects": [],
  "folder": null,
  "sort": 0,
  "flags": {
    "pf1spheres": {
      "sphere": "barrage"
    }
  },
  "system": {
    "description": {
      "value": "<p>When performing a barrage, you may make 2 extra attacks instead of one, but must target the same creature with both of these extra attacks. However, your shots are wild, and the target can easily duck, causing both of your extra attacks to miss. However, doing so causes the target to have its movement speed reduced by half and to suffer a -3 penalty to Perception checks and to all attack rolls until the end of their next round, -1 for each additional extra attack augmented with the suppressing fire (blitz) that targets this creature. The target can choose not to avoid these attacks, in which case you may roll the attacks as normal, and the target doesn&#8217;t suffer the penalties.</p>\n",
      "unidentified": ""
    },
    "tags": ["Blitz"],
    "actions": [],
    "uses": {
      "per": null,
      "value": 0,
      "maxFormula": "",
      "autoDeductChargesCost": "1"
    },
    "attackNotes": [],
    "effectNotes": [],
    "changes": [],
    "changeFlags": {
      "loseDexToAC": false,
      "noEncumbrance": false,
      "mediumArmorFullSpeed": false,
      "heavyArmorFullSpeed": false
    },
    "contextNotes": [],
    "links": {
      "children": [],
      "charges": []
    },
    "tag": "",
    "useCustomTag": false,
    "armorProf": {
      "value": [],
      "custom": ""
    },
    "weaponProf": {
      "value": [],
      "custom": ""
    },
    "languages": {
      "value": [],
      "custom": ""
    },
    "flags": {
      "boolean": {},
      "dictionary": {}
    },
    "scriptCalls": [],
    "subType": "combatTalent",
    "associations": {
      "classes": []
    },
    "showInQuickbar": false,
    "abilityType": "none",
    "crOffset": "",
    "disabled": false,
    "classSkills": {},
    "nonlethal": false,
    "duration": {
      "value": null,
      "units": ""
    },
    "target": {
      "value": ""
    },
    "attackName": "",
    "actionType": null,
    "attackBonus": "",
    "critConfirmBonus": "",
    "damage": {
      "parts": [],
      "critParts": [],
      "nonCritParts": []
    },
    "attackParts": [],
    "formulaicAttacks": {
      "count": {
        "formula": ""
      },
      "bonus": {
        "formula": ""
      },
      "label": null
    },
    "formula": "",
    "ability": {
      "attack": null,
      "damage": null,
      "damageMult": 1,
      "critRange": 20,
      "critMult": 2
    },
    "save": {
      "dc": 0,
      "type": "",
      "description": ""
    },
    "soundEffect": "",
    "powerAttack": {
      "multiplier": "",
      "damageBonus": 2,
      "critMultiplier": 1
    }
  },
  "ownership": {
    "default": 0
  },
  "_stats": {
    "systemId": "pf1",
    "systemVersion": "9.0",
    "coreVersion": "10.291",
    "createdTime": 1663168886439,
    "modifiedTime": 1689623921016,
    "lastModifiedBy": "pf1spheres-db000"
  }
}
