{
  "_id": "kt3pf9i5tZ9hMzmf",
  "name": "Tactics",
  "type": "feat",
  "img": "modules/pf1spheres/assets/icons/spheres/warleader.webp",
  "effects": [],
  "folder": null,
  "sort": 0,
  "flags": {
    "pf1spheres": {
      "sphere": "warleader"
    }
  },
  "system": {
    "description": {
      "value": "<p>Tactics are coordinated battle plans that require continuing direction from the practitioner to maintain. A creature must have line of sight to, and be able to see, the practitioner to benefit from a tactic. Beginning a tactic is a move action, and it can be maintained each round as a move or swift action. Once activated, you may switch between any tactics you know each time you use a swift action to maintain an ongoing tactic. Tactics affect all allied creatures within a radius of 10 ft. + 5ft. per rank in Diplomacy you possess, and may be centered on any square you have both line of sight and line of effect to. You may recenter an ongoing tactic at a new location as part of the swift action used to maintain it. The benefits of your tactics end immediately if you are helpless, killed, paralyzed, rendered unconscious, or stunned.</p>\n<p>When you first gain the Warleader sphere, you gain the following tactic:</p>\n",
      "unidentified": ""
    },
    "tags": [],
    "actions": [],
    "uses": {
      "per": null,
      "value": 0,
      "maxFormula": "",
      "autoDeductChargesCost": "1"
    },
    "attackNotes": [],
    "effectNotes": [],
    "changes": [],
    "changeFlags": {
      "loseDexToAC": false,
      "noEncumbrance": false,
      "mediumArmorFullSpeed": false,
      "heavyArmorFullSpeed": false
    },
    "contextNotes": [],
    "links": {
      "children": [],
      "charges": []
    },
    "tag": "",
    "useCustomTag": false,
    "armorProf": {
      "value": [],
      "custom": ""
    },
    "weaponProf": {
      "value": [],
      "custom": ""
    },
    "languages": {
      "value": [],
      "custom": ""
    },
    "flags": {
      "boolean": {},
      "dictionary": {}
    },
    "scriptCalls": [],
    "subType": "combatTalent",
    "associations": {
      "classes": []
    },
    "showInQuickbar": false,
    "abilityType": "none",
    "crOffset": "",
    "disabled": false,
    "classSkills": {},
    "nonlethal": false,
    "duration": {
      "value": null,
      "units": ""
    },
    "target": {
      "value": ""
    },
    "attackName": "",
    "actionType": null,
    "attackBonus": "",
    "critConfirmBonus": "",
    "damage": {
      "parts": [],
      "critParts": [],
      "nonCritParts": []
    },
    "attackParts": [],
    "formulaicAttacks": {
      "count": {
        "formula": ""
      },
      "bonus": {
        "formula": ""
      },
      "label": null
    },
    "formula": "",
    "ability": {
      "attack": null,
      "damage": null,
      "damageMult": 1,
      "critRange": 20,
      "critMult": 2
    },
    "save": {
      "dc": 0,
      "type": "",
      "description": ""
    },
    "soundEffect": "",
    "powerAttack": {
      "multiplier": "",
      "damageBonus": 2,
      "critMultiplier": 1
    }
  },
  "ownership": {
    "default": 0
  },
  "_stats": {
    "systemId": "pf1",
    "systemVersion": "9.0",
    "coreVersion": "10.291",
    "createdTime": 1663168887950,
    "modifiedTime": 1689623921359,
    "lastModifiedBy": "pf1spheres-db000"
  }
}
