{
  "_id": "afZTkIjYQJC06fcZ",
  "name": "Target Weakness",
  "type": "feat",
  "img": "modules/pf1spheres/assets/icons/spheres/scout.webp",
  "effects": [],
  "folder": null,
  "sort": 0,
  "flags": {
    "pf1spheres": {
      "sphere": "scout"
    }
  },
  "system": {
    "description": {
      "value": "<p>If you have successfully used the scout ability to identify a target&#8217;s weaknesses, you may use scavenged materials collected as you travel to improvise a weapon targeting one of those weaknesses as a move action that does not provoke attacks of opportunity; you may expend your martial focus to instead use this ability as a free action. The next attack you make against the target with a manufactured or natural weapon attack, including traps, is treated as though half the total damage it deals (rounded down) were of an energy type the target has vulnerability to (for example, if you fire an arrow at a red dragon, who has vulnerability to cold damage, and would normally deal 14 points of piercing damage, you instead deal 7 points of piercing damage and 10 points of cold damage); if this attack is not made before the end of your next turn, this effect is wasted.</p>\n<p>Additional energy damage dealt by the attack, such as from the flaming or frost weapon special abilities, is calculated separately from this effect. Alternatively, your weapons are treated as having one type listed in the target&#8217;s damage reduction (for example, if an enemy has DR 5/cold iron or good, you may treat your attacks as either good or cold iron for 1 round).</p>\n",
      "unidentified": ""
    },
    "tags": [],
    "actions": [],
    "uses": {
      "per": null,
      "value": 0,
      "maxFormula": "",
      "autoDeductChargesCost": "1"
    },
    "attackNotes": [],
    "effectNotes": [],
    "changes": [],
    "changeFlags": {
      "loseDexToAC": false,
      "noEncumbrance": false,
      "mediumArmorFullSpeed": false,
      "heavyArmorFullSpeed": false
    },
    "contextNotes": [],
    "links": {
      "children": [],
      "charges": []
    },
    "tag": "",
    "useCustomTag": false,
    "armorProf": {
      "value": [],
      "custom": ""
    },
    "weaponProf": {
      "value": [],
      "custom": ""
    },
    "languages": {
      "value": [],
      "custom": ""
    },
    "flags": {
      "boolean": {},
      "dictionary": {}
    },
    "scriptCalls": [],
    "subType": "combatTalent",
    "associations": {
      "classes": []
    },
    "showInQuickbar": false,
    "abilityType": "none",
    "crOffset": "",
    "disabled": false,
    "classSkills": {},
    "nonlethal": false,
    "duration": {
      "value": null,
      "units": ""
    },
    "target": {
      "value": ""
    },
    "attackName": "",
    "actionType": null,
    "attackBonus": "",
    "critConfirmBonus": "",
    "damage": {
      "parts": [],
      "critParts": [],
      "nonCritParts": []
    },
    "attackParts": [],
    "formulaicAttacks": {
      "count": {
        "formula": ""
      },
      "bonus": {
        "formula": ""
      },
      "label": null
    },
    "formula": "",
    "ability": {
      "attack": null,
      "damage": null,
      "damageMult": 1,
      "critRange": 20,
      "critMult": 2
    },
    "save": {
      "dc": 0,
      "type": "",
      "description": ""
    },
    "soundEffect": "",
    "powerAttack": {
      "multiplier": "",
      "damageBonus": 2,
      "critMultiplier": 1
    }
  },
  "ownership": {
    "default": 0
  },
  "_stats": {
    "systemId": "pf1",
    "systemVersion": "9.0",
    "coreVersion": "10.291",
    "createdTime": 1663168887682,
    "modifiedTime": 1689623921214,
    "lastModifiedBy": "pf1spheres-db000"
  }
}
