{
  "_id": "qz9reIbEsesfbvg6",
  "name": "Windwake",
  "type": "feat",
  "img": "modules/pf1spheres/assets/icons/spheres/athletics.webp",
  "effects": [],
  "folder": null,
  "sort": 0,
  "flags": {
    "pf1spheres": {
      "sphere": "athletics"
    }
  },
  "system": {
    "description": {
      "value": "<p><strong>Prerequisite:</strong> Athletics sphere.</p>\n<p>Whenever you move at least 30 feet, you may whip up a gust of wind. This wind affects every square adjacent to you during this movement and triggers at the end of your movement. Creatures in affected squares that are at least 2 sizes smaller than you must succeed at a Reflex save or have their movement speed reduced by half for one round. Creatures in affected squares that are at least 3 sizes smaller than you automatically have their movement speed reduced by half for one round and must succeed at a Reflex save or be pushed 5 feet and knocked prone. Creatures are pushed in a direction relative to your movement when you were adjacent to them, and do not provoke attacks of opportunity for this movement.</p>\n<p>For every 5 ranks in a skill associated with your current movement mode you possess, creatures are pushed 5 feet farther and you treat creatures as being 1 size smaller than they actually are for the purpose of being affected by Windwake.</p>\n",
      "unidentified": ""
    },
    "tags": ["Motion"],
    "actions": [],
    "uses": {
      "per": null,
      "value": 0,
      "maxFormula": "",
      "autoDeductChargesCost": "1"
    },
    "attackNotes": [],
    "effectNotes": [],
    "changes": [],
    "changeFlags": {
      "loseDexToAC": false,
      "noEncumbrance": false,
      "mediumArmorFullSpeed": false,
      "heavyArmorFullSpeed": false
    },
    "contextNotes": [],
    "links": {
      "children": [],
      "charges": []
    },
    "tag": "",
    "useCustomTag": false,
    "armorProf": {
      "value": [],
      "custom": ""
    },
    "weaponProf": {
      "value": [],
      "custom": ""
    },
    "languages": {
      "value": [],
      "custom": ""
    },
    "flags": {
      "boolean": {},
      "dictionary": {}
    },
    "scriptCalls": [],
    "subType": "combatTalent",
    "associations": {
      "classes": []
    },
    "showInQuickbar": false,
    "abilityType": "none",
    "crOffset": "",
    "disabled": false,
    "classSkills": {},
    "nonlethal": false,
    "duration": {
      "value": null,
      "units": ""
    },
    "target": {
      "value": ""
    },
    "attackName": "",
    "actionType": null,
    "attackBonus": "",
    "critConfirmBonus": "",
    "damage": {
      "parts": [],
      "critParts": [],
      "nonCritParts": []
    },
    "attackParts": [],
    "formulaicAttacks": {
      "count": {
        "formula": ""
      },
      "bonus": {
        "formula": ""
      },
      "label": null
    },
    "formula": "",
    "ability": {
      "attack": null,
      "damage": null,
      "damageMult": 1,
      "critRange": 20,
      "critMult": 2
    },
    "save": {
      "dc": 0,
      "type": "",
      "description": ""
    },
    "soundEffect": "",
    "powerAttack": {
      "multiplier": "",
      "damageBonus": 2,
      "critMultiplier": 1
    }
  },
  "ownership": {
    "default": 0
  },
  "_stats": {
    "systemId": "pf1",
    "systemVersion": "9.0",
    "coreVersion": "10.291",
    "createdTime": 1663168888050,
    "modifiedTime": 1689623921418,
    "lastModifiedBy": "pf1spheres-db000"
  }
}
