{
  "_id": "ccI2Hz4Y4Sypjp7F",
  "name": "Conscript",
  "type": "class",
  "img": "icons/svg/item-bag.svg",
  "effects": [],
  "folder": null,
  "sort": 0,
  "flags": {
    "pf1spheres": {
      "casterProgression": ""
    }
  },
  "system": {
    "description": {
      "value": "“You know what they say, a spear in the hand is… Well, it’s a spear. Figure it out.”\n<p>Conscripts don&#8217;t choose a life of battle, they have it thrust upon by them by fate or circumstance. Regardless of how they come to the battlefield, all conscripts who leave it alive do so because of the same two reasons: they have a natural gift for battle, and they figured out how to make do with the tools they had.</p>\n<p><strong>Starting Wealth:</strong> 1d6 x 10 gp (average 35 gp) In addition, each character begins play with an outfit worth 10 gp or less. <strong>Alternatively</strong>, a Conscript may start with 15 GP, an outfit worth 10 GP or less, a melee weapon, a ranged weapon, and a suit of armor (the Conscript must be proficient with the weapons and armor chosen). (<a href=\"https://paizo.com/threads/rzs42bi5?Rules-Clarification-Scholar#14\">Developer Suggestion</a>)</p>\n<p><strong>Starting Age:</strong> Self-taught</p>\n<p><strong>Role:</strong> Conscripts learn all of their combat training on the battlefield, and typically learn to fill whatever role best suits the equipment they have to work with.</p>\n<p><strong>Alignment:</strong> Any.</p>\n<p><strong>Hit Die:</strong> d10</p>\n<p><strong>Class Skills:</strong> The conscript&#8217;s class skills are Climb (Str), Craft (Int), Handle Animal (Cha), Knowledge (local) (Int), Perception (Wis), Profession (Wis), Survival (Wis), Swim (Str), and three other class skills of the conscript&#8217;s choice, chosen at character creation.</p>\n<p><strong>Skill Ranks Per Level:</strong> 4 + Int modifier.</p>\n<p><strong>Proficiencies:</strong> Conscripts are proficient with simple weapons, as well as light armor and bucklers. In addition, if this is this character&#8217;s first level in any class, they may select a martial tradition of their choice.</p>\n\n<h2>Combat Training</h2>\n<p>A conscript may combine combat spheres and talents to create powerful martial techniques. Conscripts are considered Expert combatants. When they gain their first level in the conscript class, conscripts may choose either Charisma, Intelligence or Wisdom as their practitioner modifier.</p>\n",
      "unidentified": ""
    },
    "tags": [],
    "changes": [],
    "changeFlags": {
      "loseDexToAC": false,
      "noEncumbrance": false,
      "mediumArmorFullSpeed": false,
      "heavyArmorFullSpeed": false
    },
    "links": {
      "children": [],
      "classAssociations": [
        {
          "name": "Bonus Feat (Conscript)",
          "level": 1,
          "_index": 0,
          "uuid": "Compendium.pf1spheres.class-features.P8fBZGvHXfA4zbDe"
        },
        {
          "name": "Bonus Talent",
          "level": 1,
          "_index": 1,
          "uuid": "Compendium.pf1spheres.class-features.zrVvHiqgjfBiKGC3"
        },
        {
          "name": "Combat Specializations",
          "level": 1,
          "_index": 2,
          "uuid": "Compendium.pf1spheres.class-features.FGWg7dEr0SkbLgDK"
        },
        {
          "name": "List of Sphere Specializations (Conscript)",
          "level": 1,
          "_index": 3,
          "uuid": "Compendium.pf1spheres.class-features.jUqIq0LR01Wi8vEQ"
        }
      ]
    },
    "tag": "conscript",
    "useCustomTag": false,
    "armorProf": {
      "value": ["lgt"],
      "custom": "Buckler"
    },
    "weaponProf": {
      "value": ["sim"],
      "custom": ""
    },
    "languages": {
      "value": [],
      "custom": ""
    },
    "flags": {
      "boolean": {},
      "dictionary": {}
    },
    "scriptCalls": [],
    "subType": "base",
    "level": 1,
    "hd": 10,
    "hp": 8,
    "bab": "high",
    "skillsPerLevel": 4,
    "savingThrows": {
      "fort": {
        "value": "high"
      },
      "ref": {
        "value": "high"
      },
      "will": {
        "value": "low"
      }
    },
    "fc": {
      "hp": {
        "value": 0
      },
      "skill": {
        "value": 0
      },
      "alt": {
        "value": 0,
        "notes": ""
      }
    },
    "classSkills": {
      "acr": false,
      "apr": false,
      "art": true,
      "blf": false,
      "clm": true,
      "crf": true,
      "dip": false,
      "dev": false,
      "dis": false,
      "esc": false,
      "fly": false,
      "han": true,
      "hea": false,
      "int": false,
      "kar": false,
      "kdu": false,
      "ken": false,
      "kge": false,
      "khi": false,
      "klo": true,
      "kna": false,
      "kno": false,
      "kpl": false,
      "kre": false,
      "lin": false,
      "lor": false,
      "per": true,
      "prf": false,
      "pro": true,
      "rid": false,
      "sen": false,
      "slt": false,
      "spl": false,
      "ste": false,
      "sur": true,
      "swm": true,
      "umd": false
    },
    "customHD": "",
    "classType": "base"
  },
  "ownership": {
    "default": 0
  },
  "_stats": {
    "systemId": "pf1",
    "systemVersion": "9.0",
    "coreVersion": "10.291",
    "createdTime": 1663168899463,
    "modifiedTime": 1689623925739,
    "lastModifiedBy": "pf1spheres-db000"
  }
}
