{
  "_id": "ovtRjKR37UcklI0e",
  "name": "Fey Adept",
  "type": "class",
  "img": "icons/svg/item-bag.svg",
  "effects": [],
  "folder": null,
  "sort": 0,
  "flags": {
    "pf1spheres": {
      "casterProgression": "high"
    }
  },
  "system": {
    "description": {
      "value": "Fey Adepts specialize in using illusion and the creation of partially-real shadows to get their job done.\n<p><strong>Role:</strong> Fey adepts are versatile casters and experts of trickery.</p>\n<p><strong>Alignment:</strong> Any</p>\n<p><strong>Hit Die:</strong> d6</p>\n<p><strong>Starting Wealth:</strong> 3d6 x 10 gp (average 105 gp). In addition, each character begins play with an outfit worth 10 gp or less.</p>\n<p><strong>Class Skills:</strong> The fey adept&#8217;s class skills are Appraise (Int), Bluff (Cha), Craft (Int), Disguise (Cha), Escape Artist (Dex), Intimidate (Cha), Knowledge (arcana) (Int), Knowledge (local) (Int), Knowledge (nature) (Int), Linguistics (Int), Perception (Wis), Perform (Cha), Sense Motive (Wis), Sleight of Hand (Dex), Spellcraft (Int), Stealth (Dex), and Use Magic Device (Cha).</p>\n<p><strong>Skill Ranks Per Level:</strong> 4 + Int modifier.</p>\n",
      "unidentified": ""
    },
    "tags": [],
    "changes": [],
    "changeFlags": {
      "loseDexToAC": false,
      "noEncumbrance": false,
      "mediumArmorFullSpeed": false,
      "heavyArmorFullSpeed": false
    },
    "links": {
      "children": [],
      "classAssociations": [
        {
          "name": "Weapon and Armor Proficiency (Fey Adept)",
          "level": 1,
          "_index": 0,
          "uuid": "Compendium.pf1spheres.class-features.24pktWMbB6L8Q0gP"
        },
        {
          "name": "Casting (Fey Adept)",
          "level": 1,
          "_index": 1,
          "uuid": "Compendium.pf1spheres.class-features.Hnr6QYMJG6UeP5YC"
        },
        {
          "name": "Spell Pool (Fey Adept)",
          "level": 1,
          "_index": 2,
          "uuid": "Compendium.pf1spheres.class-features.IhypKTZwYP1UWDNT"
        },
        {
          "name": "Magic Talents (Fey Adept)",
          "level": 1,
          "_index": 3,
          "uuid": "Compendium.pf1spheres.class-features.zHPAHCiCfQcXuZcx"
        },
        {
          "name": "Fey Magic",
          "level": 1,
          "_index": 4,
          "uuid": "Compendium.pf1spheres.class-features.WlpIXIp3dOyYT5XF"
        },
        {
          "name": "Master Illusionist",
          "level": 1,
          "_index": 5,
          "uuid": "Compendium.pf1spheres.class-features.DiDB6XBAFubdxBKV"
        },
        {
          "name": "Shadowstuff",
          "level": 1,
          "_index": 6,
          "uuid": "Compendium.pf1spheres.class-features.mCMj24cAanA6nwaZ"
        },
        {
          "name": "Darkvision",
          "level": 2,
          "_index": 7,
          "uuid": "Compendium.pf1spheres.class-features.BWe5x3EMVakRuDhq"
        },
        {
          "name": "Truesight",
          "level": 4,
          "_index": 8,
          "uuid": "Compendium.pf1spheres.class-features.HwjagvCDwpSLYlk5"
        },
        {
          "name": "Hide in Plain Sight",
          "level": 10,
          "_index": 9,
          "uuid": "Compendium.pf1spheres.class-features.Q6LcDPnz8agpB2JX"
        },
        {
          "name": "See in Darkness",
          "level": 14,
          "_index": 10,
          "uuid": "Compendium.pf1spheres.class-features.H5wrk9Fe60herRso"
        },
        {
          "name": "Feytouched",
          "level": 20,
          "_index": 11,
          "uuid": "Compendium.pf1spheres.class-features.rfgL5maVMMlNBFnn"
        },
        {
          "name": "Permanent Illusion",
          "level": 20,
          "_index": 12,
          "uuid": "Compendium.pf1spheres.class-features.lMpEfS79KpQyTTP4"
        }
      ]
    },
    "tag": "feyAdept",
    "useCustomTag": false,
    "armorProf": {
      "value": [],
      "custom": ""
    },
    "weaponProf": {
      "value": [],
      "custom": ""
    },
    "languages": {
      "value": [],
      "custom": ""
    },
    "flags": {
      "boolean": {},
      "dictionary": {}
    },
    "scriptCalls": [],
    "subType": "base",
    "level": 1,
    "hd": 6,
    "hp": 8,
    "bab": "low",
    "skillsPerLevel": 4,
    "savingThrows": {
      "fort": {
        "value": "low"
      },
      "ref": {
        "value": "low"
      },
      "will": {
        "value": "high"
      }
    },
    "fc": {
      "hp": {
        "value": 0
      },
      "skill": {
        "value": 0
      },
      "alt": {
        "value": 0,
        "notes": ""
      }
    },
    "classSkills": {
      "acr": false,
      "apr": true,
      "art": true,
      "blf": true,
      "clm": false,
      "crf": true,
      "dip": false,
      "dev": false,
      "dis": true,
      "esc": true,
      "fly": false,
      "han": false,
      "hea": false,
      "int": true,
      "kar": true,
      "kdu": false,
      "ken": false,
      "kge": false,
      "khi": false,
      "klo": true,
      "kna": true,
      "kno": false,
      "kpl": false,
      "kre": false,
      "lin": true,
      "lor": false,
      "per": true,
      "prf": true,
      "pro": false,
      "rid": false,
      "sen": true,
      "slt": true,
      "spl": true,
      "ste": true,
      "sur": false,
      "swm": false,
      "umd": true
    },
    "customHD": "",
    "classType": "base"
  },
  "ownership": {
    "default": 0
  },
  "_stats": {
    "systemId": "pf1",
    "systemVersion": "9.0",
    "coreVersion": "10.291",
    "createdTime": 1663168899467,
    "modifiedTime": 1689623925739,
    "lastModifiedBy": "pf1spheres-db000"
  }
}
