{
  "_id": "7htbt9LqiZbF0RTt",
  "name": "Incanter",
  "type": "class",
  "img": "icons/svg/item-bag.svg",
  "effects": [],
  "folder": null,
  "sort": 0,
  "flags": {
    "pf1spheres": {
      "casterProgression": "high"
    }
  },
  "system": {
    "description": {
      "value": "The incanter is among the purest forms of a caster, dedicated above all to expanding their knowledge of the magical arts. Their powers are almost entirely determined by their choice of sphere - whether they’re dabbling in everything or focusing their knowledge on a few areas, though, they’re a force to be reckoned with.\n<p><strong>Role:</strong> An incanter is a master of magical spheres, bending magic to their needs more fully than any other caster.</p>\n<p><strong>Alignment:</strong> Any</p>\n<p><strong>Hit Die:</strong> d6</p>\n<p><strong>Starting Wealth:</strong> 3d6 x 10 gp (average 105 gp). In addition, each character begins play with an outfit worth 10 gp or less.</p>\n<p><strong>Class Skills:</strong> The incanter&#8217;s class skills are Appraise (Int), Craft (Int), Fly (Dex), Knowledge (all) (Int), Linguistics (Int), Profession (Wis), and Spellcraft (Int).</p>\n<p><strong>Skill Ranks Per Level:</strong> 4 + Int modifier.</p>\n",
      "unidentified": ""
    },
    "tags": [],
    "changes": [],
    "changeFlags": {
      "loseDexToAC": false,
      "noEncumbrance": false,
      "mediumArmorFullSpeed": false,
      "heavyArmorFullSpeed": false
    },
    "links": {
      "children": [],
      "classAssociations": [
        {
          "name": "Weapon and Armor Proficiency (Incanter)",
          "level": 1,
          "_index": 0,
          "uuid": "Compendium.pf1spheres.class-features.A9FAOo84kJtEZxyx"
        },
        {
          "name": "Casting (Incanter)",
          "level": 1,
          "_index": 1,
          "uuid": "Compendium.pf1spheres.class-features.flMB9hKbsb8bRrI1"
        },
        {
          "name": "Spell Pool (Incanter)",
          "level": 1,
          "_index": 2,
          "uuid": "Compendium.pf1spheres.class-features.0JHCoqow5V8nzcw6"
        },
        {
          "name": "Magic Talents (Incanter)",
          "level": 1,
          "_index": 3,
          "uuid": "Compendium.pf1spheres.class-features.nURFMMZjd7LyZfA0"
        },
        {
          "name": "Bonus Feat (Incanter)",
          "level": 1,
          "_index": 4,
          "uuid": "Compendium.pf1spheres.class-features.yMTwPUIZM4m3xvOT"
        },
        {
          "name": "Incanter Specializations",
          "level": 1,
          "_index": 5,
          "uuid": "Compendium.pf1spheres.class-features.YrixbDQqY3kmdsTa"
        },
        {
          "name": "List of Sphere Specializations (Incanter)",
          "level": 1,
          "_index": 6,
          "uuid": "Compendium.pf1spheres.class-features.7W1eLxdXzGzq9jLP"
        }
      ]
    },
    "tag": "incanter",
    "useCustomTag": false,
    "armorProf": {
      "value": [],
      "custom": ""
    },
    "weaponProf": {
      "value": [],
      "custom": ""
    },
    "languages": {
      "value": [],
      "custom": ""
    },
    "flags": {
      "boolean": {},
      "dictionary": {}
    },
    "scriptCalls": [],
    "subType": "base",
    "level": 1,
    "hd": 6,
    "hp": 8,
    "bab": "low",
    "skillsPerLevel": 4,
    "savingThrows": {
      "fort": {
        "value": "low"
      },
      "ref": {
        "value": "low"
      },
      "will": {
        "value": "high"
      }
    },
    "fc": {
      "hp": {
        "value": 0
      },
      "skill": {
        "value": 0
      },
      "alt": {
        "value": 0,
        "notes": ""
      }
    },
    "classSkills": {
      "acr": false,
      "apr": true,
      "art": true,
      "blf": false,
      "clm": false,
      "crf": true,
      "dip": false,
      "dev": false,
      "dis": false,
      "esc": false,
      "fly": true,
      "han": false,
      "hea": false,
      "int": false,
      "kar": true,
      "kdu": true,
      "ken": true,
      "kge": true,
      "khi": true,
      "klo": true,
      "kna": true,
      "kno": true,
      "kpl": true,
      "kre": true,
      "lin": true,
      "lor": false,
      "per": false,
      "prf": false,
      "pro": true,
      "rid": false,
      "sen": false,
      "slt": false,
      "spl": true,
      "ste": false,
      "sur": false,
      "swm": false,
      "umd": false
    },
    "customHD": "",
    "classType": "base"
  },
  "ownership": {
    "default": 0
  },
  "_stats": {
    "systemId": "pf1",
    "systemVersion": "9.0",
    "coreVersion": "10.291",
    "createdTime": 1663168899450,
    "modifiedTime": 1689623925737,
    "lastModifiedBy": "pf1spheres-db000"
  }
}
