{
  "_id": "pD1g3fIZ6n3xVIou",
  "name": "Mageknight",
  "type": "class",
  "img": "icons/svg/item-bag.svg",
  "effects": [],
  "folder": null,
  "sort": 0,
  "flags": {
    "pf1spheres": {
      "casterProgression": "low"
    }
  },
  "system": {
    "description": {
      "value": "The mageknight is a warrior who mixes magic and blade in the heat of combat. Unlike the armorist, who focuses on calling forth weapons, the mageknight prefers to enhance their weapons with a wide variety of magical tricks. Mageknights aren’t limited in their choice of sphere, so they tend to come up with unique combinations that suit their personal style.\n<p><strong>Role:</strong> The mageknight combines magic and martial power to become a powerful combatant.</p>\n<p><strong>Alignment:</strong> Any</p>\n<p><strong>Hit Die:</strong> d10</p>\n<p><strong>Starting Wealth:</strong> 5d6 x 10 gp (average 175 gp). In addition, each character begins play with an outfit worth 10 gp or less.</p>\n<p><strong>Class Skills:</strong> The mageknight&#8217;s class skills are Acrobatics (Dex), Climb (Str), Craft (Int), Diplomacy (Cha), Handle Animal (Cha), Knowledge (arcana) (Int), Knowledge (nature) (Int), Knowledge (nobility) (Int), Knowledge (planes) (Int), Knowledge (religion) (Int), Profession (Wis), Ride (Dex), Spellcraft (Int), Survival (Wis), and Swim (Str).</p>\n<p><strong>Skill Ranks Per Level:</strong> 4 + Int modifier.</p>\n",
      "unidentified": ""
    },
    "tags": [],
    "changes": [],
    "changeFlags": {
      "loseDexToAC": false,
      "noEncumbrance": false,
      "mediumArmorFullSpeed": false,
      "heavyArmorFullSpeed": false
    },
    "links": {
      "children": [],
      "classAssociations": [
        {
          "name": "Weapon and Armor Proficiency (Mageknight)",
          "level": 1,
          "_index": 0,
          "uuid": "Compendium.pf1spheres.class-features.Qj9pCRPAsDUfSI8S"
        },
        {
          "name": "Casting (Mageknight)",
          "level": 1,
          "_index": 1,
          "uuid": "Compendium.pf1spheres.class-features.LkYbWc2Ndz77BYDl"
        },
        {
          "name": "Spell Pool (Mageknight)",
          "level": 1,
          "_index": 2,
          "uuid": "Compendium.pf1spheres.class-features.P0jaPmKH84zBS54A"
        },
        {
          "name": "Magic Talents (Mageknight)",
          "level": 1,
          "_index": 3,
          "uuid": "Compendium.pf1spheres.class-features.Zo2mGytkoRZ4zR6x"
        },
        {
          "name": "Resist Magic",
          "level": 1,
          "_index": 4,
          "uuid": "Compendium.pf1spheres.class-features.k52yj4Mx5Z8Ip4BI"
        },
        {
          "name": "Mystic Combat",
          "level": 2,
          "_index": 5,
          "uuid": "Compendium.pf1spheres.class-features.ffgoUI04RocplIZx"
        },
        {
          "name": "Stalwart (Mageknight)",
          "level": 3,
          "_index": 6,
          "uuid": "Compendium.pf1spheres.class-features.fXHIKnUkoE3tYdRI"
        },
        {
          "name": "Marked",
          "level": 7,
          "_index": 7,
          "uuid": "Compendium.pf1spheres.class-features.9ACiDLIIRijxRPbN"
        },
        {
          "name": "Mystic Defense",
          "level": 11,
          "_index": 8,
          "uuid": "Compendium.pf1spheres.class-features.WA1aryYI2coAo27M"
        },
        {
          "name": "Draw Power",
          "level": 15,
          "_index": 9,
          "uuid": "Compendium.pf1spheres.class-features.avK47Jl25gTbDMZi"
        },
        {
          "name": "Spell Critical",
          "level": 19,
          "_index": 10,
          "uuid": "Compendium.pf1spheres.class-features.lPbWHom1Bjpw6gBJ"
        },
        {
          "name": "Spellsword",
          "level": 20,
          "_index": 11,
          "uuid": "Compendium.pf1spheres.class-features.yql3khNIFabx80xp"
        }
      ]
    },
    "tag": "mageknight",
    "useCustomTag": false,
    "armorProf": {
      "value": [],
      "custom": ""
    },
    "weaponProf": {
      "value": [],
      "custom": ""
    },
    "languages": {
      "value": [],
      "custom": ""
    },
    "flags": {
      "boolean": {},
      "dictionary": {}
    },
    "scriptCalls": [],
    "subType": "base",
    "level": 1,
    "hd": 10,
    "hp": 8,
    "bab": "high",
    "skillsPerLevel": 4,
    "savingThrows": {
      "fort": {
        "value": "high"
      },
      "ref": {
        "value": "low"
      },
      "will": {
        "value": "high"
      }
    },
    "fc": {
      "hp": {
        "value": 0
      },
      "skill": {
        "value": 0
      },
      "alt": {
        "value": 0,
        "notes": ""
      }
    },
    "classSkills": {
      "acr": true,
      "apr": false,
      "art": true,
      "blf": false,
      "clm": true,
      "crf": true,
      "dip": true,
      "dev": false,
      "dis": false,
      "esc": false,
      "fly": false,
      "han": true,
      "hea": false,
      "int": false,
      "kar": true,
      "kdu": false,
      "ken": false,
      "kge": false,
      "khi": false,
      "klo": false,
      "kna": true,
      "kno": true,
      "kpl": true,
      "kre": true,
      "lin": false,
      "lor": false,
      "per": false,
      "prf": false,
      "pro": true,
      "rid": true,
      "sen": false,
      "slt": false,
      "spl": true,
      "ste": false,
      "sur": true,
      "swm": true,
      "umd": false
    },
    "customHD": "",
    "classType": "base"
  },
  "ownership": {
    "default": 0
  },
  "_stats": {
    "systemId": "pf1",
    "systemVersion": "9.0",
    "coreVersion": "10.291",
    "createdTime": 1663168899468,
    "modifiedTime": 1689623925739,
    "lastModifiedBy": "pf1spheres-db000"
  }
}
