{
  "_id": "wtivtLzBpNkCooVi",
  "name": "Shifter",
  "type": "class",
  "img": "icons/svg/item-bag.svg",
  "effects": [],
  "folder": null,
  "sort": 0,
  "flags": {
    "pf1spheres": {
      "casterProgression": "mid"
    }
  },
  "system": {
    "description": {
      "value": "<strong>Note:</strong> This class should not be confused with the Shifter from Ultimate Wilderness by Paizo Publishing.\n<hr>\n<p>Shifters are experts at transforming themselves (and often others) into whatever form is most suitable for a situation. Whether they&#8217;re a druid getting closer to the wilderness, a magical experiment with horrifying implications, or the scion of a lycanthropic bloodline, their ability to become what they want to be makes them hard for anyone to stop.</p>\n<p><strong>Role:</strong> Shifters are experts at infiltration and combat, using their powers to assume many shapes to fit whatever situation they find themselves in.</p>\n<p><strong>Alignment:</strong> Any non-lawful</p>\n<p><strong>Hit Die:</strong> d8</p>\n<p><strong>Starting Wealth:</strong> 3d6 x 10 gp (average 105 gp). In addition, each character begins play with an outfit worth 10 gp or less.</p>\n<p><strong>Class Skills:</strong> The shifter&#8217;s class skills are Acrobatics (Dex), Bluff (Cha), Climb (Str), Craft (Int), Disguise (Cha), Fly (Dex), Handle Animal (Cha), Intimidate (Cha), Knowledge (geography) (Int), Knowledge (nature) (Int), Perception (Wis), Profession (Wis), Sense Motive (Wis), Spellcraft (Int), Stealth (Dex), Survival (Wis), and Swim (Str).</p>\n<p><strong>Skill Ranks Per Level:</strong> 4 + Int modifier.</p>\n",
      "unidentified": ""
    },
    "tags": [],
    "changes": [],
    "changeFlags": {
      "loseDexToAC": false,
      "noEncumbrance": false,
      "mediumArmorFullSpeed": false,
      "heavyArmorFullSpeed": false
    },
    "links": {
      "children": [],
      "classAssociations": [
        {
          "name": "Weapon and Armor Proficiency (Shifter)",
          "level": 1,
          "_index": 0,
          "uuid": "Compendium.pf1spheres.class-features.4UDy4dVD1fl02o9f"
        },
        {
          "name": "Casting (Shifter)",
          "level": 1,
          "_index": 1,
          "uuid": "Compendium.pf1spheres.class-features.5Gr6IEPm8rr3iWEM"
        },
        {
          "name": "Spell Pool (Shifter)",
          "level": 1,
          "_index": 2,
          "uuid": "Compendium.pf1spheres.class-features.ztU9qxAhNU1ra3pi"
        },
        {
          "name": "Magic Talents (Shifter)",
          "level": 1,
          "_index": 3,
          "uuid": "Compendium.pf1spheres.class-features.7F5ZzN7bnQ4iSF7I"
        },
        {
          "name": "Shapeshifter",
          "level": 1,
          "_index": 4,
          "uuid": "Compendium.pf1spheres.class-features.d8gorrZGpvvt0m7K"
        },
        {
          "name": "Wild Empathy",
          "level": 1,
          "_index": 5,
          "uuid": "Compendium.pf1spheres.class-features.zI6rvWbTyeVx4Ef5"
        },
        {
          "name": "Quick Transformation",
          "level": 1,
          "_index": 6,
          "uuid": "Compendium.pf1spheres.class-features.Oq8ANUjnPL9CwSBE"
        },
        {
          "name": "Bestial Trait",
          "level": 2,
          "_index": 7,
          "uuid": "Compendium.pf1spheres.class-features.KhMzzSlTnuqIIfQ0"
        },
        {
          "name": "Endurance",
          "level": 3,
          "_index": 8,
          "uuid": "Compendium.pf1spheres.class-features.mCcO1ziyFryKaZEU"
        },
        {
          "name": "Lingering Transformation",
          "level": 4,
          "_index": 9,
          "uuid": "Compendium.pf1spheres.class-features.WJ2SSo6uCyC6wu7c"
        },
        {
          "name": "Enhanced Attacks",
          "level": 4,
          "_index": 10,
          "uuid": "Compendium.pf1spheres.class-features.hTBE8aOcLq0jVjY9"
        },
        {
          "name": "Steal Language",
          "level": 5,
          "_index": 11,
          "uuid": "Compendium.pf1spheres.class-features.8ktspwJ7vavECBiq"
        },
        {
          "name": "Enhanced Physicality (Shifter)",
          "level": 7,
          "_index": 12,
          "uuid": "Compendium.pf1spheres.class-features.DG9Q8bdb4EfiBAPu"
        },
        {
          "name": "Immunity to Poison",
          "level": 8,
          "_index": 13,
          "uuid": "Compendium.pf1spheres.class-features.H9eAUA9wp4KZqnqX"
        },
        {
          "name": "Extended Transformation",
          "level": 9,
          "_index": 14,
          "uuid": "Compendium.pf1spheres.class-features.K0WEZKEiTA9Q2VYm"
        },
        {
          "name": "Boundless Communication",
          "level": 11,
          "_index": 15,
          "uuid": "Compendium.pf1spheres.class-features.7JenRuBQeUyBSqpY"
        },
        {
          "name": "Immunity to Disease",
          "level": 12,
          "_index": 16,
          "uuid": "Compendium.pf1spheres.class-features.0gE1XPsRjp8wqGSk"
        },
        {
          "name": "Endless Communication",
          "level": 15,
          "_index": 17,
          "uuid": "Compendium.pf1spheres.class-features.YzvkbGyMohO7aZPi"
        },
        {
          "name": "Greater Transformation",
          "level": 17,
          "_index": 18,
          "uuid": "Compendium.pf1spheres.class-features.fU9dAEIsXtj4TAcf"
        },
        {
          "name": "Second Skin",
          "level": 20,
          "_index": 19,
          "uuid": "Compendium.pf1spheres.class-features.bxjSpwU6vqMdu3Hx"
        }
      ]
    },
    "tag": "shifter",
    "useCustomTag": false,
    "armorProf": {
      "value": [],
      "custom": ""
    },
    "weaponProf": {
      "value": [],
      "custom": ""
    },
    "languages": {
      "value": [],
      "custom": ""
    },
    "flags": {
      "boolean": {},
      "dictionary": {}
    },
    "scriptCalls": [],
    "subType": "base",
    "level": 1,
    "hd": 8,
    "hp": 8,
    "bab": "med",
    "skillsPerLevel": 4,
    "savingThrows": {
      "fort": {
        "value": "high"
      },
      "ref": {
        "value": "high"
      },
      "will": {
        "value": "low"
      }
    },
    "fc": {
      "hp": {
        "value": 0
      },
      "skill": {
        "value": 0
      },
      "alt": {
        "value": 0,
        "notes": ""
      }
    },
    "classSkills": {
      "acr": true,
      "apr": false,
      "art": true,
      "blf": true,
      "clm": true,
      "crf": true,
      "dip": false,
      "dev": false,
      "dis": true,
      "esc": false,
      "fly": true,
      "han": true,
      "hea": false,
      "int": true,
      "kar": false,
      "kdu": false,
      "ken": false,
      "kge": true,
      "khi": false,
      "klo": false,
      "kna": true,
      "kno": false,
      "kpl": false,
      "kre": false,
      "lin": false,
      "lor": false,
      "per": true,
      "prf": false,
      "pro": true,
      "rid": false,
      "sen": true,
      "slt": false,
      "spl": true,
      "ste": true,
      "sur": true,
      "swm": true,
      "umd": false
    },
    "customHD": "",
    "classType": "base"
  },
  "ownership": {
    "default": 0
  },
  "_stats": {
    "systemId": "pf1",
    "systemVersion": "9.0",
    "coreVersion": "10.291",
    "createdTime": 1663168899469,
    "modifiedTime": 1689623925739,
    "lastModifiedBy": "pf1spheres-db000"
  }
}
