{
  "_id": "Puqv1Pfkmoxd7rxB",
  "name": "Cooperative Reanimate",
  "type": "feat",
  "img": "icons/svg/item-bag.svg",
  "effects": [],
  "folder": null,
  "sort": 0,
  "flags": {},
  "system": {
    "description": {
      "value": "<p>Undead you and your allies create resonate with each of your souls.</p>\n<p><strong>Prerequisite:</strong> Death sphere.</p>\n<p><strong>Benefit:</strong> You may give simple commands to undead under the control of an ally who also possesses this feat; if they receive conflicting orders, they act under their controller&#8217;s orders.</p>\n<p>In addition, if at any time you would fall unconscious or be dropped to 0 hit points or less, you may choose to transfer any undead you have control over to another ally with this teamwork feat for 1 minute (or their normal maximum duration, whichever is shorter). Transferred undead may be returned to their owner during this time period as a move action, but can never be transferred to a third ally. After the duration expires, they are considered under your ally&#8217;s control and count towards your ally&#8217;s maximum Hit Dice total of undead they can have reanimated at once.</p>\n",
      "unidentified": ""
    },
    "tags": ["Teamwork"],
    "actions": [],
    "uses": {
      "per": null,
      "value": 0,
      "maxFormula": "",
      "autoDeductChargesCost": "1"
    },
    "attackNotes": [],
    "effectNotes": [],
    "changes": [],
    "changeFlags": {
      "loseDexToAC": false,
      "noEncumbrance": false,
      "mediumArmorFullSpeed": false,
      "heavyArmorFullSpeed": false
    },
    "contextNotes": [],
    "links": {
      "children": [],
      "charges": []
    },
    "tag": "",
    "useCustomTag": false,
    "armorProf": {
      "value": [],
      "custom": ""
    },
    "weaponProf": {
      "value": [],
      "custom": ""
    },
    "languages": {
      "value": [],
      "custom": ""
    },
    "flags": {
      "boolean": {},
      "dictionary": {}
    },
    "scriptCalls": [],
    "subType": "feat",
    "associations": {
      "classes": []
    },
    "showInQuickbar": false,
    "abilityType": "none",
    "crOffset": "",
    "disabled": false,
    "classSkills": {},
    "nonlethal": false,
    "duration": {
      "value": null,
      "units": ""
    },
    "target": {
      "value": ""
    },
    "attackName": "",
    "actionType": null,
    "attackBonus": "",
    "critConfirmBonus": "",
    "damage": {
      "parts": [],
      "critParts": [],
      "nonCritParts": []
    },
    "attackParts": [],
    "formulaicAttacks": {
      "count": {
        "formula": ""
      },
      "bonus": {
        "formula": ""
      },
      "label": null
    },
    "formula": "",
    "ability": {
      "attack": null,
      "damage": null,
      "damageMult": 1,
      "critRange": 20,
      "critMult": 2
    },
    "save": {
      "dc": 0,
      "type": "",
      "description": ""
    },
    "soundEffect": ""
  },
  "ownership": {
    "default": 0
  },
  "_stats": {
    "systemId": "pf1",
    "systemVersion": "9.0",
    "coreVersion": "10.291",
    "createdTime": 1663168897838,
    "modifiedTime": 1689623925085,
    "lastModifiedBy": "pf1spheres-db000"
  }
}
