{
  "_id": "eAnxny53kabmOvdL",
  "name": "Corrupted Form",
  "type": "feat",
  "img": "icons/svg/item-bag.svg",
  "effects": [],
  "folder": null,
  "sort": 0,
  "flags": {},
  "system": {
    "description": {
      "value": "<p>Your magic overtakes your body, blessing you with an advanced physiology as you sink deeper into depravity.</p>\n<p><strong>Prerequisites:</strong> Addictive Casting drawback or Unsettling Casting drawback, Witchwarped, magic skill bonus 5.</p>\n<p><strong>Benefits:</strong> Select one additional trait that you could select with the Witchwarped feat. While you possess a lesser madness or a moderate addiction as a result of a casting drawback, you gain the benefits of this trait in addition to the trait granted from Witchwarped.</p>\n<p>When your magic skill bonus reaches 10, you may select a third trait which you gain while you possess a greater madness or severe addiction</p>\n<p>Traits gained from this feat count towards the number of traits you may possess when under the effects of Blank Transformation, but are not considered a polymorph effect.</p>\n",
      "unidentified": ""
    },
    "tags": ["Drawback"],
    "actions": [],
    "uses": {
      "per": null,
      "value": 0,
      "maxFormula": "",
      "autoDeductChargesCost": "1"
    },
    "attackNotes": [],
    "effectNotes": [],
    "changes": [],
    "changeFlags": {
      "loseDexToAC": false,
      "noEncumbrance": false,
      "mediumArmorFullSpeed": false,
      "heavyArmorFullSpeed": false
    },
    "contextNotes": [],
    "links": {
      "children": [],
      "charges": []
    },
    "tag": "",
    "useCustomTag": false,
    "armorProf": {
      "value": [],
      "custom": ""
    },
    "weaponProf": {
      "value": [],
      "custom": ""
    },
    "languages": {
      "value": [],
      "custom": ""
    },
    "flags": {
      "boolean": {},
      "dictionary": {}
    },
    "scriptCalls": [],
    "subType": "feat",
    "associations": {
      "classes": []
    },
    "showInQuickbar": false,
    "abilityType": "none",
    "crOffset": "",
    "disabled": false,
    "classSkills": {},
    "nonlethal": false,
    "duration": {
      "value": null,
      "units": ""
    },
    "target": {
      "value": ""
    },
    "attackName": "",
    "actionType": null,
    "attackBonus": "",
    "critConfirmBonus": "",
    "damage": {
      "parts": [],
      "critParts": [],
      "nonCritParts": []
    },
    "attackParts": [],
    "formulaicAttacks": {
      "count": {
        "formula": ""
      },
      "bonus": {
        "formula": ""
      },
      "label": null
    },
    "formula": "",
    "ability": {
      "attack": null,
      "damage": null,
      "damageMult": 1,
      "critRange": 20,
      "critMult": 2
    },
    "save": {
      "dc": 0,
      "type": "",
      "description": ""
    },
    "soundEffect": ""
  },
  "ownership": {
    "default": 0
  },
  "_stats": {
    "systemId": "pf1",
    "systemVersion": "9.0",
    "coreVersion": "10.291",
    "createdTime": 1663168897955,
    "modifiedTime": 1689623925161,
    "lastModifiedBy": "pf1spheres-db000"
  }
}
