{
  "_id": "5wRSJ1PJsUyvZ3D2",
  "name": "Defender’s Bonds",
  "type": "feat",
  "img": "icons/svg/item-bag.svg",
  "effects": [],
  "folder": null,
  "sort": 0,
  "flags": {},
  "system": {
    "description": {
      "value": "<p>The bonds between a warrior and his faithful companions shine in combat.</p>\n<p><strong>Prerequisites:</strong> Beastmastery sphere; lay on hands or sentinel&#8217;s reserve class feature, character level 3rd.</p>\n<p><strong>Benefit:</strong> Whenever you would heal yourself or gain temporary hit points from your lay on hands ability or by spending a reserve point, you may also affect one animal ally within your natural reach, granting that animal ally half the numeric benefits you received as though they were targeted by the ability plus any additional effects, such as the paladin&#8217;s mercy or sentinel&#8217;s defender&#8217;s determination abilities.</p>\n<p>Whenever you restore hit points or grant temporary hit points to an animal ally within your natural reach, that animal ally gains the benefits of any damage reduction you possess from your class features for 1 round (such as damage reduction granted by the dedicated defense class feature, not damage reduction from an item, combat or magic sphere effect, or other ability).</p>\n<p><strong>Example:</strong> A sentinel uses their sentinel&#8217;s reserve to gain 14 temporary hit points. One animal ally within the sentinel&#8217;s natural reach would gain 7 temporary hit points and any damage reduction the sentinel possesses for 1 round.</p>\n",
      "unidentified": ""
    },
    "tags": [],
    "actions": [],
    "uses": {
      "per": null,
      "value": 0,
      "maxFormula": "",
      "autoDeductChargesCost": "1"
    },
    "attackNotes": [],
    "effectNotes": [],
    "changes": [],
    "changeFlags": {
      "loseDexToAC": false,
      "noEncumbrance": false,
      "mediumArmorFullSpeed": false,
      "heavyArmorFullSpeed": false
    },
    "contextNotes": [],
    "links": {
      "children": [],
      "charges": []
    },
    "tag": "",
    "useCustomTag": false,
    "armorProf": {
      "value": [],
      "custom": ""
    },
    "weaponProf": {
      "value": [],
      "custom": ""
    },
    "languages": {
      "value": [],
      "custom": ""
    },
    "flags": {
      "boolean": {},
      "dictionary": {}
    },
    "scriptCalls": [],
    "subType": "feat",
    "associations": {
      "classes": []
    },
    "showInQuickbar": false,
    "abilityType": "none",
    "crOffset": "",
    "disabled": false,
    "classSkills": {},
    "nonlethal": false,
    "duration": {
      "value": null,
      "units": ""
    },
    "target": {
      "value": ""
    },
    "attackName": "",
    "actionType": null,
    "attackBonus": "",
    "critConfirmBonus": "",
    "damage": {
      "parts": [],
      "critParts": [],
      "nonCritParts": []
    },
    "attackParts": [],
    "formulaicAttacks": {
      "count": {
        "formula": ""
      },
      "bonus": {
        "formula": ""
      },
      "label": null
    },
    "formula": "",
    "ability": {
      "attack": null,
      "damage": null,
      "damageMult": 1,
      "critRange": 20,
      "critMult": 2
    },
    "save": {
      "dc": 0,
      "type": "",
      "description": ""
    },
    "soundEffect": ""
  },
  "ownership": {
    "default": 0
  },
  "_stats": {
    "systemId": "pf1",
    "systemVersion": "9.0",
    "coreVersion": "10.291",
    "createdTime": 1663168897543,
    "modifiedTime": 1689623924962,
    "lastModifiedBy": "pf1spheres-db000"
  }
}
