{
  "_id": "2uY4FsA9beJAgear",
  "name": "Equal and Opposite",
  "type": "feat",
  "img": "icons/svg/item-bag.svg",
  "effects": [],
  "folder": null,
  "sort": 0,
  "flags": {},
  "system": {
    "description": {
      "value": "<p><strong>Prerequisites:</strong> Telekinesis sphere, character level 5th.</p>\n<p><strong>Benefit:</strong> When an enemy performs a combat maneuver against you, you may spend an immediate action to roll your own bull rush check opposing your opponent&#8217;s, using your caster level as your base attack bonus and adding your casting ability modifier instead of your Strength modifier but adding any other modifiers excluding size modifiers to bull rush checks you may have. This does not provoke an attack of opportunity. If your result is greater than the attacking creature&#8217;s result, the creature&#8217;s combat maneuver fails. If you beat it by at least 5, they instead are forced 5 feet directly away from you for every 5 by which your roll exceeds theirs. This movement counts as your bull rush for the purpose of determining whether the enemy provokes attacks of opportunity, but not for any other purposes.</p>\n",
      "unidentified": ""
    },
    "tags": ["combat", "Protokinesis"],
    "actions": [],
    "uses": {
      "per": null,
      "value": 0,
      "maxFormula": "",
      "autoDeductChargesCost": "1"
    },
    "attackNotes": [],
    "effectNotes": [],
    "changes": [],
    "changeFlags": {
      "loseDexToAC": false,
      "noEncumbrance": false,
      "mediumArmorFullSpeed": false,
      "heavyArmorFullSpeed": false
    },
    "contextNotes": [],
    "links": {
      "children": [],
      "charges": []
    },
    "tag": "",
    "useCustomTag": false,
    "armorProf": {
      "value": [],
      "custom": ""
    },
    "weaponProf": {
      "value": [],
      "custom": ""
    },
    "languages": {
      "value": [],
      "custom": ""
    },
    "flags": {
      "boolean": {},
      "dictionary": {}
    },
    "scriptCalls": [],
    "subType": "feat",
    "associations": {
      "classes": []
    },
    "showInQuickbar": false,
    "abilityType": "none",
    "crOffset": "",
    "disabled": false,
    "classSkills": {},
    "nonlethal": false,
    "duration": {
      "value": null,
      "units": ""
    },
    "target": {
      "value": ""
    },
    "attackName": "",
    "actionType": null,
    "attackBonus": "",
    "critConfirmBonus": "",
    "damage": {
      "parts": [],
      "critParts": [],
      "nonCritParts": []
    },
    "attackParts": [],
    "formulaicAttacks": {
      "count": {
        "formula": ""
      },
      "bonus": {
        "formula": ""
      },
      "label": null
    },
    "formula": "",
    "ability": {
      "attack": null,
      "damage": null,
      "damageMult": 1,
      "critRange": 20,
      "critMult": 2
    },
    "save": {
      "dc": 0,
      "type": "",
      "description": ""
    },
    "soundEffect": ""
  },
  "ownership": {
    "default": 0
  },
  "_stats": {
    "systemId": "pf1",
    "systemVersion": "9.0",
    "coreVersion": "10.291",
    "createdTime": 1663168897503,
    "modifiedTime": 1689623924948,
    "lastModifiedBy": "pf1spheres-db000"
  }
}
