{
  "_id": "vMo2StOUBLRnHh8O",
  "name": "Hardened Psyche",
  "type": "feat",
  "img": "icons/svg/item-bag.svg",
  "effects": [],
  "folder": null,
  "sort": 0,
  "flags": {},
  "system": {
    "description": {
      "value": "<p>Your experience with violence renders you resistant to mental stress.</p>\n<p><strong>Benefit:</strong> You may add your Constitution score to your sanity score and use your Constitution modifier to determine your sanity threshold. In addition, you may attempt a Fortitude save in place of Will save against a situation which would deal sanity damage.</p>\n<p><strong>Making Sanity More Manageable:</strong> The system of sanity and madness is somewhat notorious for its brutality, especially against martial characters. If a GM feels that the sanity mechanics are problematically punishing as they are written, they may grant characters the Hardened Psyche feat for free either to all characters or to non-spellcaster characters (the reasoning being that exposure to the unnatural makes your mind more vulnerable). Alternatively or perhaps in addition, all characters may be granted the Desensitized feat as a bonus feat, reflecting how trauma makes them less vulnerable to horrific events.</p>\n",
      "unidentified": ""
    },
    "tags": ["Combat"],
    "actions": [],
    "uses": {
      "per": null,
      "value": 0,
      "maxFormula": "",
      "autoDeductChargesCost": "1"
    },
    "attackNotes": [],
    "effectNotes": [],
    "changes": [],
    "changeFlags": {
      "loseDexToAC": false,
      "noEncumbrance": false,
      "mediumArmorFullSpeed": false,
      "heavyArmorFullSpeed": false
    },
    "contextNotes": [],
    "links": {
      "children": [],
      "charges": []
    },
    "tag": "",
    "useCustomTag": false,
    "armorProf": {
      "value": [],
      "custom": ""
    },
    "weaponProf": {
      "value": [],
      "custom": ""
    },
    "languages": {
      "value": [],
      "custom": ""
    },
    "flags": {
      "boolean": {},
      "dictionary": {}
    },
    "scriptCalls": [],
    "subType": "feat",
    "associations": {
      "classes": []
    },
    "showInQuickbar": false,
    "abilityType": "none",
    "crOffset": "",
    "disabled": false,
    "classSkills": {},
    "nonlethal": false,
    "duration": {
      "value": null,
      "units": ""
    },
    "target": {
      "value": ""
    },
    "attackName": "",
    "actionType": null,
    "attackBonus": "",
    "critConfirmBonus": "",
    "damage": {
      "parts": [],
      "critParts": [],
      "nonCritParts": []
    },
    "attackParts": [],
    "formulaicAttacks": {
      "count": {
        "formula": ""
      },
      "bonus": {
        "formula": ""
      },
      "label": null
    },
    "formula": "",
    "ability": {
      "attack": null,
      "damage": null,
      "damageMult": 1,
      "critRange": 20,
      "critMult": 2
    },
    "save": {
      "dc": 0,
      "type": "",
      "description": ""
    },
    "soundEffect": ""
  },
  "ownership": {
    "default": 0
  },
  "_stats": {
    "systemId": "pf1",
    "systemVersion": "9.0",
    "coreVersion": "10.291",
    "createdTime": 1663168898197,
    "modifiedTime": 1689623925264,
    "lastModifiedBy": "pf1spheres-db000"
  }
}
