{
  "_id": "lgW0NFm6ExqgiXoo",
  "name": "Shadow Grasp",
  "type": "feat",
  "img": "icons/svg/item-bag.svg",
  "effects": [],
  "folder": null,
  "sort": 0,
  "flags": {},
  "system": {
    "description": {
      "value": "<p><strong>Prerequisites:</strong> Tenebrous Spell, Umbral Spell.</p>\n<p><strong>Benefit:</strong> When you cast a talent with the darkness descriptor that affects an area, creatures in the area are entangled. If the talent allows a saving throw, a successful save negates the entangle effect. If the talent does not normally allow a save, a creature can attempt a Reflex save (DC = the talent&#8217;s DC if it had a saving throw) to negate the effect. If the talent allows spell resistance, failing to overcome a creature&#8217;s spell resistance means it is not entangled. An entangled creature remains so as long as it is in the area of the talent and for 1 round after it leaves. A creature that leaves and reenters the area must attempt a new saving throw to avoid becoming entangled. Creatures that succeed at a save to resist being entangled do not have to attempt additional saves if they stay within the darkened area. You are never impeded by the effects of your talents modified by this feat.</p>\n<p><strong>Cost:</strong> +1 spell point</p>\n",
      "unidentified": ""
    },
    "tags": ["Metamagic"],
    "actions": [],
    "uses": {
      "per": null,
      "value": 0,
      "maxFormula": "",
      "autoDeductChargesCost": "1"
    },
    "attackNotes": [],
    "effectNotes": [],
    "changes": [],
    "changeFlags": {
      "loseDexToAC": false,
      "noEncumbrance": false,
      "mediumArmorFullSpeed": false,
      "heavyArmorFullSpeed": false
    },
    "contextNotes": [],
    "links": {
      "children": [],
      "charges": []
    },
    "tag": "",
    "useCustomTag": false,
    "armorProf": {
      "value": [],
      "custom": ""
    },
    "weaponProf": {
      "value": [],
      "custom": ""
    },
    "languages": {
      "value": [],
      "custom": ""
    },
    "flags": {
      "boolean": {},
      "dictionary": {}
    },
    "scriptCalls": [],
    "subType": "feat",
    "associations": {
      "classes": []
    },
    "showInQuickbar": false,
    "abilityType": "none",
    "crOffset": "",
    "disabled": false,
    "classSkills": {},
    "nonlethal": false,
    "duration": {
      "value": null,
      "units": ""
    },
    "target": {
      "value": ""
    },
    "attackName": "",
    "actionType": null,
    "attackBonus": "",
    "critConfirmBonus": "",
    "damage": {
      "parts": [],
      "critParts": [],
      "nonCritParts": []
    },
    "attackParts": [],
    "formulaicAttacks": {
      "count": {
        "formula": ""
      },
      "bonus": {
        "formula": ""
      },
      "label": null
    },
    "formula": "",
    "ability": {
      "attack": null,
      "damage": null,
      "damageMult": 1,
      "critRange": 20,
      "critMult": 2
    },
    "save": {
      "dc": 0,
      "type": "",
      "description": ""
    },
    "soundEffect": ""
  },
  "ownership": {
    "default": 0
  },
  "_stats": {
    "systemId": "pf1",
    "systemVersion": "9.0",
    "coreVersion": "10.291",
    "createdTime": 1663168897997,
    "modifiedTime": 1689623925193,
    "lastModifiedBy": "pf1spheres-db000"
  }
}
