{
  "_id": "3ZhdIj6MlsjbIWu9",
  "name": "Death",
  "folder": null,
  "sort": 0,
  "flags": {
    "pf1spheres": {
      "sphere": "death"
    }
  },
  "pages": [
    {
      "name": "Death",
      "type": "text",
      "title": {
        "show": false,
        "level": 1
      },
      "text": {
        "format": 1,
        "content": "<img src=\"modules/pf1spheres/assets/icons/spheres/death.webp\" style=\"float:right;border:none;outline:none\" />You may command the powers of unlife.\n<h2 id=\"toc0\"><span>Ghost Strike</span></h2>\n<p>As a standard action, you may make a ghost strike, summoning negative energy as a melee touch attack or a ranged touch attack within medium range. A ghost strike is considered a negative energy death effect, and as such has no effect on undead, constructs, and other creatures immune to such things (although some talents provide exceptions). Ghost strike effects do not stack with themselves, and are subject to spell resistance.</p>\n<p>You gain the following ghost strike when you gain the Death sphere:</p>\n<h4 id=\"toc1\"><span>Exhausting Strike</span></h4>\n<p>The subject of your ghost strike becomes fatigued for 1 round per caster level (Fortitude negates). You may spend a spell point to increases this effect to making the target exhausted for 1 minute per caster level (Fortitude negates). On a successful save, the target is still fatigued for 1 round. Unlike regular fatigue and exhaustion, these conditions end as soon as the duration expires.</p>\n<h2 id=\"toc2\"><span>Reanimate</span></h2>\n<p>As a standard action, you may touch an intact dead body and spend a spell point to reanimate it as a zombie or skeleton (depending on the composition of the body in question) for 1 minute per caster level. This creature gains the zombie or skeleton template and obeys your commands, although only basic commands such as “go”, “stay”, “follow me”, “attack”, or “guard” are understandable. While specifics can be given (“guard this area against humans but let goblins pass”), undead are unintelligent and easily fooled.</p>\n<p>A reanimated body cannot speak and has no knowledge or ability to think and so cannot answer questions or reveal anything it knew in life. When the duration expires, the body collapses until reanimated again. It does not regain hit points between reanimations. If reduced to 0 hit points, the body collapses and is destroyed; it cannot be reanimated again.</p>\n<p>You may have a total number of reanimated creatures active at any one time whose combined Hit Dice does not exceed twice your caster level. If you attempt to reanimate a creature that would push your total beyond this limit, you must choose which creatures cease to be reanimated or are released from your control. You cannot reanimate a creature with more Hit Dice than twice your caster level. Temporary increases to caster level (such as from implements or the thaumaturge’s forbidden lore class feature) do not increase the statistics, maximums, or number of undead the caster controls.</p>\n<p><strong>Animate Dead:</strong><br />\nUndead created through the Death sphere count against the total number of undead that can be controlled by the <em>animate dead</em> spell, if using both spells and spheres in the same game.</p>\n<h3 id=\"toc3\"><span>Death Talents Types</span></h3>\n<p>Some Death talents are designated (ghost strike), which provide you with additional types of ghost strikes.</p>\n<h4 id=\"toc4\"><span>Dominion</span></h4>\n<p>New to The Gravecaller’s Handbook is an update and errata to a number of talents that previously used or interacted with the Master’s Presence talent, primarily to use its range if you possessed the talent, or a default range otherwise. This change standardizes the range of these talents to close range and taking the Ranged Death talent can increase this range, instead of needing to take Master’s Presence additional times.</p>\n<p>This handbook has added the (dominion) descriptor to the following talents and advanced talent in addition to other minor changes:</p>\n<ul>\n<li>Dark Sacrifice (Ultimate Spheres of Power pg. 269)</li>\n<li>Master’s Presence (Ultimate Spheres of Power pg. 270)</li>\n<li>Reanimated Warriors (Ultimate Spheres of Power pg. 270)</li>\n<li>Shroud (Ultimate Spheres of Power pg. 270)</li>\n<li>Undead Whisperer (Ultimate Spheres of Power pg. 271)</li>\n<li>Corpse Forge (advanced talent) (Ultimate Spheres of Power pg. 393)</li>\n</ul>\n<p>Some Death talents are designated (dominion), which grant you new ways to interact with your raised and controlled undead. (Dominion) talents have a range of close.</p>\n<hr /><br />\n<br /><b>Death Talents</b><br /><ul>\n<li>@Compendium[pf1spheres.magic-talents.Ez3ge6FFMiuz71wh]{Corpse Bomb}</li>\n<li>@Compendium[pf1spheres.magic-talents.Zk6oeLSfD5OU8sMy]{Corpse Manipulation}</li>\n<li>@Compendium[pf1spheres.magic-talents.u6TOBaqup0Jl7h1j]{Cryptic Strike}</li>\n<li>@Compendium[pf1spheres.magic-talents.qbg9vSDvxna3Ek9y]{Empowered Reanimate}</li>\n<li>@Compendium[pf1spheres.magic-talents.QYrjMhrlh3OXDllB]{Expanded Necromancy}</li>\n<li>@Compendium[pf1spheres.magic-talents.03SfYctRbWqI99oI]{Gravetongue}</li>\n<li>@Compendium[pf1spheres.magic-talents.7eJMuTS5qnJtKg2R]{Greater Reanimate}</li>\n<li>@Compendium[pf1spheres.magic-talents.1us8EqHwimTxu1oA]{Haunting Apparition}</li>\n<li>@Compendium[pf1spheres.magic-talents.1fO2ETS1RmDSOiK5]{Icy Grip}</li>\n<li>@Compendium[pf1spheres.magic-talents.wVcWc4kMDGGYyeiw]{Instill Death}</li>\n<li>@Compendium[pf1spheres.magic-talents.dxkq33l3DTnHhOKw]{Killing Curse}</li>\n<li>@Compendium[pf1spheres.magic-talents.F8CM8NbakcR3SNxO]{Mass Death Magic}</li>\n<li>@Compendium[pf1spheres.magic-talents.hQlqLZKe8mlgHW8D]{Necromantic Conscription}</li>\n<li>@Compendium[pf1spheres.magic-talents.N9IQcuObWvyRyQsk]{Ranged Death}</li>\n<li>@Compendium[pf1spheres.magic-talents.JKJlrsYmdN1ves7q]{Sustained Necromancy}</li>\n<li>@Compendium[pf1spheres.magic-talents.P2cSK75WFDoKyS9b]{Taint Soul}</li>\n<li>@Compendium[pf1spheres.magic-talents.OocYEwS9r6UxMMpP]{Tomb Of Flesh}</li>\n</ul><br /><b>Dominion Talents</b><br /><ul>\n<li>@Compendium[pf1spheres.magic-talents.KqLxOj4y7em5UMbo]{Dark Sacrifice}</li>\n<li>@Compendium[pf1spheres.magic-talents.7OGgrqyRy28xFxIg]{Master’s Presence}</li>\n<li>@Compendium[pf1spheres.magic-talents.B7UVkidE07q3Avjo]{Necrotic Conduit}</li>\n<li>@Compendium[pf1spheres.magic-talents.0T8s9NlECusmNejN]{Piecemeal Reanimation}</li>\n<li>@Compendium[pf1spheres.magic-talents.c4zCaRnhDilE0vIC]{Reanimated Warriors}</li>\n<li>@Compendium[pf1spheres.magic-talents.JPWOn4T0tGtsXHhh]{Shroud (Death)}</li>\n<li>@Compendium[pf1spheres.magic-talents.1KoDClFGgzS5LwOr]{Undead Whisperer}</li>\n</ul><br /><b>Ghost Strike Talents</b><br /><ul>\n<li>@Compendium[pf1spheres.magic-talents.mxcqeh3NZi8fwsDq]{Bleeding Wounds}</li>\n<li>@Compendium[pf1spheres.magic-talents.5xvOkHafUB76rq0o]{Bonerattle}</li>\n<li>@Compendium[pf1spheres.magic-talents.tGe4YvFtnN3mIGWt]{Command Undead}</li>\n<li>@Compendium[pf1spheres.magic-talents.HetlcIrQMOrPX4KT]{Curse (Death)}</li>\n<li>@Compendium[pf1spheres.magic-talents.N44zNgwIFhx4KD8r]{Drain}</li>\n<li>@Compendium[pf1spheres.magic-talents.IHUatxEiC5InSRPM]{Fowl Infestation}</li>\n<li>@Compendium[pf1spheres.magic-talents.E3QiC7bppJvzs2tz]{Hunger}</li>\n<li>@Compendium[pf1spheres.magic-talents.yFAcE9VvU0RAF1mL]{Inflict Disease}</li>\n<li>@Compendium[pf1spheres.magic-talents.qBEzuaVKXdLlXoe4]{Lich Strike}</li>\n<li>@Compendium[pf1spheres.magic-talents.cCJZutyEGovw57qt]{Manipulate Undeath}</li>\n<li>@Compendium[pf1spheres.magic-talents.xS30XulwssKSAu7x]{Necrotic Feeding}</li>\n<li>@Compendium[pf1spheres.magic-talents.4oB07QUNXtTMpYR3]{Poltergeist}</li>\n<li>@Compendium[pf1spheres.magic-talents.xFgv5OGGwDCa8QqS]{Sickening}</li>\n<li>@Compendium[pf1spheres.magic-talents.wBWqeeuhyKuzDcmZ]{Spectral Distortion}</li>\n<li>@Compendium[pf1spheres.magic-talents.Hn2qR6otrNuY6qkt]{Vampiric Strike}</li>\n<li>@Compendium[pf1spheres.magic-talents.iqGUlisiwsmz4Kh1]{Weakening}</li>\n</ul><br /><b>Advanced Death Talents</b><br /><ul>\n<li>@Compendium[pf1spheres.magic-talents.B3bfhHc0pAk7ZTV7]{Astral Projection}</li>\n<li>@Compendium[pf1spheres.magic-talents.yB7wkGjXh0PoFRsK]{Astral Travel}</li>\n<li>@Compendium[pf1spheres.magic-talents.8cWFaoH5SAgPwU2e]{Corpse Forge}</li>\n<li>@Compendium[pf1spheres.magic-talents.cSe3TQBKU2iDPv8C]{Create Haunt}</li>\n<li>@Compendium[pf1spheres.magic-talents.6XDfkcO0LVR0Y9nV]{Create Soul Gem}</li>\n<li>@Compendium[pf1spheres.magic-talents.QFMalBJmXdy4Yf3a]{Deadlord’s Reach}</li>\n<li>@Compendium[pf1spheres.magic-talents.DOdUBhGORIw2PaAG]{Enervation}</li>\n<li>@Compendium[pf1spheres.magic-talents.z9uf6UsfSNsnoHXt]{Extended Command}</li>\n<li>@Compendium[pf1spheres.magic-talents.J6zI1PukMre8NXca]{Greater Curse}</li>\n<li>@Compendium[pf1spheres.magic-talents.jwCPO8Ga1PgIP0GE]{Greater Undead}</li>\n<li>@Compendium[pf1spheres.magic-talents.NqzN66MJYKEOVS0R]{Hollow Body}</li>\n<li>@Compendium[pf1spheres.magic-talents.Mjg7B9UP6BZPBzSW]{Mercy Killing}</li>\n<li>@Compendium[pf1spheres.magic-talents.hLDB1Of79ZYBsEzi]{Permanent Undead}</li>\n<li>@Compendium[pf1spheres.magic-talents.S9LJIdDq6dZluFdm]{Possession}</li>\n<li>@Compendium[pf1spheres.magic-talents.7hPpvcsgvQEfCIOJ]{Project Spirit}</li>\n<li>@Compendium[pf1spheres.magic-talents.YhxTpp8sK1vkLrJa]{Soul Drain}</li>\n<li>@Compendium[pf1spheres.magic-talents.qAzM6snAntSRZRuK]{Soul Trap}</li>\n<li>@Compendium[pf1spheres.magic-talents.TEfPSwDG1LdYuYhW]{Summon Spirit}</li></ul>"
      },
      "_id": "cBjQM5mEg1nd0LF3",
      "image": {},
      "video": {
        "controls": true,
        "volume": 0.5
      },
      "src": null,
      "system": {},
      "sort": 0,
      "ownership": {
        "default": -1
      },
      "flags": {}
    }
  ],
  "ownership": {
    "default": 0
  },
  "_stats": {
    "systemId": "pf1",
    "systemVersion": "0.82.2",
    "coreVersion": "10.285",
    "createdTime": 1663169295249,
    "modifiedTime": 1663181741370,
    "lastModifiedBy": "pf1spheres-db000"
  }
}
