{
  "_id": "ieAr2FubfesJeC6Q",
  "name": "Destruction",
  "folder": null,
  "sort": 0,
  "flags": {
    "pf1spheres": {
      "sphere": "destruction"
    }
  },
  "pages": [
    {
      "name": "Destruction",
      "type": "text",
      "title": {
        "show": false,
        "level": 1
      },
      "text": {
        "format": 1,
        "content": "<img src=\"modules/pf1spheres/assets/icons/spheres/destruction.webp\" style=\"float:right;border:none;outline:none\" />You can use destructive power.\n<h2 id=\"toc0\"><span>Destructive Blast</span></h2>\n<p>As a standard action, you may deliver a burst of blunt magical force as a melee touch attack or a ranged touch attack within close range. A destructive blast is subject to spell resistance, and while it bypasses DR/magic, it does not automatically bypass other forms of damage reduction if it deals physical damage (bludgeoning, slashing, or piercing). A ranged destructive blast counts as a ray attack.</p>\n<p>A basic destructive blast deals 1d6 bludgeoning damage for every odd caster level.</p>\n<strong>Table: Destructive Blast Damage</strong><br />\n<table class=\"wiki-content-table\">\n<tbody><tr>\n<th>Level</th>\n<th>Damage</th>\n</tr>\n<tr>\n<td>1st</td>\n<td>1d6</td>\n</tr>\n<tr>\n<td>3rd</td>\n<td>2d6</td>\n</tr>\n<tr>\n<td>5th</td>\n<td>3d6</td>\n</tr>\n<tr>\n<td>7th</td>\n<td>4d6</td>\n</tr>\n<tr>\n<td>9th</td>\n<td>5d6</td>\n</tr>\n<tr>\n<td>11th</td>\n<td>6d6</td>\n</tr>\n<tr>\n<td>13th</td>\n<td>7d6</td>\n</tr>\n<tr>\n<td>15th</td>\n<td>8d6</td>\n</tr>\n<tr>\n<td>17th</td>\n<td>9d6</td>\n</tr>\n<tr>\n<td>19th</td>\n<td>10d6</td>\n</tr>\n<tr>\n<td>21st</td>\n<td>11d6</td>\n</tr>\n<tr>\n<td>23rd</td>\n<td>12d6</td>\n</tr>\n<tr>\n<td>25th</td>\n<td>13d6</td>\n</tr>\n</tbody></table>\n<p>You may spend 1 spell point when making a destructive blast to increase the damage dealt to one damage die per caster level (minimum 2d6).</p>\n<h3 id=\"toc1\"><span>Destruction Talent Types</span></h3>\n<p>When augmenting a destructive blast with Destruction talents, you may only apply 1 (blast type) talent and 1 (blast shape) talent to each individual destructive blast. If a blast type or blast shape grants a combat maneuver check, that maneuver ignores normal size limitations.</p>\n<h3 id=\"toc2\"><span>Blast Type Groups</span></h3>\nEach (blast type) talent belongs to a blast type group with others of similar theme. For all purposes, the basic, unmodified destructive blast counts as its own blast type group.<br />\n<table class=\"wiki-content-table\">\n<tbody><tr>\n<th>Blast Type Group</th>\n<th>Blast Types</th>\n</tr>\n<tr>\n<td>Acid</td>\n<td>Acid Blast, Adhesive Blast, Alkali Blast</td>\n</tr>\n<tr>\n<td>Air</td>\n<td>Air Blast, Gale Blast, Hurricane Blast, Vacuum Blast</td>\n</tr>\n<tr>\n<td>Cold</td>\n<td>Drowning Blast, Frost Blast, Numbing Blast</td>\n</tr>\n<tr>\n<td>Crystal</td>\n<td>Crystal Blast, Living Crystal Blast, Razor Blast</td>\n</tr>\n<tr>\n<td>Electric</td>\n<td>Alternyating Current, Electric Blast, Shock Blast, Static Blast</td>\n</tr>\n<tr>\n<td>Fire</td>\n<td>Blistering Blast, Fire Blast, Searing Blast</td>\n</tr>\n<tr>\n<td>Force</td>\n<td>Force Blast, Invigorating Blast, Mana Siphon</td>\n</tr>\n<tr>\n<td>Holy</td>\n<td>Paradigm Blast, Smiting Blast</td>\n</tr>\n<tr>\n<td>Light</td>\n<td>Blinding Blast, Incandescent Blast, Radiant Blast</td>\n</tr>\n<tr>\n<td>Negative</td>\n<td>Gloom Blast, Nether Blast, Tenebrous Blast</td>\n</tr>\n<tr>\n<td>Sonic</td>\n<td>Reverberating Blast, Shattering Blast, Thunder Blast</td>\n</tr>\n<tr>\n<td>Stone</td>\n<td>Battering Blast, Shrapnel Blast, Stone Blast</td>\n</tr>\n</tbody></table>\n<hr /><br />\n<br /><b>Destruction Talents</b><br /><ul>\n<li>@Compendium[pf1spheres.magic-talents.Pd2YKZ1ZvbxZotHa]{Admixture}</li>\n<li>@Compendium[pf1spheres.magic-talents.ICjQXKa4kBDmdVmU]{Cascade Failure}</li>\n<li>@Compendium[pf1spheres.magic-talents.oqUyUeTvI3Ug17Uf]{Clinging Blast}</li>\n<li>@Compendium[pf1spheres.magic-talents.7zuk9WJnmlO85v7I]{Crafted Blast}</li>\n<li>@Compendium[pf1spheres.magic-talents.vx5vMVp37422t1TQ]{Damage Control}</li>\n<li>@Compendium[pf1spheres.magic-talents.cqfxD5HFvvlq0tC3]{Demolition}</li>\n<li>@Compendium[pf1spheres.magic-talents.fUeBsxaARXaWbhJ3]{Energetic Response}</li>\n<li>@Compendium[pf1spheres.magic-talents.dm0dWaQKgc01dKnk]{Epicenter}</li>\n<li>@Compendium[pf1spheres.magic-talents.3Iwra3VaLSYdmDmW]{Extended Range}</li>\n<li>@Compendium[pf1spheres.magic-talents.FQgdD1mfv727k13P]{Focused Blast}</li>\n<li>@Compendium[pf1spheres.magic-talents.ct5bJd6ZtbEbIrmb]{Gather Energy}</li>\n<li>@Compendium[pf1spheres.magic-talents.xt7CBFOXYoIeJEKn]{Selective Blast}</li>\n<li>@Compendium[pf1spheres.magic-talents.2b2WiCL8HvbbBlSw]{Spirit Blast}</li>\n<li>@Compendium[pf1spheres.magic-talents.tRKSErB89Tfs4HRJ]{Wingbind}</li>\n</ul><br /><b>Blast Shape Talents</b><br /><ul>\n<li>@Compendium[pf1spheres.magic-talents.2HxEFpcnIvk55Bg4]{Blast Salvo}</li>\n<li>@Compendium[pf1spheres.magic-talents.42lm0IZcjecuiU37]{Blast Trap}</li>\n<li>@Compendium[pf1spheres.magic-talents.FDIfbbxhPSOG2RuN]{Chain Blast}</li>\n<li>@Compendium[pf1spheres.magic-talents.eDWPYlFPFILHcqjx]{Energy Aura}</li>\n<li>@Compendium[pf1spheres.magic-talents.WoPizfIpkqVs3ovU]{Energy Bomb}</li>\n<li>@Compendium[pf1spheres.magic-talents.D5dAdVSOJHZbzNvT]{Energy Leap}</li>\n<li>@Compendium[pf1spheres.magic-talents.oKuXeDTW3NJ2lTqg]{Energy Satellite}</li>\n<li>@Compendium[pf1spheres.magic-talents.DEHrDuN09ngci7CV]{Energy Sphere}</li>\n<li>@Compendium[pf1spheres.magic-talents.DJ8WzqrFIIEzIjz4]{Energy Strike}</li>\n<li>@Compendium[pf1spheres.magic-talents.Qr40quMHzc655bs5]{Energy Tether}</li>\n<li>@Compendium[pf1spheres.magic-talents.HpsFYhrwWWpDMkWw]{Energy Wall}</li>\n<li>@Compendium[pf1spheres.magic-talents.s1xDrU5T6IfFgx4M]{Explosive Orb}</li>\n<li>@Compendium[pf1spheres.magic-talents.08aZa7uMgUvtUKhY]{Guided Strike}</li>\n<li>@Compendium[pf1spheres.magic-talents.vTX3lo4X4XrGTIYC]{Knight’s Blast}</li>\n<li>@Compendium[pf1spheres.magic-talents.nPVzgrUri5IrHyJI]{Mutable Blast}</li>\n<li>@Compendium[pf1spheres.magic-talents.xNJgDZbAtqB0kC2w]{Rebuff}</li>\n<li>@Compendium[pf1spheres.magic-talents.9eRUIN6aWUT1aPcw]{Retributive Blast}</li>\n<li>@Compendium[pf1spheres.magic-talents.L3mMiXKsHFBUrmTR]{Sculpt Blast}</li>\n</ul><br /><b>Blast Type Talents</b><br /><ul>\n<li>@Compendium[pf1spheres.magic-talents.ROwc4BLsV3ECGzh1]{Acid Blast}</li>\n<li>@Compendium[pf1spheres.magic-talents.4jLhaTkDY2pNOxyx]{Adhesive Blast}</li>\n<li>@Compendium[pf1spheres.magic-talents.PjueM5z4eylwlWbK]{Air Blast}</li>\n<li>@Compendium[pf1spheres.magic-talents.EU0TOwGQcGW460XI]{Alkali Blast}</li>\n<li>@Compendium[pf1spheres.magic-talents.R8ulOOz5y1mzxuTh]{Alternyating Current}</li>\n<li>@Compendium[pf1spheres.magic-talents.V1oKK9NVl9HrCnAk]{Battering Blast}</li>\n<li>@Compendium[pf1spheres.magic-talents.M1Mo6z5YUYRLZmE2]{Blinding Blast}</li>\n<li>@Compendium[pf1spheres.magic-talents.qPtxZFCw8t4ETyby]{Blistering Blast}</li>\n<li>@Compendium[pf1spheres.magic-talents.zncomDzj7bhtnf6j]{Crystal Blast}</li>\n<li>@Compendium[pf1spheres.magic-talents.lwGPX1FewncIiKWa]{Drowning Blast}</li>\n<li>@Compendium[pf1spheres.magic-talents.vT54QIdZuL6aG0h8]{Electric Blast}</li>\n<li>@Compendium[pf1spheres.magic-talents.EXbxrzL6nyZrdIwl]{Fire Blast}</li>\n<li>@Compendium[pf1spheres.magic-talents.k62AgH9T71dMcvmD]{Force Blast}</li>\n<li>@Compendium[pf1spheres.magic-talents.J5TWF6vBFRBPq51J]{Frost Blast}</li>\n<li>@Compendium[pf1spheres.magic-talents.omH4t7ib2hcdhpAW]{Gale Blast}</li>\n<li>@Compendium[pf1spheres.magic-talents.356cEdpzdK2iqOrj]{Gloom Blast}</li>\n<li>@Compendium[pf1spheres.magic-talents.cF23SJLG2j55bsGX]{Gore Blast}</li>\n<li>@Compendium[pf1spheres.magic-talents.qhHR5KjdVzcm4Z6v]{Hurricane Blast}</li>\n<li>@Compendium[pf1spheres.magic-talents.xT1uyqjPcwgyOXat]{Incandescent Blast}</li>\n<li>@Compendium[pf1spheres.magic-talents.CPBQ1Z6Odiqe4vFk]{Invigorating Blast}</li>\n<li>@Compendium[pf1spheres.magic-talents.MjuYm4bfTqfyyyLw]{Living Crystal Blast}</li>\n<li>@Compendium[pf1spheres.magic-talents.5VUKW3YwYRAUsNNL]{Mana Siphon}</li>\n<li>@Compendium[pf1spheres.magic-talents.YJAfnOhE8T3WyvYX]{Nether Blast}</li>\n<li>@Compendium[pf1spheres.magic-talents.yc4sxOcV7zbL3fIO]{Numbing Blast}</li>\n<li>@Compendium[pf1spheres.magic-talents.kumPYCd7k4kkp7DE]{Paradigm Blast}</li>\n<li>@Compendium[pf1spheres.magic-talents.FN5VjtFukDGS9Bf1]{Radiant Blast}</li>\n<li>@Compendium[pf1spheres.magic-talents.mjndjBxASW6wsbRg]{Razor Blast}</li>\n<li>@Compendium[pf1spheres.magic-talents.UqcOKqXaw0BRtuBG]{Reverberating Blast}</li>\n<li>@Compendium[pf1spheres.magic-talents.ixlbHJv5Z7sXKQS6]{Searing Blast}</li>\n<li>@Compendium[pf1spheres.magic-talents.QFoJbXttyFvnGAxX]{Shattering Blast}</li>\n<li>@Compendium[pf1spheres.magic-talents.E0CuBNuyt9pfE4gc]{Shock Blast}</li>\n<li>@Compendium[pf1spheres.magic-talents.jJX1kj9g7rK1BWIz]{Shrapnel Blast}</li>\n<li>@Compendium[pf1spheres.magic-talents.UdD3Z0aE6nNH0hpZ]{Smiting Blast}</li>\n<li>@Compendium[pf1spheres.magic-talents.6N8WvJhawXgiNpB9]{Static Blast}</li>\n<li>@Compendium[pf1spheres.magic-talents.eWHB04msYKy3QBGU]{Stone Blast}</li>\n<li>@Compendium[pf1spheres.magic-talents.r4Eqf7kmBEd3wmkC]{Tenebrous Blast}</li>\n<li>@Compendium[pf1spheres.magic-talents.p7nbxE6ZG9UECX8Z]{Thunder Blast}</li>\n<li>@Compendium[pf1spheres.magic-talents.k9xvDB4DSTqGHnKa]{Vacuum Blast}</li>\n</ul><br /><b>Advanced Destruction Talents</b><br /><ul>\n<li>@Compendium[pf1spheres.magic-talents.qEn4Nz2JQWCKGZDz]{Blast Array}</li>\n<li>@Compendium[pf1spheres.magic-talents.QgCdGP1CmzcW1SNa]{Calamity}</li>\n<li>@Compendium[pf1spheres.magic-talents.V5Adw6QfttJjwdTz]{Crystal Cocoon}</li>\n<li>@Compendium[pf1spheres.magic-talents.gKYG4ZvovMPmcYX8]{Disintegrate}</li>\n<li>@Compendium[pf1spheres.magic-talents.0t4Rg2YlnAkNELZH]{Energy Cloud}</li>\n<li>@Compendium[pf1spheres.magic-talents.UuUCEEaqGP0DcyDO]{Erratic Blast}</li>\n<li>@Compendium[pf1spheres.magic-talents.5aO1wb4r6TKzggX8]{Extreme Range}</li>\n<li>@Compendium[pf1spheres.magic-talents.IlwYHPrYJgFmADBw]{Grandmaster}</li>\n<li>@Compendium[pf1spheres.magic-talents.2E0klSIoRWv6DLVT]{Greater Admixture}</li>\n<li>@Compendium[pf1spheres.magic-talents.m2phaMPxJ50ZJe9E]{Penetrating Blast}</li>\n<li>@Compendium[pf1spheres.magic-talents.6mXYv8ejuWwEScHy]{Radiation Blast}</li>\n<li>@Compendium[pf1spheres.magic-talents.cPb3QnRi0MicKO8m]{Split Blast}</li></ul>"
      },
      "_id": "gmVbVv1G4Yjvctpk",
      "image": {},
      "video": {
        "controls": true,
        "volume": 0.5
      },
      "src": null,
      "system": {},
      "sort": 0,
      "ownership": {
        "default": -1
      },
      "flags": {}
    }
  ],
  "ownership": {
    "default": 0
  },
  "_stats": {
    "systemId": "pf1",
    "systemVersion": "0.82.2",
    "coreVersion": "10.285",
    "createdTime": 1663169295301,
    "modifiedTime": 1663181741678,
    "lastModifiedBy": "pf1spheres-db000"
  }
}
