{
  "_id": "Irf4iszPryiDjCvN",
  "name": "Mind",
  "folder": null,
  "sort": 0,
  "flags": {
    "pf1spheres": {
      "sphere": "mind"
    }
  },
  "pages": [
    {
      "name": "Mind",
      "type": "text",
      "title": {
        "show": false,
        "level": 1
      },
      "text": {
        "format": 1,
        "content": "<img src=\"modules/pf1spheres/assets/icons/spheres/mind.webp\" style=\"float:right;border:none;outline:none\" />You gain the ability to alter the minds of others, causing them to act as you see fit. All (charm) and (cloud) effects are enchantment (compulsion) mind-affecting abilities.\n<p><strong>Note:</strong> Some Mind sphere abilities allow the caster to make a request of the target creature and have different effects depending on the particular request made. While the final decision on what request falls into what category is up to the GM, the examples in Table: Example Requests are a shorthand for players and GMs hoping to quickly determine what an enchanted creature might or might not be asked to do.</p>\n<div style=\"clear:both;height:0px;font-size:1px\"></div>\n<strong>Table: Example Requests</strong><br />\n<table class=\"wiki-content-table\">\n<tbody><tr>\n<th>Creature</th>\n<th>Very Simple Request</th>\n<th>Basic Request</th>\n<th>Would not normally do</th>\n<th>Against the creature’s nature</th>\n</tr>\n<tr>\n<td>Paladin</td>\n<td>Provide healing to an injured person</td>\n<td>Protect the innocent from danger, hunt a monster in the area</td>\n<td>Ignore minor criminal activity, hide a creature of dubious guilt</td>\n<td>Attack teammates, slaughter the innocent, renounce her religion, desecrate a temple</td>\n</tr>\n<tr>\n<td>Evil-aligned professional thief</td>\n<td>Steal a simple, unattended object, visit a tavern</td>\n<td>Share non-compromising information, teach someone thieving skills</td>\n<td>Donate a few coins to charity, reveal secret plans, stab their co-conspirators in the back</td>\n<td>Give up their most valuable magic items, reveal their greatest secrets, turn themselves in for their crimes</td>\n</tr>\n<tr>\n<td>Bear</td>\n<td>Grab fish from a stream</td>\n<td>Calm down and not attack an unassuming target</td>\n<td>Ignore a humanoid sitting in its den</td>\n<td>Ignore the kidnapping of its cubs</td>\n</tr>\n<tr>\n<td>Orc bandit</td>\n<td>Mug a weak, unguarded target</td>\n<td>Join a raid on a town, or the hunting of a monster</td>\n<td>Help run a farm, ignore a rich-looking target, fight a target where survival is uncertain</td>\n<td>Fight a target where survival is unlikely, join a raid against its own people</td>\n</tr>\n<tr>\n<td>Ancient dragon</td>\n<td>Eat an annoying humanoid</td>\n<td>Eat an unassuming humanoid</td>\n<td>Give up a valuable item</td>\n<td>Give up its hoard</td>\n</tr>\n<tr>\n<td>Middle-aged farmer</td>\n<td>Eat lunch</td>\n<td>Give a kind stranger a meal and a hayloft to sleep in</td>\n<td>House and feed a squadron of questionable men, help a team of adventurers as a cook and porter on their quests</td>\n<td>House wanted criminals, allow the kidnapping of his family, take up arms and become a soldier</td>\n</tr>\n</tbody></table>\n<h2 id=\"toc0\"><span>Charm</span></h2>\n<p>You may place charms on creatures. Charms require a standard action to use, have a range of close, and are subject to spell resistance. You may only use charms on targets that possess your own creature type (humanoid for humanoids, etc.) although the Expanded Charm talent changes this. Each charm has three strengths; lesser, greater, and powerful. Lesser charms are at-will abilities, but you may not target an individual creature more than once in a day with any individual lesser charm. Greater charms cost a spell point to use and powerful charms cost 2 points to use. You must possess the Powerful Charm talent before you may use any powerful charms.</p>\n<p>When you gain the Mind sphere, you gain the following charm:</p>\n<h4 id=\"toc1\"><span>Suggestion</span></h4>\n<p>You may plant thoughts into a target’s mind.</p>\n<p><strong>Lesser Charm:</strong> You may plant a suggestion in a target’s mind, which they obey as if the thought had been their own (Will negates). The suggested course of activity must be limited to a sentence or two and must be a very simple request. The creature performs the suggested action until it finishes, or for 1 hour per caster level, whichever comes first. If you choose, you can instead specify conditions the creature should look for, (i.e., “you should search the next person who enters this room, looking for weapons.”) If the condition is not met before this duration expires, the activity is not performed.</p>\n<p><strong>Greater Charm:</strong> This works as the lesser charm, but may be up to a basic request. Very simple requests cause the save to be made with a -2 penalty. The target cannot be asked to do anything it would not normally do.</p>\n<p><strong>Powerful Charm:</strong> This works as the lesser charm, but the creature obeys any course of action given, so long as the suggestion is not obviously fatal or against the target’s nature. Basic requests cause the save to be made with a -2 penalty, while very simple requests cause the save to be made with a -4 penalty.</p>\n<hr />\n<h3 id=\"toc2\"><span>Mind Talent Types</span></h3>\n<p>Some mind talents are designated (charm) talents. These talents grant you additional charms you may place on targets.</p>\n<h4 id=\"toc3\"><span>Cloud</span></h4>\n<p>Talents marked with the (cloud) tag allow the caster to spend a standard action to create clouds of mental energy that emanate from an area, object, or creature within close range. When applying a cloud to an unwilling creature or an attended object they are allowed a Will save to resist, and both placing a cloud and the effects of a cloud are subject to spell resistance. A creature is immune to cloud effects placed upon itself or its worn and carried equipment.</p>\n<p>An imbued area may either be 10 feet in radius + an extra 5 feet per caster level, or a 10-foot wide area that extends for a length of 10 feet + 10 feet per caster level (such as would be appropriate to fill a 10-foot wide hallway). An imbued item may be no larger than 5 cubic feet per caster level in size. A creature may be up to the caster’s size + 1 size category for every 5 caster levels. It is possible to imbue a portion of an item or creature (a single head of a massive, two-headed dragon or a single segment of a lengthy carpet with blood smeared over it, for instance) but hiding a portion of an item or creature will not prevent the whole of it from being noticed. Unless otherwise specified, a cloud’s radius extends from an item or creature as if the creature was the center of an imbued area measured as a radius.</p>\n<p>As with charms, most clouds have three strengths; lesser, greater, and powerful. Spell point expenditures remain the same for the three strengths, and you may only affect a creature with a cloud if you could also affect it with a charm. Similarly, the Powerful Charm talent is required to use the powerful versions of clouds and you may only imbue the same item, creature, or area with a lesser cloud once per day. With the exception of Mass Charm, (cloud) talents are affected by talents that affect charms.</p>\n<h4 id=\"toc4\"><span>Cognition</span></h4>\n<p>Some talents are marked (cognition). These talents grant you additional mental powers, increasing your ability to analyze and think. All (cognition) talents are personal range, benefiting only the person that uses them.</p>\n<hr /><br />\n<br /><b>Mind Talents</b><br /><ul>\n<li>@Compendium[pf1spheres.magic-talents.LgXFBlQtdr9Vu8ix]{Charming Strike}</li>\n<li>@Compendium[pf1spheres.magic-talents.yLRNKLHwv2YrR8Ir]{Expanded Charm}</li>\n<li>@Compendium[pf1spheres.magic-talents.EZmBNKZtbrUrsYEI]{Instill Charm}</li>\n<li>@Compendium[pf1spheres.magic-talents.mDdhzlqEtIEevOnL]{Mass Charm}</li>\n<li>@Compendium[pf1spheres.magic-talents.V97ATqj7IOeJuZK6]{Mental Backdoor}</li>\n<li>@Compendium[pf1spheres.magic-talents.Y8GRdOaJ9eah6dw6]{Powerful Charm}</li>\n<li>@Compendium[pf1spheres.magic-talents.FmKWObP3liQfh53X]{Psychic Vengeance}</li>\n<li>@Compendium[pf1spheres.magic-talents.ikzvMd47Rom7j9Nl]{Ranged Mind}</li>\n<li>@Compendium[pf1spheres.magic-talents.bxcHMfCfzzmzAJTw]{Subtlety}</li>\n</ul><br /><b>Charm Talents</b><br /><ul>\n<li>@Compendium[pf1spheres.magic-talents.nXZcIV0gCWMSbjw7]{Amnesia}</li>\n<li>@Compendium[pf1spheres.magic-talents.iEsot0Of1nw61n3x]{Calm}</li>\n<li>@Compendium[pf1spheres.magic-talents.uIeAbe8rdjYQ4ogW]{Candor}</li>\n<li>@Compendium[pf1spheres.magic-talents.tGsfm2eKjNoKlREs]{Cerebral Strike}</li>\n<li>@Compendium[pf1spheres.magic-talents.owW8Fu9z521t8ymc]{Command}</li>\n<li>@Compendium[pf1spheres.magic-talents.rjvYxCbkqU55hoSc]{Confusion}</li>\n<li>@Compendium[pf1spheres.magic-talents.sLNKyRziYsbQ2EQj]{Courage}</li>\n<li>@Compendium[pf1spheres.magic-talents.FQ0Qw1YFJtL2F8KN]{Disrupt Focus}</li>\n<li>@Compendium[pf1spheres.magic-talents.xGJtaL9mN62rEF20]{Enthrall}</li>\n<li>@Compendium[pf1spheres.magic-talents.01nBV29RVcdtLQxm]{Esteem}</li>\n<li>@Compendium[pf1spheres.magic-talents.vDRzQ1sifAFNengk]{Fascinate}</li>\n<li>@Compendium[pf1spheres.magic-talents.sBQrHW9lieyIvq0F]{Fear}</li>\n<li>@Compendium[pf1spheres.magic-talents.uMZmv5gw7mFuSIWy]{Gestures}</li>\n<li>@Compendium[pf1spheres.magic-talents.qjOI4wo6qr65cTIf]{Hostility}</li>\n<li>@Compendium[pf1spheres.magic-talents.A8mCvJg4zCkkikrJ]{Inception}</li>\n<li>@Compendium[pf1spheres.magic-talents.TAPAYGWNaOxjo7gN]{Inspiration}</li>\n<li>@Compendium[pf1spheres.magic-talents.sZCWM9GCbWCH4RTF]{Mind Shield}</li>\n<li>@Compendium[pf1spheres.magic-talents.DCJXIYFHtMMFvBxF]{Mind Spy}</li>\n<li>@Compendium[pf1spheres.magic-talents.JjDynjxsfzI6zBjc]{Paralyze}</li>\n<li>@Compendium[pf1spheres.magic-talents.nQEjmXJl10SBtiOj]{Project Thoughts}</li>\n<li>@Compendium[pf1spheres.magic-talents.CoDFR9IJjjOJkvRJ]{Read Mind}</li>\n<li>@Compendium[pf1spheres.magic-talents.AY16PdoD9zdnKFx5]{Recommend}</li>\n<li>@Compendium[pf1spheres.magic-talents.j3RbiySrmVuGtFxH]{Sleep}</li>\n<li>@Compendium[pf1spheres.magic-talents.LnIy1iPBDffjh0Iq]{Utterances}</li>\n<li>@Compendium[pf1spheres.magic-talents.C8XQE215qZEtNxDD]{Vision}</li>\n<li>@Compendium[pf1spheres.magic-talents.02daQjAh4r2s01XX]{Wrack}</li>\n</ul><br /><b>Cloud Talents</b><br /><ul>\n<li>@Compendium[pf1spheres.magic-talents.OnmshgFhQapc5wig]{Dispersion}</li>\n<li>@Compendium[pf1spheres.magic-talents.YLjZTsYWFB8KHvVw]{Lure}</li>\n<li>@Compendium[pf1spheres.magic-talents.iFkdHNvfB6pZwgKH]{Misdirect}</li>\n<li>@Compendium[pf1spheres.magic-talents.uDEND2g5LluzTm3k]{Suppress}</li>\n</ul><br /><b>Cognition Talents</b><br /><ul>\n<li>@Compendium[pf1spheres.magic-talents.hGLVccZyXveXtL21]{Arcane Calculation}</li>\n<li>@Compendium[pf1spheres.magic-talents.BeBTt8sU9424eQUB]{Intuit Knowledge}</li>\n<li>@Compendium[pf1spheres.magic-talents.kdvrQTnyKBbHjv4t]{Mental Archive}</li>\n<li>@Compendium[pf1spheres.magic-talents.527EuphlJQKlEYB9]{Parallel Cognition}</li>\n<li>@Compendium[pf1spheres.magic-talents.RbCJUA8W2DoxL0mX]{Polyglot}</li>\n<li>@Compendium[pf1spheres.magic-talents.Ig2VDlTfirw1pGPB]{Rapid Processing}</li>\n<li>@Compendium[pf1spheres.magic-talents.FxzjHA7IfwZpQMl6]{Terrifying Mind}</li>\n</ul><br /><b>Advanced Mind Talents</b><br /><ul>\n<li>@Compendium[pf1spheres.magic-talents.gw1Sk5qAog3OWmJJ]{Catatonia}</li>\n<li>@Compendium[pf1spheres.magic-talents.2aE34yJsqwZTJbTE]{Deadly Vision}</li>\n<li>@Compendium[pf1spheres.magic-talents.OcrbHiEsONYPApJF]{Discern Alien Cognition}</li>\n<li>@Compendium[pf1spheres.magic-talents.z6xQyPLrx8eLaXlM]{Epiphany}</li>\n<li>@Compendium[pf1spheres.magic-talents.RglVdXpnR678KL6B]{Flawless Precision}</li>\n<li>@Compendium[pf1spheres.magic-talents.TQpTmqW27EhFO9hw]{Greater Communication}</li>\n<li>@Compendium[pf1spheres.magic-talents.6CCyMvR9WowUTpeC]{Insanity}</li>\n<li>@Compendium[pf1spheres.magic-talents.60UGvx78vqHaAqd0]{Memetic Link}</li>\n<li>@Compendium[pf1spheres.magic-talents.dgyCaXDT7LBgjw2d]{Mind Control}</li>\n<li>@Compendium[pf1spheres.magic-talents.k6NKlxIwyOA15p97]{Psychic Backlash}</li>\n<li>@Compendium[pf1spheres.magic-talents.lqHf6McU6AvvgiVs]{Recondite Stimuli}</li>\n<li>@Compendium[pf1spheres.magic-talents.AS32Ysqyajeu3GZH]{Zeitgeist}</li></ul>"
      },
      "_id": "JxBr8xrBKsgLSFqf",
      "image": {},
      "video": {
        "controls": true,
        "volume": 0.5
      },
      "src": null,
      "system": {},
      "sort": 0,
      "ownership": {
        "default": -1
      },
      "flags": {}
    }
  ],
  "ownership": {
    "default": 0
  },
  "_stats": {
    "systemId": "pf1",
    "systemVersion": "0.82.2",
    "coreVersion": "10.285",
    "createdTime": 1663169295284,
    "modifiedTime": 1663181741557,
    "lastModifiedBy": "pf1spheres-db000"
  }
}
